{"status":true,"response":{"data":[{"created_on":"2025-06-07T11:16:08.000Z","created_by":null,"modified_on":"2025-06-07T11:16:08.000Z","modified_by":null,"deleted_on":null,"deleted_by":null,"id":"92","home_branch_code":null,"foracid":null,"acct_name":"test5496","gl_sub_head_code":null,"bacid":null,"tran_date":null,"tran_id":null,"part_tran_srl_num":null,"tran_type":null,"tran_sub_type":null,"part_tran_type":null,"acid":null,"value_date":"2025-06-13","tran_amt":null,"tran_particular":null,"sol_id":null,"ref_num":null,"tran_crncy_code":null,"rpt_code":null,"acct_pattern":null,"adjustment_type":"other","mpr_id":42},{"created_on":"2025-06-07T11:13:12.000Z","created_by":null,"modified_on":"2025-06-07T11:13:12.000Z","modified_by":null,"deleted_on":null,"deleted_by":null,"id":"90","home_branch_code":null,"foracid":null,"acct_name":"test2689","gl_sub_head_code":null,"bacid":null,"tran_date":null,"tran_id":null,"part_tran_srl_num":null,"tran_type":null,"tran_sub_type":null,"part_tran_type":null,"acid":null,"value_date":"2025-06-13","tran_amt":null,"tran_particular":null,"sol_id":null,"ref_num":null,"tran_crncy_code":null,"rpt_code":null,"acct_pattern":null,"adjustment_type":"other","mpr_id":42},{"created_on":"2025-06-06T15:11:23.000Z","created_by":null,"modified_on":"2025-06-06T15:11:23.000Z","modified_by":null,"deleted_on":null,"deleted_by":null,"id":"88","home_branch_code":null,"foracid":null,"acct_name":"test4179","gl_sub_head_code":null,"bacid":null,"tran_date":null,"tran_id":null,"part_tran_srl_num":null,"tran_type":null,"tran_sub_type":null,"part_tran_type":null,"acid":null,"value_date":"2025-06-12","tran_amt":null,"tran_particular":null,"sol_id":null,"ref_num":null,"tran_crncy_code":null,"rpt_code":null,"acct_pattern":null,"adjustment_type":"other","mpr_id":42},{"created_on":"2025-06-06T14:39:34.000Z","created_by":null,"modified_on":"2025-06-06T14:39:34.000Z","modified_by":null,"deleted_on":null,"deleted_by":null,"id":"86","home_branch_code":null,"foracid":null,"acct_name":"test3266","gl_sub_head_code":null,"bacid":null,"tran_date":null,"tran_id":null,"part_tran_srl_num":null,"tran_type":null,"tran_sub_type":null,"part_tran_type":null,"acid":null,"value_date":"2025-06-12","tran_amt":null,"tran_particular":null,"sol_id":null,"ref_num":null,"tran_crncy_code":null,"rpt_code":null,"acct_pattern":null,"adjustment_type":"other","mpr_id":42},{"created_on":"2025-06-05T23:52:49.000Z","created_by":null,"modified_on":"2025-06-05T23:52:49.000Z","modified_by":null,"deleted_on":null,"deleted_by":null,"id":"84","home_branch_code":null,"foracid":null,"acct_name":"test1924","gl_sub_head_code":null,"bacid":null,"tran_date":null,"tran_id":null,"part_tran_srl_num":null,"tran_type":null,"tran_sub_type":null,"part_tran_type":null,"acid":null,"value_date":"2025-06-11","tran_amt":null,"tran_particular":null,"sol_id":null,"ref_num":null,"tran_crncy_code":null,"rpt_code":null,"acct_pattern":null,"adjustment_type":"other","mpr_id":42},{"created_on":"2025-06-05T23:49:18.000Z","created_by":null,"modified_on":"2025-06-05T23:49:18.000Z","modified_by":null,"deleted_on":null,"deleted_by":null,"id":"82","home_branch_code":null,"foracid":null,"acct_name":"test800","gl_sub_head_code":null,"bacid":null,"tran_date":null,"tran_id":null,"part_tran_srl_num":null,"tran_type":null,"tran_sub_type":null,"part_tran_type":null,"acid":null,"value_date":"2025-06-11","tran_amt":null,"tran_particular":null,"sol_id":null,"ref_num":null,"tran_crncy_code":null,"rpt_code":null,"acct_pattern":null,"adjustment_type":"other","mpr_id":42},{"created_on":"2025-06-05T23:14:13.000Z","created_by":null,"modified_on":"2025-06-05T23:14:13.000Z","modified_by":null,"deleted_on":null,"deleted_by":null,"id":"80","home_branch_code":null,"foracid":null,"acct_name":"test3211","gl_sub_head_code":null,"bacid":null,"tran_date":null,"tran_id":null,"part_tran_srl_num":null,"tran_type":null,"tran_sub_type":null,"part_tran_type":null,"acid":null,"value_date":"2025-06-11","tran_amt":null,"tran_particular":null,"sol_id":null,"ref_num":null,"tran_crncy_code":null,"rpt_code":null,"acct_pattern":null,"adjustment_type":"other","mpr_id":42},{"created_on":"2025-06-05T22:55:40.000Z","created_by":null,"modified_on":"2025-06-05T22:55:40.000Z","modified_by":null,"deleted_on":null,"deleted_by":null,"id":"78","home_branch_code":null,"foracid":null,"acct_name":"test905","gl_sub_head_code":null,"bacid":null,"tran_date":null,"tran_id":null,"part_tran_srl_num":null,"tran_type":null,"tran_sub_type":null,"part_tran_type":null,"acid":null,"value_date":"2025-06-11","tran_amt":null,"tran_particular":null,"sol_id":null,"ref_num":null,"tran_crncy_code":null,"rpt_code":null,"acct_pattern":null,"adjustment_type":"other","mpr_id":42},{"created_on":"2025-06-05T22:52:44.000Z","created_by":null,"modified_on":"2025-06-05T22:52:44.000Z","modified_by":null,"deleted_on":null,"deleted_by":null,"id":"76","home_branch_code":null,"foracid":null,"acct_name":"test5926","gl_sub_head_code":null,"bacid":null,"tran_date":null,"tran_id":null,"part_tran_srl_num":null,"tran_type":null,"tran_sub_type":null,"part_tran_type":null,"acid":null,"value_date":"2025-06-11","tran_amt":null,"tran_particular":null,"sol_id":null,"ref_num":null,"tran_crncy_code":null,"rpt_code":null,"acct_pattern":null,"adjustment_type":"other","mpr_id":42},{"created_on":"2025-06-05T22:25:15.000Z","created_by":null,"modified_on":"2025-06-05T22:25:15.000Z","modified_by":null,"deleted_on":null,"deleted_by":null,"id":"74","home_branch_code":null,"foracid":null,"acct_name":"test8526","gl_sub_head_code":null,"bacid":null,"tran_date":null,"tran_id":null,"part_tran_srl_num":null,"tran_type":null,"tran_sub_type":null,"part_tran_type":null,"acid":null,"value_date":"2025-06-11","tran_amt":null,"tran_particular":null,"sol_id":null,"ref_num":null,"tran_crncy_code":null,"rpt_code":null,"acct_pattern":null,"adjustment_type":"other","mpr_id":42}],"total":27,"page":"1","limit":"10","totalPages":3}}