{"status":true,"response":{"total":189,"page":1,"limit":10,"totalPages":19,"data":[{"created_on":"2025-02-24T16:38:00.000Z","created_by":"188","modified_on":"2025-02-24T16:38:00.000Z","id":"200","staff_id":null,"manager_id":null,"first_name":"","last_name":"","display_name":null,"description":null,"photo":null,"phone":null,"email":"qatester@yopmail.com","status":"pending","last_login_date":null},{"created_on":"2025-02-24T15:49:06.000Z","created_by":"170","modified_on":"2025-02-24T15:49:06.000Z","id":"199","staff_id":null,"manager_id":null,"first_name":"","last_name":"","display_name":null,"description":null,"photo":null,"phone":null,"email":"udeme+1@yopmail.com","status":"pending","last_login_date":null},{"created_on":"2025-02-23T14:37:22.000Z","created_by":"188","modified_on":"2025-02-23T14:52:17.000Z","id":"197","staff_id":null,"manager_id":null,"first_name":"Ezekiel","last_name":"Tester","display_name":null,"description":null,"photo":null,"phone":null,"email":"ezekiel@assurdly.com","status":"active","last_login_date":"2025-02-23T14:52:18.000Z"},{"created_on":"2025-02-23T14:09:33.000Z","created_by":"4","modified_on":"2025-02-23T15:21:18.000Z","id":"196","staff_id":null,"manager_id":null,"first_name":"Tobechukwu","last_name":"Nnamdi","display_name":null,"description":null,"photo":null,"phone":"+2348026286550","email":"favour@mailinator.com","status":"active","last_login_date":"2025-02-23T14:32:12.000Z"},{"created_on":"2025-02-20T23:05:14.000Z","created_by":"172","modified_on":"2025-02-24T15:00:06.000Z","id":"195","staff_id":null,"manager_id":null,"first_name":"Testopi","last_name":"Name","display_name":null,"description":null,"photo":null,"phone":null,"email":"testop@yopmail.com","status":"active","last_login_date":"2025-02-20T23:30:05.000Z"},{"created_on":"2025-02-20T13:37:12.000Z","created_by":"188","modified_on":"2025-02-20T13:37:12.000Z","id":"192","staff_id":null,"manager_id":null,"first_name":"","last_name":"","display_name":null,"description":null,"photo":null,"phone":null,"email":"Ade@yopmail.com","status":"pending","last_login_date":null},{"created_on":"2025-02-20T00:32:20.000Z","created_by":"188","modified_on":"2025-02-24T15:00:15.000Z","id":"190","staff_id":null,"manager_id":null,"first_name":"Hygenus","last_name":"Hycent","display_name":null,"description":null,"photo":null,"phone":null,"email":"Livadmin@yopmail.com","status":"active","last_login_date":"2025-02-20T00:34:14.000Z"},{"created_on":"2025-02-17T16:42:20.000Z","created_by":"4","modified_on":"2025-02-25T14:24:56.000Z","id":"188","staff_id":null,"manager_id":null,"first_name":"favour","last_name":"Assurdly","display_name":null,"description":null,"photo":null,"phone":null,"email":"favour@assurdly.com","status":"active","last_login_date":"2025-02-25T14:24:56.000Z"},{"created_on":"2025-02-17T15:33:55.000Z","created_by":"4","modified_on":"2025-02-21T22:32:30.000Z","id":"183","staff_id":null,"manager_id":null,"first_name":"favour","last_name":"desent","display_name":null,"description":null,"photo":null,"phone":null,"email":"desent@yopmail.com","status":"active","last_login_date":"2025-02-21T22:32:30.000Z"},{"created_on":"2025-02-15T22:02:06.000Z","created_by":"170","modified_on":"2025-02-25T14:50:19.000Z","id":"181","staff_id":null,"manager_id":null,"first_name":"Destiny","last_name":"caesar","display_name":null,"description":null,"photo":null,"phone":null,"email":"destinyerhabor6+dev@gmail.com","status":"active","last_login_date":"2025-02-25T14:50:19.000Z"}]}}