{"status":true,"response":{"total":19,"page":1,"limit":10,"totalPages":2,"data":[{"created_on":"2025-02-25T14:45:54.000Z","created_by":"4","modified_on":"2025-02-25T14:45:54.000Z","modified_by":null,"deleted_on":null,"deleted_by":null,"id":"11509","event_id":"13123","entity_type":"ORGANIZATIONS","entity_id":null,"description":"Favour Elijah created ORGANIZATIONS","ip_address":"10.0.0.2","location":"Lagos","meta":null,"event":{"created_on":"2025-02-25T14:45:54.000Z","created_by":"4","modified_on":"2025-02-25T14:45:54.000Z","modified_by":null,"deleted_on":null,"deleted_by":null,"id":"13123","name":"CREATE_ORGANIZATIONS","description":"Favour Elijah accessed ORGANIZATIONS to CREATE","type":"CREATE_ORGANIZATIONS"}},{"created_on":"2025-02-25T10:53:30.000Z","created_by":"4","modified_on":"2025-02-25T10:53:30.000Z","modified_by":null,"deleted_on":null,"deleted_by":null,"id":"11483","event_id":"13083","entity_type":"PERMISSIONS","entity_id":null,"description":"Favour Elijah read PERMISSIONS","ip_address":"10.0.0.2","location":"Lagos","meta":null,"event":{"created_on":"2025-02-25T10:53:30.000Z","created_by":"4","modified_on":"2025-02-25T10:53:30.000Z","modified_by":null,"deleted_on":null,"deleted_by":null,"id":"13083","name":"READ_PERMISSIONS","description":"Favour Elijah accessed PERMISSIONS to READ","type":"READ_PERMISSIONS"}},{"created_on":"2025-02-25T10:52:53.000Z","created_by":"4","modified_on":"2025-02-25T10:52:53.000Z","modified_by":null,"deleted_on":null,"deleted_by":null,"id":"11482","event_id":"13082","entity_type":"PERMISSIONS","entity_id":null,"description":"Favour Elijah read PERMISSIONS","ip_address":"10.0.0.2","location":"Lagos","meta":null,"event":{"created_on":"2025-02-25T10:52:53.000Z","created_by":"4","modified_on":"2025-02-25T10:52:53.000Z","modified_by":null,"deleted_on":null,"deleted_by":null,"id":"13082","name":"READ_PERMISSIONS","description":"Favour Elijah accessed PERMISSIONS to READ","type":"READ_PERMISSIONS"}},{"created_on":"2025-02-25T10:51:59.000Z","created_by":"4","modified_on":"2025-02-25T10:51:59.000Z","modified_by":null,"deleted_on":null,"deleted_by":null,"id":"11481","event_id":"13081","entity_type":"DEFINITIONS","entity_id":null,"description":"Favour Elijah created DEFINITIONS","ip_address":"10.0.0.2","location":"Lagos","meta":null,"event":{"created_on":"2025-02-25T10:51:59.000Z","created_by":"4","modified_on":"2025-02-25T10:51:59.000Z","modified_by":null,"deleted_on":null,"deleted_by":null,"id":"13081","name":"CREATE_DEFINITIONS","description":"Favour Elijah accessed DEFINITIONS to CREATE","type":"CREATE_DEFINITIONS"}},{"created_on":"2025-02-25T04:29:20.000Z","created_by":"4","modified_on":"2025-02-25T04:29:20.000Z","modified_by":null,"deleted_on":null,"deleted_by":null,"id":"11448","event_id":"12996","entity_type":"DEFINITIONS","entity_id":null,"description":"Favour Elijah created DEFINITIONS","ip_address":"10.0.0.2","location":"Lagos","meta":null,"event":{"created_on":"2025-02-25T04:29:20.000Z","created_by":"4","modified_on":"2025-02-25T04:29:20.000Z","modified_by":null,"deleted_on":null,"deleted_by":null,"id":"12996","name":"CREATE_DEFINITIONS","description":"Favour Elijah accessed DEFINITIONS to CREATE","type":"CREATE_DEFINITIONS"}},{"created_on":"2025-02-25T04:28:06.000Z","created_by":"4","modified_on":"2025-02-25T04:28:06.000Z","modified_by":null,"deleted_on":null,"deleted_by":null,"id":"11447","event_id":"12995","entity_type":"DEFINITIONS","entity_id":null,"description":"Favour Elijah created DEFINITIONS","ip_address":"10.0.0.2","location":"Lagos","meta":null,"event":{"created_on":"2025-02-25T04:28:06.000Z","created_by":"4","modified_on":"2025-02-25T04:28:06.000Z","modified_by":null,"deleted_on":null,"deleted_by":null,"id":"12995","name":"CREATE_DEFINITIONS","description":"Favour Elijah accessed DEFINITIONS to CREATE","type":"CREATE_DEFINITIONS"}},{"created_on":"2025-02-25T03:48:45.000Z","created_by":"4","modified_on":"2025-02-25T03:48:45.000Z","modified_by":null,"deleted_on":null,"deleted_by":null,"id":"11446","event_id":"12989","entity_type":"DEFINITIONS","entity_id":null,"description":"Favour Elijah read DEFINITIONS","ip_address":"10.0.0.2","location":"Lagos","meta":null,"event":{"created_on":"2025-02-25T03:48:45.000Z","created_by":"4","modified_on":"2025-02-25T03:48:45.000Z","modified_by":null,"deleted_on":null,"deleted_by":null,"id":"12989","name":"Check upload status_DEFINITIONS","description":"Favour Elijah accessed DEFINITIONS to Check upload status","type":"READ_DEFINITIONS"}},{"created_on":"2025-02-25T03:47:38.000Z","created_by":"4","modified_on":"2025-02-25T03:47:38.000Z","modified_by":null,"deleted_on":null,"deleted_by":null,"id":"11445","event_id":"12988","entity_type":"DEFINITIONS","entity_id":null,"description":"Favour Elijah created DEFINITIONS","ip_address":"10.0.0.2","location":"Lagos","meta":null,"event":{"created_on":"2025-02-25T03:47:38.000Z","created_by":"4","modified_on":"2025-02-25T03:47:38.000Z","modified_by":null,"deleted_on":null,"deleted_by":null,"id":"12988","name":"CREATE_DEFINITIONS","description":"Favour Elijah accessed DEFINITIONS to CREATE","type":"CREATE_DEFINITIONS"}},{"created_on":"2025-02-25T03:47:14.000Z","created_by":"4","modified_on":"2025-02-25T03:47:14.000Z","modified_by":null,"deleted_on":null,"deleted_by":null,"id":"11444","event_id":"12987","entity_type":"DEFINITIONS","entity_id":null,"description":"Favour Elijah created DEFINITIONS","ip_address":"10.0.0.2","location":"Lagos","meta":null,"event":{"created_on":"2025-02-25T03:47:14.000Z","created_by":"4","modified_on":"2025-02-25T03:47:14.000Z","modified_by":null,"deleted_on":null,"deleted_by":null,"id":"12987","name":"CREATE_DEFINITIONS","description":"Favour Elijah accessed DEFINITIONS to CREATE","type":"CREATE_DEFINITIONS"}},{"created_on":"2025-02-25T03:46:44.000Z","created_by":"4","modified_on":"2025-02-25T03:46:44.000Z","modified_by":null,"deleted_on":null,"deleted_by":null,"id":"11443","event_id":"12986","entity_type":"DEFINITIONS","entity_id":null,"description":"Favour Elijah created DEFINITIONS","ip_address":"10.0.0.2","location":"Lagos","meta":null,"event":{"created_on":"2025-02-25T03:46:44.000Z","created_by":"4","modified_on":"2025-02-25T03:46:44.000Z","modified_by":null,"deleted_on":null,"deleted_by":null,"id":"12986","name":"CREATE_DEFINITIONS","description":"Favour Elijah accessed DEFINITIONS to CREATE","type":"CREATE_DEFINITIONS"}}]}}