{"status":true,"response":{"total":20,"page":1,"limit":10,"totalPages":2,"data":[{"created_on":"2025-02-10T17:33:01.000Z","created_by":null,"modified_on":"2025-02-10T17:33:01.000Z","modified_by":null,"deleted_on":null,"deleted_by":null,"id":"1","slug":"name","uuid":"0194f0eb-eb56-7498-9e83-95702c3411b9","category_id":"2986","name":"Name","description":"Name of the organisation","value_type":"text","default_value":"My Organisation","minimum_value":null,"maximum_value":null,"custom_validation":null,"meta":null,"value":{"created_on":"2025-02-21T09:37:02.000Z","created_by":"4","modified_by":null,"settings_master_id":"1","value":"Nova Bank Limited"}},{"created_on":"2025-02-10T17:33:01.000Z","created_by":null,"modified_on":"2025-02-10T17:33:01.000Z","modified_by":null,"deleted_on":null,"deleted_by":null,"id":"2","slug":"website","uuid":"0194f0eb-eb56-7498-9e83-992b66c51bd1","category_id":"2986","name":"Website","description":"Website of the institution (URL)","value_type":"text","default_value":"https://www.example.com","minimum_value":null,"maximum_value":null,"custom_validation":null,"meta":null,"value":{"created_on":"2025-02-23T00:25:00.000Z","created_by":"4","modified_by":null,"settings_master_id":"2","value":"https://www.example.com"}},{"created_on":"2025-02-10T17:33:02.000Z","created_by":null,"modified_on":"2025-02-10T17:33:02.000Z","modified_by":null,"deleted_on":null,"deleted_by":null,"id":"3","slug":"support_email","uuid":"0194f0eb-eb56-7498-9e83-9ec3266eba6c","category_id":"2986","name":"Support Email","description":"Support email address","value_type":"text","default_value":"support@example.com","minimum_value":null,"maximum_value":null,"custom_validation":null,"meta":null,"value":{"created_on":"2025-02-23T00:38:11.000Z","created_by":"188","modified_by":null,"settings_master_id":"3","value":"support@example.com"}},{"created_on":"2025-02-10T17:33:02.000Z","created_by":null,"modified_on":"2025-02-10T17:33:02.000Z","modified_by":null,"deleted_on":null,"deleted_by":null,"id":"4","slug":"support_phone_number","uuid":"0194f0eb-eb56-7498-9e83-a1727cee03e9","category_id":"2986","name":"Support Phone Number","description":"Support phone number","value_type":"text","default_value":"https://www.example.com","minimum_value":null,"maximum_value":null,"custom_validation":null,"meta":null,"value":{"created_on":"2025-02-23T00:27:26.000Z","created_by":"4","modified_by":null,"settings_master_id":"4","value":"090000000"}},{"created_on":"2025-02-10T17:33:03.000Z","created_by":null,"modified_on":"2025-02-10T17:33:03.000Z","modified_by":null,"deleted_on":null,"deleted_by":null,"id":"5","slug":"twitter_url","uuid":"0194f0eb-eb56-7498-9e83-a7e6db0b74a9","category_id":"2986","name":"Twitter URL","description":"Twitter profile URL","value_type":"text","default_value":"https://www.example.com","minimum_value":null,"maximum_value":null,"custom_validation":null,"meta":null,"value":{"created_on":"2025-02-23T00:38:32.000Z","created_by":"188","modified_by":null,"settings_master_id":"5","value":"https://www.example.com"}},{"created_on":"2025-02-10T17:33:03.000Z","created_by":null,"modified_on":"2025-02-10T17:33:03.000Z","modified_by":null,"deleted_on":null,"deleted_by":null,"id":"6","slug":"facebook_url","uuid":"0194f0eb-eb56-7498-9e83-a9051b2b2d94","category_id":"2986","name":"Facebook URL","description":"Facebook profile URL","value_type":"text","default_value":"https://www.example.com","minimum_value":null,"maximum_value":null,"custom_validation":null,"meta":null,"value":{"created_on":"2025-02-23T00:38:39.000Z","created_by":"188","modified_by":null,"settings_master_id":"6","value":"https://www.example.com"}},{"created_on":"2025-02-10T17:33:04.000Z","created_by":null,"modified_on":"2025-02-10T17:33:04.000Z","modified_by":null,"deleted_on":null,"deleted_by":null,"id":"7","slug":"linkedin_url","uuid":"0194f0eb-eb56-7498-9e83-af3b04907a1f","category_id":"2986","name":"LinkedIn URL","description":"LinkedIn profile URL","value_type":"text","default_value":"https://www.example.com","minimum_value":null,"maximum_value":null,"custom_validation":null,"meta":null,"value":null},{"created_on":"2025-02-10T17:33:04.000Z","created_by":null,"modified_on":"2025-02-10T17:33:04.000Z","modified_by":null,"deleted_on":null,"deleted_by":null,"id":"8","slug":"logo","uuid":"0194f0eb-eb56-7498-9e83-b0227a222774","category_id":"2986","name":"Logo","description":"Organisation’s logo","value_type":"text","default_value":"https://www.example.com","minimum_value":null,"maximum_value":null,"custom_validation":null,"meta":null,"value":null},{"created_on":"2025-02-10T17:33:05.000Z","created_by":null,"modified_on":"2025-02-10T17:33:05.000Z","modified_by":null,"deleted_on":null,"deleted_by":null,"id":"9","slug":"favicon","uuid":"0194f0eb-eb57-74fc-82fd-6a0eee9fea88","category_id":"2986","name":"Favicon","description":"Organisation’s favicon","value_type":"text","default_value":"https://www.example.com","minimum_value":null,"maximum_value":null,"custom_validation":null,"meta":null,"value":null},{"created_on":"2025-02-10T17:33:05.000Z","created_by":null,"modified_on":"2025-02-10T17:33:05.000Z","modified_by":null,"deleted_on":null,"deleted_by":null,"id":"10","slug":"address","uuid":"0194f0eb-eb57-74fc-82fd-6d190eedde6f","category_id":"2986","name":"Address","description":"Organisation’s address","value_type":"text","default_value":"https://www.example.com","minimum_value":null,"maximum_value":null,"custom_validation":null,"meta":null,"value":null}]}}