{"status":true,"response":{"data":[{"customer_name":"YEMI ZAKI","customer_start_date":"","email":"novabank@assurdly.com","first_name":"YEMI","gender":"","id":"5178","last_name":"ZAKI","middle_name":"","phone":"08033333333","type":"customers"},{"customer_name":"YEMI ZAKI","customer_start_date":"","email":"novabank@assurdly.com","first_name":"YEMI","gender":"","id":"4619","last_name":"ZAKI","middle_name":"","phone":"08033333333","type":"customers"},{"customer_name":"YEMI ZAKI","customer_start_date":"","email":"novabank@assurdly.com","first_name":"YEMI","gender":"","id":"20000","last_name":"ZAKI","middle_name":"","phone":"7064053763","type":"customers"},{"customer_name":"YEMI ZAKI","customer_start_date":"","email":"novabank@assurdly.com","first_name":"YEMI","gender":"","id":"5149","last_name":"ZAKI","middle_name":"","phone":"2348178321852","type":"customers"},{"customer_name":"YEMI ZAKI","customer_start_date":"","email":"novabank@assurdly.com","first_name":"YEMI","gender":"","id":"20169","last_name":"ZAKI","middle_name":"","phone":"8100103341","type":"customers"},{"customer_name":"YEMI ZAKI","customer_start_date":"","email":"novabank@assurdly.com","first_name":"YEMI","gender":"","id":"1504","last_name":"ZAKI","middle_name":"","phone":"0803333333","type":"customers"},{"customer_name":"YEMI UMAR","customer_start_date":"","email":"novabank@assurdly.com","first_name":"YEMI","gender":"","id":"4874","last_name":"UMAR","middle_name":"","phone":"08033333333","type":"customers"},{"customer_name":"YEMI UMAR","customer_start_date":"","email":"novabank@assurdly.com","first_name":"YEMI","gender":"","id":"21093","last_name":"UMAR","middle_name":"STANLEY","phone":"08069687910","type":"customers"},{"customer_name":"YEMI UMAR","customer_start_date":"","email":"novabank@assurdly.com","first_name":"YEMI","gender":"","id":"835","last_name":"UMAR","middle_name":"KUMAR","phone":"0803333333","type":"customers"},{"customer_name":"YEMI UMAR","customer_start_date":"","email":"novabank@assurdly.com","first_name":"YEMI","gender":"","id":"4770","last_name":"UMAR","middle_name":"","phone":"08033333333","type":"customers"}],"total":174,"page":1,"limit":10,"totalPages":18}}