{"status":true,"response":{"data":[{"id":"376","comment":"commenting on your account","created_on":"2025-06-08T22:38:00.000Z","edited_on":null,"created_by":"272","issue_id":null,"customer_id":"5178","created":{"id":"272","first_name":"Ayo","last_name":"Jide"},"can_edit":true,"can_delete":true,"replies":[]},{"id":"375","comment":"HEY","created_on":"2025-06-08T22:37:59.000Z","edited_on":null,"created_by":"272","issue_id":533,"customer_id":"5178","created":{"id":"272","first_name":"Ayo","last_name":"Jide"},"can_edit":true,"can_delete":true,"replies":[]},{"id":"374","comment":"hey favorite","created_on":"2025-06-08T22:34:23.000Z","edited_on":"2025-06-08T22:34:35.000Z","created_by":"272","issue_id":null,"customer_id":"5178","created":{"id":"272","first_name":"Ayo","last_name":"Jide"},"can_edit":true,"can_delete":true,"replies":[]},{"id":"373","comment":"commenting on your account","created_on":"2025-06-08T22:31:56.000Z","edited_on":null,"created_by":"272","issue_id":null,"customer_id":"5178","created":{"id":"272","first_name":"Ayo","last_name":"Jide"},"can_edit":true,"can_delete":true,"replies":[]},{"id":"371","comment":"commenting on your account","created_on":"2025-06-08T22:29:06.000Z","edited_on":null,"created_by":"272","issue_id":null,"customer_id":"5178","created":{"id":"272","first_name":"Ayo","last_name":"Jide"},"can_edit":true,"can_delete":true,"replies":[]},{"id":"369","comment":"hey favorite","created_on":"2025-06-08T22:27:27.000Z","edited_on":"2025-06-08T22:31:57.000Z","created_by":"272","issue_id":null,"customer_id":"5178","created":{"id":"272","first_name":"Ayo","last_name":"Jide"},"can_edit":true,"can_delete":true,"replies":[]},{"id":"368","comment":"hey favorite","created_on":"2025-06-08T22:25:47.000Z","edited_on":"2025-06-08T22:25:51.000Z","created_by":"272","issue_id":null,"customer_id":"5178","created":{"id":"272","first_name":"Ayo","last_name":"Jide"},"can_edit":true,"can_delete":true,"replies":[]},{"id":"365","comment":"commenting on your account","created_on":"2025-06-08T22:16:45.000Z","edited_on":null,"created_by":"272","issue_id":null,"customer_id":"5178","created":{"id":"272","first_name":"Ayo","last_name":"Jide"},"can_edit":true,"can_delete":true,"replies":[]},{"id":"363","comment":"commenting on your account","created_on":"2025-06-08T22:14:00.000Z","edited_on":null,"created_by":"272","issue_id":null,"customer_id":"5178","created":{"id":"272","first_name":"Ayo","last_name":"Jide"},"can_edit":true,"can_delete":true,"replies":[]},{"id":"361","comment":"commenting on your account","created_on":"2025-06-08T22:10:37.000Z","edited_on":null,"created_by":"272","issue_id":null,"customer_id":"5178","created":{"id":"272","first_name":"Ayo","last_name":"Jide"},"can_edit":true,"can_delete":true,"replies":[]}],"total":94,"page":1,"limit":10,"totalPages":10}}