{"status":true,"response":{"total":11295,"page":1,"limit":10,"totalPages":1130,"data":[{"created_on":"2025-02-24T20:02:20.000Z","created_by":"198","modified_on":"2025-02-24T20:02:20.000Z","modified_by":null,"deleted_on":null,"deleted_by":null,"id":"11295","event_id":"12804","entity_type":"AUDIT_TRAILS","entity_id":null,"description":"Favour tester read AUDIT_TRAILS","ip_address":"10.0.0.2","location":"Lagos","meta":null,"event":{"created_on":"2025-02-24T20:02:20.000Z","created_by":"198","modified_on":"2025-02-24T20:02:20.000Z","modified_by":null,"deleted_on":null,"deleted_by":null,"id":"12804","name":"READ_AUDIT_TRAILS","description":"Favour tester accessed AUDIT_TRAILS to READ","type":"READ_AUDIT_TRAILS"}},{"created_on":"2025-02-24T20:02:19.000Z","created_by":"198","modified_on":"2025-02-24T20:02:19.000Z","modified_by":null,"deleted_on":null,"deleted_by":null,"id":"11292","event_id":"12801","entity_type":"AUDIT_TRAILS","entity_id":null,"description":"Favour tester read AUDIT_TRAILS","ip_address":"10.0.0.2","location":"Lagos","meta":null,"event":{"created_on":"2025-02-24T20:02:19.000Z","created_by":"198","modified_on":"2025-02-24T20:02:19.000Z","modified_by":null,"deleted_on":null,"deleted_by":null,"id":"12801","name":"READ_AUDIT_TRAILS","description":"Favour tester accessed AUDIT_TRAILS to READ","type":"READ_AUDIT_TRAILS"}},{"created_on":"2025-02-24T20:02:19.000Z","created_by":"198","modified_on":"2025-02-24T20:02:19.000Z","modified_by":null,"deleted_on":null,"deleted_by":null,"id":"11293","event_id":"12802","entity_type":"AUDIT_TRAILS","entity_id":null,"description":"Favour tester read AUDIT_TRAILS","ip_address":"10.0.0.2","location":"Lagos","meta":null,"event":{"created_on":"2025-02-24T20:02:19.000Z","created_by":"198","modified_on":"2025-02-24T20:02:19.000Z","modified_by":null,"deleted_on":null,"deleted_by":null,"id":"12802","name":"READ_AUDIT_TRAILS","description":"Favour tester accessed AUDIT_TRAILS to READ","type":"READ_AUDIT_TRAILS"}},{"created_on":"2025-02-24T20:02:19.000Z","created_by":"198","modified_on":"2025-02-24T20:02:19.000Z","modified_by":null,"deleted_on":null,"deleted_by":null,"id":"11294","event_id":"12803","entity_type":"AUDIT_TRAILS","entity_id":null,"description":"Favour tester read AUDIT_TRAILS","ip_address":"10.0.0.2","location":"Lagos","meta":null,"event":{"created_on":"2025-02-24T20:02:19.000Z","created_by":"198","modified_on":"2025-02-24T20:02:19.000Z","modified_by":null,"deleted_on":null,"deleted_by":null,"id":"12803","name":"READ_AUDIT_TRAILS","description":"Favour tester accessed AUDIT_TRAILS to READ","type":"READ_AUDIT_TRAILS"}},{"created_on":"2025-02-24T20:02:18.000Z","created_by":"198","modified_on":"2025-02-24T20:02:18.000Z","modified_by":null,"deleted_on":null,"deleted_by":null,"id":"11291","event_id":"12791","entity_type":"PROFILE","entity_id":null,"description":"Favour tester changed password PROFILE","ip_address":"10.0.0.2","location":"Lagos","meta":null,"event":{"created_on":"2025-02-24T20:02:18.000Z","created_by":"198","modified_on":"2025-02-24T20:02:18.000Z","modified_by":null,"deleted_on":null,"deleted_by":null,"id":"12791","name":"changed password_PROFILE","description":"Favour tester accessed PROFILE to changed password","type":"update_PROFILE"}},{"created_on":"2025-02-24T19:57:48.000Z","created_by":"198","modified_on":"2025-02-24T19:57:48.000Z","modified_by":null,"deleted_on":null,"deleted_by":null,"id":"11290","event_id":"12790","entity_type":"PROFILE","entity_id":"198","description":"Favour tester reset password PROFILE","ip_address":"10.0.0.2","location":"Lagos","meta":null,"event":{"created_on":"2025-02-24T19:57:48.000Z","created_by":"198","modified_on":"2025-02-24T19:57:48.000Z","modified_by":null,"deleted_on":null,"deleted_by":null,"id":"12790","name":"reset password_PROFILE","description":"Favour tester accessed PROFILE to reset password","type":"CREATE_PROFILE"}},{"created_on":"2025-02-24T19:38:50.000Z","created_by":"198","modified_on":"2025-02-24T19:38:50.000Z","modified_by":null,"deleted_on":null,"deleted_by":null,"id":"11289","event_id":"12785","entity_type":"PROFILE","entity_id":null,"description":"Favour tester changed password PROFILE","ip_address":"10.0.0.2","location":"Lagos","meta":null,"event":{"created_on":"2025-02-24T19:38:50.000Z","created_by":"198","modified_on":"2025-02-24T19:38:50.000Z","modified_by":null,"deleted_on":null,"deleted_by":null,"id":"12785","name":"changed password_PROFILE","description":"Favour tester accessed PROFILE to changed password","type":"update_PROFILE"}},{"created_on":"2025-02-24T19:22:31.000Z","created_by":"198","modified_on":"2025-02-24T19:22:31.000Z","modified_by":null,"deleted_on":null,"deleted_by":null,"id":"11288","event_id":"12784","entity_type":"ORGANIZATIONS","entity_id":"17","description":"Favour tester removed staffs from  ORGANIZATIONS","ip_address":"10.0.0.2","location":"Lagos","meta":null,"event":{"created_on":"2025-02-24T19:22:31.000Z","created_by":"198","modified_on":"2025-02-24T19:22:31.000Z","modified_by":null,"deleted_on":null,"deleted_by":null,"id":"12784","name":"removed staffs from _ORGANIZATIONS","description":"Favour tester accessed ORGANIZATIONS to removed staffs from ","type":"update_ORGANIZATIONS"}},{"created_on":"2025-02-24T19:22:28.000Z","created_by":"198","modified_on":"2025-02-24T19:22:28.000Z","modified_by":null,"deleted_on":null,"deleted_by":null,"id":"11287","event_id":"12783","entity_type":"ORGANIZATIONS","entity_id":"17","description":"Favour tester removed staffs from  ORGANIZATIONS","ip_address":"10.0.0.2","location":"Lagos","meta":null,"event":{"created_on":"2025-02-24T19:22:28.000Z","created_by":"198","modified_on":"2025-02-24T19:22:28.000Z","modified_by":null,"deleted_on":null,"deleted_by":null,"id":"12783","name":"removed staffs from _ORGANIZATIONS","description":"Favour tester accessed ORGANIZATIONS to removed staffs from ","type":"update_ORGANIZATIONS"}},{"created_on":"2025-02-24T19:22:27.000Z","created_by":"198","modified_on":"2025-02-24T19:22:27.000Z","modified_by":null,"deleted_on":null,"deleted_by":null,"id":"11286","event_id":"12782","entity_type":"ORGANIZATIONS","entity_id":"17","description":"Favour tester added staffs to  ORGANIZATIONS","ip_address":"10.0.0.2","location":"Lagos","meta":null,"event":{"created_on":"2025-02-24T19:22:27.000Z","created_by":"198","modified_on":"2025-02-24T19:22:27.000Z","modified_by":null,"deleted_on":null,"deleted_by":null,"id":"12782","name":"added staffs to _ORGANIZATIONS","description":"Favour tester accessed ORGANIZATIONS to added staffs to ","type":"CREATE_ORGANIZATIONS"}}]}}