{"status":true,"response":{"data":[{"created_on":"2025-06-01T18:49:34.000Z","created_by":"272","modified_on":"2025-06-01T18:49:34.000Z","modified_by":null,"deleted_on":null,"deleted_by":null,"id":"80","uuid":"01972cd3-e981-76fe-b357-22444e4c2080","name":"feb","description":"testing","query":null,"path":null,"select_columns":null,"sort_columns":null,"filter_columns":null,"cache_ttl":null,"default_filter_columns":null,"meta":null,"category_id":"3205","status":"draft","deletion_reason":null,"period":"02-2025","category":{"created_on":"2025-03-19T07:15:18.000Z","created_by":"188","modified_on":"2025-03-19T07:15:18.000Z","modified_by":null,"deleted_on":null,"deleted_by":null,"id":"3205","uuid":"0195ad41-b087-706d-9af9-f0524a19371e","slug":"mpr","name":"MPR","description":"MPR","meta":null},"report_roles":[{"created_on":"2025-06-01T18:49:34.000Z","created_by":"272","modified_on":"2025-06-01T18:49:34.000Z","modified_by":null,"deleted_on":null,"deleted_by":null,"id":"49","uuid":"01972cd3-e988-77d8-91d7-d9f724804440","report_id":"80","role_id":"14","meta":null}]},{"created_on":"2025-05-31T17:34:53.000Z","created_by":"272","modified_on":"2025-05-31T17:34:53.000Z","modified_by":null,"deleted_on":null,"deleted_by":null,"id":"79","uuid":"01972769-2cb0-719f-a390-c68ad56c0d48","name":"Nova1","description":"testing report","query":null,"path":null,"select_columns":null,"sort_columns":null,"filter_columns":null,"cache_ttl":null,"default_filter_columns":null,"meta":null,"category_id":"3204","status":"draft","deletion_reason":null,"period":null,"category":{"created_on":"2025-03-19T07:15:05.000Z","created_by":"188","modified_on":"2025-03-19T07:15:05.000Z","modified_by":null,"deleted_on":null,"deleted_by":null,"id":"3204","uuid":"0195ad41-7d33-7294-baea-7746b18f6d79","slug":"report","name":"Report","description":"Report","meta":null},"report_roles":[{"created_on":"2025-05-31T17:34:53.000Z","created_by":"272","modified_on":"2025-05-31T17:34:53.000Z","modified_by":null,"deleted_on":null,"deleted_by":null,"id":"48","uuid":"01972769-2cb5-737f-b455-baf5b3ae618b","report_id":"79","role_id":"14","meta":null}]},{"created_on":"2025-05-31T17:33:13.000Z","created_by":"272","modified_on":"2025-05-31T17:33:13.000Z","modified_by":null,"deleted_on":null,"deleted_by":null,"id":"78","uuid":"01972767-a482-723c-a2f0-065c848027c7","name":"Sample Report","description":"A sample report for demonstration","query":null,"path":null,"select_columns":null,"sort_columns":null,"filter_columns":null,"cache_ttl":null,"default_filter_columns":null,"meta":null,"category_id":"3204","status":"draft","deletion_reason":null,"period":null,"category":{"created_on":"2025-03-19T07:15:05.000Z","created_by":"188","modified_on":"2025-03-19T07:15:05.000Z","modified_by":null,"deleted_on":null,"deleted_by":null,"id":"3204","uuid":"0195ad41-7d33-7294-baea-7746b18f6d79","slug":"report","name":"Report","description":"Report","meta":null},"report_roles":[]},{"created_on":"2025-05-31T17:25:44.000Z","created_by":"272","modified_on":"2025-05-31T17:30:33.000Z","modified_by":"272","deleted_on":null,"deleted_by":null,"id":"77","uuid":"01972760-cac4-7719-927f-71698c60f5c0","name":"Updated Report Name","description":"Updated description","query":null,"path":null,"select_columns":null,"sort_columns":null,"filter_columns":null,"cache_ttl":null,"default_filter_columns":null,"meta":null,"category_id":"3204","status":"archived","deletion_reason":null,"period":null,"category":{"created_on":"2025-03-19T07:15:05.000Z","created_by":"188","modified_on":"2025-03-19T07:15:05.000Z","modified_by":null,"deleted_on":null,"deleted_by":null,"id":"3204","uuid":"0195ad41-7d33-7294-baea-7746b18f6d79","slug":"report","name":"Report","description":"Report","meta":null},"report_roles":[{"created_on":"2025-05-31T17:29:52.000Z","created_by":"272","modified_on":"2025-05-31T17:29:52.000Z","modified_by":null,"deleted_on":null,"deleted_by":null,"id":"47","uuid":"01972764-93af-71aa-bda6-da67c9b2f1b9","report_id":"77","role_id":"32","meta":null}]},{"created_on":"2025-05-29T08:34:53.000Z","created_by":"272","modified_on":"2025-05-29T08:36:50.000Z","modified_by":"272","deleted_on":null,"deleted_by":null,"id":"76","uuid":"01971b2e-11e1-76fa-93a6-f8c4178ba192","name":"second assessment","description":"checking notification","query":null,"path":null,"select_columns":null,"sort_columns":null,"filter_columns":null,"cache_ttl":null,"default_filter_columns":null,"meta":{"sections":[{"name":"sub-module second assessment","reports":[{"name":"2025 FY Targets","type":"report","description":"Details for 2025 FY Targets","metabase_report_id":"2","metabase_report_type":"dashboard"},{"name":"2025 FY Targets","type":"report","description":"Details for 2025 FY Targets","metabase_report_id":"2","metabase_report_type":"dashboard"}],"description":"no description"}]},"category_id":"3205","status":"published","deletion_reason":null,"period":"05-2025","category":{"created_on":"2025-03-19T07:15:18.000Z","created_by":"188","modified_on":"2025-03-19T07:15:18.000Z","modified_by":null,"deleted_on":null,"deleted_by":null,"id":"3205","uuid":"0195ad41-b087-706d-9af9-f0524a19371e","slug":"mpr","name":"MPR","description":"MPR","meta":null},"report_roles":[{"created_on":"2025-05-29T08:34:53.000Z","created_by":"272","modified_on":"2025-05-29T08:34:53.000Z","modified_by":null,"deleted_on":null,"deleted_by":null,"id":"46","uuid":"01971b2e-11e6-709d-83f7-f73e10524e7b","report_id":"76","role_id":"14","meta":null}]},{"created_on":"2025-05-27T08:12:59.000Z","created_by":"272","modified_on":"2025-05-27T08:12:59.000Z","modified_by":null,"deleted_on":null,"deleted_by":null,"id":"75","uuid":"019710cd-4d1a-7468-9e1b-802985c8bad3","name":"report official","description":"official report","query":null,"path":null,"select_columns":null,"sort_columns":null,"filter_columns":null,"cache_ttl":null,"default_filter_columns":null,"meta":null,"category_id":"3205","status":"draft","deletion_reason":null,"period":"06-2025","category":{"created_on":"2025-03-19T07:15:18.000Z","created_by":"188","modified_on":"2025-03-19T07:15:18.000Z","modified_by":null,"deleted_on":null,"deleted_by":null,"id":"3205","uuid":"0195ad41-b087-706d-9af9-f0524a19371e","slug":"mpr","name":"MPR","description":"MPR","meta":null},"report_roles":[{"created_on":"2025-05-27T08:12:59.000Z","created_by":"272","modified_on":"2025-05-27T08:12:59.000Z","modified_by":null,"deleted_on":null,"deleted_by":null,"id":"32","uuid":"019710cd-4d25-75ef-bcee-84ee91a477f4","report_id":"75","role_id":"23","meta":null},{"created_on":"2025-05-27T08:12:59.000Z","created_by":"272","modified_on":"2025-05-27T08:12:59.000Z","modified_by":null,"deleted_on":null,"deleted_by":null,"id":"31","uuid":"019710cd-4d25-75ef-bcee-80a6fc10070f","report_id":"75","role_id":"24","meta":null},{"created_on":"2025-05-27T08:12:59.000Z","created_by":"272","modified_on":"2025-05-27T08:12:59.000Z","modified_by":null,"deleted_on":null,"deleted_by":null,"id":"30","uuid":"019710cd-4d25-75ef-bcee-7d428530144f","report_id":"75","role_id":"26","meta":null}]},{"created_on":"2025-05-24T17:27:01.000Z","created_by":"214","modified_on":"2025-05-24T17:29:09.000Z","modified_by":"214","deleted_on":null,"deleted_by":null,"id":"74","uuid":"01970355-7347-76df-b2da-66456b0afc21","name":"Testin Report Creation","description":"Testin Report Creation","query":null,"path":null,"select_columns":null,"sort_columns":null,"filter_columns":null,"cache_ttl":null,"default_filter_columns":null,"meta":{"sections":[{"name":"Testing sections","reports":[{"name":"2025 FY Target By Region/Division","type":"report","description":"This displays the balance sheet and income statement target, MoM and the FY Cumulative","metabase_report_id":"38","metabase_report_type":"question"},{"name":"Sales Dashboard","type":"report","description":"Details for Sales Dashboard","metabase_report_id":"3","metabase_report_type":"dashboard"}],"description":"Testing sections"}]},"category_id":"3204","status":"draft","deletion_reason":null,"period":null,"category":{"created_on":"2025-03-19T07:15:05.000Z","created_by":"188","modified_on":"2025-03-19T07:15:05.000Z","modified_by":null,"deleted_on":null,"deleted_by":null,"id":"3204","uuid":"0195ad41-7d33-7294-baea-7746b18f6d79","slug":"report","name":"Report","description":"Report","meta":null},"report_roles":[{"created_on":"2025-05-24T17:27:01.000Z","created_by":"214","modified_on":"2025-05-24T17:27:01.000Z","modified_by":null,"deleted_on":null,"deleted_by":null,"id":"27","uuid":"01970355-7355-716d-aae0-47de2fb61bdb","report_id":"74","role_id":"2","meta":null},{"created_on":"2025-05-24T17:27:01.000Z","created_by":"214","modified_on":"2025-05-24T17:27:01.000Z","modified_by":null,"deleted_on":null,"deleted_by":null,"id":"28","uuid":"01970355-7355-716d-aae0-48acd01a09e3","report_id":"74","role_id":"26","meta":null},{"created_on":"2025-05-24T17:27:01.000Z","created_by":"214","modified_on":"2025-05-24T17:27:01.000Z","modified_by":null,"deleted_on":null,"deleted_by":null,"id":"29","uuid":"01970355-7355-716d-aae0-4f81f6ede9a2","report_id":"74","role_id":"27","meta":null}]},{"created_on":"2025-05-22T20:51:54.000Z","created_by":"181","modified_on":"2025-05-22T20:54:36.000Z","modified_by":"181","deleted_on":null,"deleted_by":null,"id":"73","uuid":"0196f9c4-4fcd-76ca-9fc0-131fb645917d","name":"testdd","description":"dd","query":null,"path":null,"select_columns":null,"sort_columns":null,"filter_columns":null,"cache_ttl":null,"default_filter_columns":null,"meta":{"sections":[{"name":"another one","reports":[{"name":"Account Officers","type":"report","description":"List of Account Officers","metabase_report_id":"44","metabase_report_type":"question"}],"description":"ss"}]},"category_id":"3204","status":"draft","deletion_reason":null,"period":null,"category":{"created_on":"2025-03-19T07:15:05.000Z","created_by":"188","modified_on":"2025-03-19T07:15:05.000Z","modified_by":null,"deleted_on":null,"deleted_by":null,"id":"3204","uuid":"0195ad41-7d33-7294-baea-7746b18f6d79","slug":"report","name":"Report","description":"Report","meta":null},"report_roles":[{"created_on":"2025-05-22T20:51:54.000Z","created_by":"181","modified_on":"2025-05-22T20:51:54.000Z","modified_by":null,"deleted_on":null,"deleted_by":null,"id":"26","uuid":"0196f9c4-4fd3-7391-ad0d-b98f1d425863","report_id":"73","role_id":"26","meta":null}]},{"created_on":"2025-05-20T21:22:51.000Z","created_by":"299","modified_on":"2025-05-22T16:39:38.000Z","modified_by":"299","deleted_on":null,"deleted_by":null,"id":"72","uuid":"0196ef93-ede7-7229-9cb4-217382445069","name":"Unyime","description":"Admin dashboard","query":null,"path":null,"select_columns":null,"sort_columns":null,"filter_columns":null,"cache_ttl":null,"default_filter_columns":null,"meta":{"sections":[{"name":"Section 2","reports":[{"name":"Sales Dashboard","type":"report","description":"Details for Sales Dashboard","metabase_report_id":"3","metabase_report_type":"dashboard"}],"description":"just dashbord section 2"}]},"category_id":"3226","status":"published","deletion_reason":null,"period":null,"category":{"created_on":"2025-04-18T21:03:44.000Z","created_by":"181","modified_on":"2025-04-18T21:03:44.000Z","modified_by":null,"deleted_on":null,"deleted_by":null,"id":"3226","uuid":"01964ab6-ed7a-71bd-aa49-948730d96379","slug":"dashboard","name":"Dashboard","description":"dashboard","meta":null},"report_roles":[{"created_on":"2025-05-20T21:22:51.000Z","created_by":"299","modified_on":"2025-05-20T21:22:51.000Z","modified_by":null,"deleted_on":null,"deleted_by":null,"id":"22","uuid":"0196ef93-edec-700e-a268-7acf52c22d89","report_id":"72","role_id":"22","meta":null},{"created_on":"2025-05-22T16:39:38.000Z","created_by":"299","modified_on":"2025-05-22T16:39:38.000Z","modified_by":null,"deleted_on":null,"deleted_by":null,"id":"25","uuid":"0196f8dd-5968-77a0-aa76-bd0dec3cfef4","report_id":"72","role_id":"24","meta":null}]},{"created_on":"2025-05-20T16:52:33.000Z","created_by":"272","modified_on":"2025-05-20T16:55:57.000Z","modified_by":"272","deleted_on":null,"deleted_by":null,"id":"71","uuid":"0196ee9c-777f-747b-8175-8959569c6a10","name":"midTerm","description":"mid term","query":null,"path":null,"select_columns":null,"sort_columns":null,"filter_columns":null,"cache_ttl":null,"default_filter_columns":null,"meta":{"sections":[{"name":"credits","reports":[{"name":"Sales Dashboard","type":"report","description":"Details for Sales Dashboard","metabase_report_id":"3","metabase_report_type":"dashboard"}],"description":"credits available"},{"name":"debits","reports":[],"description":"debits available"}]},"category_id":"3204","status":"draft","deletion_reason":null,"period":null,"category":{"created_on":"2025-03-19T07:15:05.000Z","created_by":"188","modified_on":"2025-03-19T07:15:05.000Z","modified_by":null,"deleted_on":null,"deleted_by":null,"id":"3204","uuid":"0195ad41-7d33-7294-baea-7746b18f6d79","slug":"report","name":"Report","description":"Report","meta":null},"report_roles":[{"created_on":"2025-05-20T16:52:33.000Z","created_by":"272","modified_on":"2025-05-20T16:52:33.000Z","modified_by":null,"deleted_on":null,"deleted_by":null,"id":"17","uuid":"0196ee9c-7784-773e-a9c4-33a5445b4d20","report_id":"71","role_id":"14","meta":null}]}],"meta":{"page":1,"limit":10,"total":34,"pages":4}}}