{"status":true,"response":{"total":237,"page":1,"limit":10,"totalPages":24,"data":[{"created_on":"2025-05-26T08:22:20.000Z","created_by":"272","modified_on":"2025-05-29T10:57:01.000Z","id":"317","staff_id":null,"manager_id":null,"first_name":"","last_name":"","display_name":null,"description":null,"photo":null,"phone":null,"email":"abimbola+10@novabank.ng","status":"pending","last_login_date":null},{"created_on":"2025-05-21T18:20:34.000Z","created_by":"299","modified_on":"2025-05-24T18:19:34.000Z","id":"316","staff_id":null,"manager_id":null,"first_name":"","last_name":"","display_name":null,"description":null,"photo":null,"phone":null,"email":"udeme+15@assurdly.com","status":"pending","last_login_date":null},{"created_on":"2025-05-20T21:12:59.000Z","created_by":"181","modified_on":"2025-05-20T21:25:59.000Z","id":"315","staff_id":"12223","manager_id":null,"first_name":"","last_name":"","display_name":null,"description":null,"photo":null,"phone":null,"email":"destinyerhabor+test@gmail.com","status":"pending","last_login_date":null},{"created_on":"2025-05-18T20:49:04.000Z","created_by":"253","modified_on":"2025-05-18T20:49:04.000Z","id":"314","staff_id":null,"manager_id":null,"first_name":"","last_name":"","display_name":null,"description":null,"photo":null,"phone":null,"email":"adedeji@olowe.com","status":"pending","last_login_date":null},{"created_on":"2025-05-07T12:57:18.000Z","created_by":"299","modified_on":"2025-05-27T14:10:56.000Z","id":"313","staff_id":"007","manager_id":null,"first_name":"Udeme","last_name":"UAT","display_name":null,"description":null,"photo":null,"phone":null,"email":"udeme+14@assurdly.com","status":"active","last_login_date":"2025-05-16T12:00:17.000Z"},{"created_on":"2025-04-28T11:07:31.000Z","created_by":"188","modified_on":"2025-05-19T14:49:22.000Z","id":"312","staff_id":null,"manager_id":null,"first_name":"","last_name":"","display_name":null,"description":null,"photo":null,"phone":null,"email":"jasmin@yopmail.com","status":"pending","last_login_date":null},{"created_on":"2025-04-28T11:03:08.000Z","created_by":"188","modified_on":"2025-05-19T14:52:09.000Z","id":"311","staff_id":null,"manager_id":null,"first_name":"","last_name":"","display_name":null,"description":null,"photo":null,"phone":null,"email":"favour+UAT@yopmail.com","status":"pending","last_login_date":null},{"created_on":"2025-04-28T10:46:19.000Z","created_by":"188","modified_on":"2025-05-29T10:25:20.000Z","id":"310","staff_id":"12223","manager_id":null,"first_name":"Abimbola","last_name":"Opakunle","display_name":null,"description":null,"photo":null,"phone":null,"email":"abimbola+admin@assurdly.com","status":"active","last_login_date":"2025-05-29T10:25:20.000Z"},{"created_on":"2025-04-28T10:45:19.000Z","created_by":"188","modified_on":"2025-05-23T07:28:19.000Z","id":"309","staff_id":null,"manager_id":null,"first_name":"","last_name":"","display_name":null,"description":null,"photo":null,"phone":null,"email":"abimbola+uat@assurdly.com","status":"pending","last_login_date":null},{"created_on":"2025-04-28T10:44:25.000Z","created_by":"188","modified_on":"2025-05-21T12:36:21.000Z","id":"308","staff_id":null,"manager_id":null,"first_name":"","last_name":"","display_name":null,"description":null,"photo":null,"phone":null,"email":"abimbola@assurdly.com","status":"pending","last_login_date":null}]}}