{"status":true,"response":{"total":11453,"page":1,"limit":10,"totalPages":1146,"data":[{"created_on":"2025-02-25T05:19:46.000Z","created_by":"198","modified_on":"2025-02-25T05:19:46.000Z","modified_by":null,"deleted_on":null,"deleted_by":null,"id":"11450","event_id":"13007","entity_type":"AUDIT_TRAILS","entity_id":null,"description":"Favour tester read AUDIT_TRAILS","ip_address":"10.0.0.2","location":"Lagos","meta":null,"event":{"created_on":"2025-02-25T05:19:46.000Z","created_by":"198","modified_on":"2025-02-25T05:19:46.000Z","modified_by":null,"deleted_on":null,"deleted_by":null,"id":"13007","name":"READ_AUDIT_TRAILS","description":"Favour tester accessed AUDIT_TRAILS to READ","type":"READ_AUDIT_TRAILS"}},{"created_on":"2025-02-25T05:19:46.000Z","created_by":"198","modified_on":"2025-02-25T05:19:46.000Z","modified_by":null,"deleted_on":null,"deleted_by":null,"id":"11451","event_id":"13008","entity_type":"AUDIT_TRAILS","entity_id":null,"description":"Favour tester read AUDIT_TRAILS","ip_address":"10.0.0.2","location":"Lagos","meta":null,"event":{"created_on":"2025-02-25T05:19:46.000Z","created_by":"198","modified_on":"2025-02-25T05:19:46.000Z","modified_by":null,"deleted_on":null,"deleted_by":null,"id":"13008","name":"READ_AUDIT_TRAILS","description":"Favour tester accessed AUDIT_TRAILS to READ","type":"READ_AUDIT_TRAILS"}},{"created_on":"2025-02-25T05:19:46.000Z","created_by":"198","modified_on":"2025-02-25T05:19:46.000Z","modified_by":null,"deleted_on":null,"deleted_by":null,"id":"11452","event_id":"13009","entity_type":"AUDIT_TRAILS","entity_id":null,"description":"Favour tester read AUDIT_TRAILS","ip_address":"10.0.0.2","location":"Lagos","meta":null,"event":{"created_on":"2025-02-25T05:19:46.000Z","created_by":"198","modified_on":"2025-02-25T05:19:46.000Z","modified_by":null,"deleted_on":null,"deleted_by":null,"id":"13009","name":"READ_AUDIT_TRAILS","description":"Favour tester accessed AUDIT_TRAILS to READ","type":"READ_AUDIT_TRAILS"}},{"created_on":"2025-02-25T05:19:46.000Z","created_by":"198","modified_on":"2025-02-25T05:19:46.000Z","modified_by":null,"deleted_on":null,"deleted_by":null,"id":"11453","event_id":"13010","entity_type":"AUDIT_TRAILS","entity_id":null,"description":"Favour tester read AUDIT_TRAILS","ip_address":"10.0.0.2","location":"Lagos","meta":null,"event":{"created_on":"2025-02-25T05:19:46.000Z","created_by":"198","modified_on":"2025-02-25T05:19:46.000Z","modified_by":null,"deleted_on":null,"deleted_by":null,"id":"13010","name":"READ_AUDIT_TRAILS","description":"Favour tester accessed AUDIT_TRAILS to READ","type":"READ_AUDIT_TRAILS"}},{"created_on":"2025-02-25T05:19:45.000Z","created_by":"198","modified_on":"2025-02-25T05:19:45.000Z","modified_by":null,"deleted_on":null,"deleted_by":null,"id":"11449","event_id":"12997","entity_type":"PROFILE","entity_id":null,"description":"Favour tester changed password PROFILE","ip_address":"10.0.0.2","location":"Lagos","meta":null,"event":{"created_on":"2025-02-25T05:19:45.000Z","created_by":"198","modified_on":"2025-02-25T05:19:45.000Z","modified_by":null,"deleted_on":null,"deleted_by":null,"id":"12997","name":"changed password_PROFILE","description":"Favour tester accessed PROFILE to changed password","type":"update_PROFILE"}},{"created_on":"2025-02-25T04:29:20.000Z","created_by":"4","modified_on":"2025-02-25T04:29:20.000Z","modified_by":null,"deleted_on":null,"deleted_by":null,"id":"11448","event_id":"12996","entity_type":"DEFINITIONS","entity_id":null,"description":"Favour Elijah created DEFINITIONS","ip_address":"10.0.0.2","location":"Lagos","meta":null,"event":{"created_on":"2025-02-25T04:29:20.000Z","created_by":"4","modified_on":"2025-02-25T04:29:20.000Z","modified_by":null,"deleted_on":null,"deleted_by":null,"id":"12996","name":"CREATE_DEFINITIONS","description":"Favour Elijah accessed DEFINITIONS to CREATE","type":"CREATE_DEFINITIONS"}},{"created_on":"2025-02-25T04:28:06.000Z","created_by":"4","modified_on":"2025-02-25T04:28:06.000Z","modified_by":null,"deleted_on":null,"deleted_by":null,"id":"11447","event_id":"12995","entity_type":"DEFINITIONS","entity_id":null,"description":"Favour Elijah created DEFINITIONS","ip_address":"10.0.0.2","location":"Lagos","meta":null,"event":{"created_on":"2025-02-25T04:28:06.000Z","created_by":"4","modified_on":"2025-02-25T04:28:06.000Z","modified_by":null,"deleted_on":null,"deleted_by":null,"id":"12995","name":"CREATE_DEFINITIONS","description":"Favour Elijah accessed DEFINITIONS to CREATE","type":"CREATE_DEFINITIONS"}},{"created_on":"2025-02-25T03:48:45.000Z","created_by":"4","modified_on":"2025-02-25T03:48:45.000Z","modified_by":null,"deleted_on":null,"deleted_by":null,"id":"11446","event_id":"12989","entity_type":"DEFINITIONS","entity_id":null,"description":"Favour Elijah read DEFINITIONS","ip_address":"10.0.0.2","location":"Lagos","meta":null,"event":{"created_on":"2025-02-25T03:48:45.000Z","created_by":"4","modified_on":"2025-02-25T03:48:45.000Z","modified_by":null,"deleted_on":null,"deleted_by":null,"id":"12989","name":"Check upload status_DEFINITIONS","description":"Favour Elijah accessed DEFINITIONS to Check upload status","type":"READ_DEFINITIONS"}},{"created_on":"2025-02-25T03:47:38.000Z","created_by":"4","modified_on":"2025-02-25T03:47:38.000Z","modified_by":null,"deleted_on":null,"deleted_by":null,"id":"11445","event_id":"12988","entity_type":"DEFINITIONS","entity_id":null,"description":"Favour Elijah created DEFINITIONS","ip_address":"10.0.0.2","location":"Lagos","meta":null,"event":{"created_on":"2025-02-25T03:47:38.000Z","created_by":"4","modified_on":"2025-02-25T03:47:38.000Z","modified_by":null,"deleted_on":null,"deleted_by":null,"id":"12988","name":"CREATE_DEFINITIONS","description":"Favour Elijah accessed DEFINITIONS to CREATE","type":"CREATE_DEFINITIONS"}},{"created_on":"2025-02-25T03:47:14.000Z","created_by":"4","modified_on":"2025-02-25T03:47:14.000Z","modified_by":null,"deleted_on":null,"deleted_by":null,"id":"11444","event_id":"12987","entity_type":"DEFINITIONS","entity_id":null,"description":"Favour Elijah created DEFINITIONS","ip_address":"10.0.0.2","location":"Lagos","meta":null,"event":{"created_on":"2025-02-25T03:47:14.000Z","created_by":"4","modified_on":"2025-02-25T03:47:14.000Z","modified_by":null,"deleted_on":null,"deleted_by":null,"id":"12987","name":"CREATE_DEFINITIONS","description":"Favour Elijah accessed DEFINITIONS to CREATE","type":"CREATE_DEFINITIONS"}}]}}