{"status":true,"response":{"total":11,"page":1,"limit":10,"totalPages":2,"data":[{"created_on":"2025-02-07T18:59:26.000Z","created_by":"4","modified_on":"2025-03-13T14:57:32.000Z","modified_by":"172","deleted_on":null,"deleted_by":null,"id":"20","uuid":"0194e1c7-fa68-70eb-ac49-6bc8c633a1ba","parent_id":"17","business_manager_id":null,"operations_manager_id":null,"hierarchy_id":"1","mis_code":"test","name":"Retail Banking Directorate","description":"Retail Banking Directorate","street":"LEKKI","city":"LAGOS","state":"291","country":"2993","organization_type":null,"meta":null,"operationsManager":null,"businessManager":null,"organizationTypeInfo":null,"countryInfo":{"name":"Nigeria"},"stateInfo":{"name":"Lagos"}},{"created_on":"2025-02-07T19:11:03.000Z","created_by":"4","modified_on":"2025-02-20T22:20:57.000Z","modified_by":"4","deleted_on":null,"deleted_by":null,"id":"22","uuid":"0194e1d2-9d0f-7739-a65f-f298265b5dfa","parent_id":"17","business_manager_id":null,"operations_manager_id":null,"hierarchy_id":"1","mis_code":"test","name":"Corporate Banking Directorate","description":"Corporate Banking Directorate","street":"IKEJA","city":"LAGOS","state":null,"country":null,"organization_type":null,"meta":null,"operationsManager":null,"businessManager":null,"organizationTypeInfo":null,"countryInfo":null,"stateInfo":null},{"created_on":"2025-02-09T12:51:40.000Z","created_by":"4","modified_on":"2025-02-20T22:21:53.000Z","modified_by":"4","deleted_on":null,"deleted_by":null,"id":"24","uuid":"0194eac3-fb71-73ab-a32e-699bd36e9643","parent_id":"17","business_manager_id":"4","operations_manager_id":"4","hierarchy_id":"1","mis_code":"test","name":"Risk Management Directorate","description":"Risk Management Directorate","street":"IKEJA","city":"LAGOS","state":null,"country":null,"organization_type":"1758","meta":null,"operationsManager":{"created_on":"2025-01-29T06:23:37.000Z","id":"4","staff_id":null,"first_name":"Favour","last_name":"Elijah","display_name":null,"description":null,"phone":"+2349033362914","email":"QA@yopmail.com","status":"active","last_login_date":"2025-03-16T12:48:33.000Z"},"businessManager":{"created_on":"2025-01-29T06:23:37.000Z","id":"4","staff_id":null,"first_name":"Favour","last_name":"Elijah","display_name":null,"description":null,"phone":"+2349033362914","email":"QA@yopmail.com","status":"active","last_login_date":"2025-03-16T12:48:33.000Z"},"organizationTypeInfo":{"name":"Directorate"},"countryInfo":null,"stateInfo":null},{"created_on":"2025-02-20T10:58:28.000Z","created_by":"172","modified_on":"2025-02-20T22:22:52.000Z","modified_by":"4","deleted_on":null,"deleted_by":null,"id":"27","uuid":"01952302-4d0f-7559-a32e-2eadd2a10dbf","parent_id":"17","business_manager_id":"190","operations_manager_id":"190","hierarchy_id":"1","mis_code":"jckvjl","name":"Compliance Directorate","description":"Compliance Directorate","street":"kjxkjcx","city":"khxljx","state":"276","country":"2993","organization_type":"1770","meta":null,"operationsManager":{"created_on":"2025-02-20T00:32:20.000Z","id":"190","staff_id":null,"first_name":"Hygenus","last_name":"Hycent","display_name":null,"description":null,"phone":null,"email":"Livadmin@yopmail.com","status":"active","last_login_date":"2025-02-20T00:34:14.000Z"},"businessManager":{"created_on":"2025-02-20T00:32:20.000Z","id":"190","staff_id":null,"first_name":"Hygenus","last_name":"Hycent","display_name":null,"description":null,"phone":null,"email":"Livadmin@yopmail.com","status":"active","last_login_date":"2025-02-20T00:34:14.000Z"},"organizationTypeInfo":{"name":"Operations Region"},"countryInfo":{"name":"Nigeria"},"stateInfo":{"name":"Cross River"}},{"created_on":"2025-02-23T16:14:23.000Z","created_by":"4","modified_on":"2025-02-23T16:15:46.000Z","modified_by":"4","deleted_on":null,"deleted_by":null,"id":"28","uuid":"01953396-9eec-7110-ae2c-6159e8ad2f5c","parent_id":"17","business_manager_id":"196","operations_manager_id":"183","hierarchy_id":"1","mis_code":"N12","name":"Consumer Directorate","description":"Consumer Directorate","street":"ikeja","city":"lagos","state":"291","country":"2993","organization_type":"1758","meta":null,"operationsManager":{"created_on":"2025-02-17T15:33:55.000Z","id":"183","staff_id":null,"first_name":"favour","last_name":"desent","display_name":null,"description":null,"phone":null,"email":"desent@yopmail.com","status":"active","last_login_date":"2025-02-21T22:32:30.000Z"},"businessManager":{"created_on":"2025-02-23T14:09:33.000Z","id":"196","staff_id":null,"first_name":"Tobechukwu","last_name":"Nnamdi","display_name":null,"description":null,"phone":"+2348026286550","email":"favour@mailinator.com","status":"active","last_login_date":"2025-03-10T16:39:02.000Z"},"organizationTypeInfo":{"name":"Directorate"},"countryInfo":{"name":"Nigeria"},"stateInfo":{"name":"Lagos"}},{"created_on":"2025-02-25T14:45:54.000Z","created_by":"4","modified_on":"2025-02-25T14:45:54.000Z","modified_by":null,"deleted_on":null,"deleted_by":null,"id":"29","uuid":"01953d92-51ab-7524-b5e9-b64ee34aff94","parent_id":"17","business_manager_id":"196","operations_manager_id":"200","hierarchy_id":"1","mis_code":"qa","name":"Test organization","description":"test","street":"ikeja","city":"lagos","state":"284","country":"2994","organization_type":"1758","meta":null,"operationsManager":null,"businessManager":{"created_on":"2025-02-23T14:09:33.000Z","id":"196","staff_id":null,"first_name":"Tobechukwu","last_name":"Nnamdi","display_name":null,"description":null,"phone":"+2348026286550","email":"favour@mailinator.com","status":"active","last_login_date":"2025-03-10T16:39:02.000Z"},"organizationTypeInfo":{"name":"Directorate"},"countryInfo":{"name":"Ghana"},"stateInfo":{"name":"Jigawa"}},{"created_on":"2025-02-25T14:47:00.000Z","created_by":"198","modified_on":"2025-02-25T14:47:00.000Z","modified_by":null,"deleted_on":null,"deleted_by":null,"id":"30","uuid":"01953d93-53d7-77e8-9877-c3d5cf182ddf","parent_id":"17","business_manager_id":"4","operations_manager_id":"4","hierarchy_id":"1","mis_code":"QA","name":"Automated Test Organization","description":"This is for testing only","street":"IKEJA","city":"LAGOS","state":"284","country":"1964","organization_type":"1758","meta":null,"operationsManager":{"created_on":"2025-01-29T06:23:37.000Z","id":"4","staff_id":null,"first_name":"Favour","last_name":"Elijah","display_name":null,"description":null,"phone":"+2349033362914","email":"QA@yopmail.com","status":"active","last_login_date":"2025-03-16T12:48:33.000Z"},"businessManager":{"created_on":"2025-01-29T06:23:37.000Z","id":"4","staff_id":null,"first_name":"Favour","last_name":"Elijah","display_name":null,"description":null,"phone":"+2349033362914","email":"QA@yopmail.com","status":"active","last_login_date":"2025-03-16T12:48:33.000Z"},"organizationTypeInfo":{"name":"Directorate"},"countryInfo":{"name":"Ghana"},"stateInfo":{"name":"Jigawa"}},{"created_on":"2025-02-25T14:54:27.000Z","created_by":"198","modified_on":"2025-02-25T14:54:27.000Z","modified_by":null,"deleted_on":null,"deleted_by":null,"id":"32","uuid":"01953d9a-2757-7358-97a5-25f9861c7cac","parent_id":"17","business_manager_id":null,"operations_manager_id":null,"hierarchy_id":"1","mis_code":"QA","name":"Automated API Test Organization","description":"This is for testing only","street":"IKEJA","city":"LAGOS","state":"284","country":"1964","organization_type":"1758","meta":null,"operationsManager":null,"businessManager":null,"organizationTypeInfo":{"name":"Directorate"},"countryInfo":{"name":"Ghana"},"stateInfo":{"name":"Jigawa"}},{"created_on":"2025-02-26T02:50:05.000Z","created_by":"172","modified_on":"2025-03-13T20:45:53.000Z","modified_by":"188","deleted_on":null,"deleted_by":null,"id":"34","uuid":"01954029-53a2-7603-a8b6-ce7ed374d1d3","parent_id":"17","business_manager_id":"171","operations_manager_id":null,"hierarchy_id":"1","mis_code":"678878","name":"test","description":"description","street":"street","city":"city","state":"276","country":"2993","organization_type":"1770","meta":null,"operationsManager":null,"businessManager":{"created_on":"2025-02-12T16:46:29.000Z","id":"171","staff_id":null,"first_name":"Favour","last_name":"Elijah","display_name":null,"description":null,"phone":null,"email":"favouradministrator@yopmail.com","status":"active","last_login_date":"2025-02-26T17:20:00.000Z"},"organizationTypeInfo":{"name":"Operations Region"},"countryInfo":{"name":"Nigeria"},"stateInfo":{"name":"Cross River"}},{"created_on":"2025-02-26T02:51:27.000Z","created_by":"172","modified_on":"2025-02-26T02:51:27.000Z","modified_by":null,"deleted_on":null,"deleted_by":null,"id":"35","uuid":"0195402a-93aa-71c0-b57e-38a4961798ff","parent_id":"17","business_manager_id":null,"operations_manager_id":null,"hierarchy_id":"1","mis_code":"54854","name":"testing","description":"ksdjd","street":"hdgsj","city":"sdj","state":"276","country":"2994","organization_type":"1770","meta":null,"operationsManager":null,"businessManager":null,"organizationTypeInfo":{"name":"Operations Region"},"countryInfo":{"name":"Ghana"},"stateInfo":{"name":"Cross River"}}]}}