{"status":true,"response":{"total":220,"page":1,"limit":10,"totalPages":22,"data":[{"created_on":"2025-03-26T14:14:45.000Z","created_by":"188","modified_on":"2025-03-26T14:14:45.000Z","id":"300","staff_id":null,"manager_id":null,"first_name":"","last_name":"","display_name":null,"description":null,"photo":null,"phone":null,"email":"morgan@assurdly.com","status":"pending","last_login_date":null},{"created_on":"2025-03-25T16:05:51.000Z","created_by":"170","modified_on":"2025-03-25T16:10:03.000Z","id":"299","staff_id":null,"manager_id":null,"first_name":"Udeme","last_name":"Ben","display_name":null,"description":null,"photo":null,"phone":null,"email":"udeme+13@assurdly.com","status":"active","last_login_date":"2025-03-25T16:10:03.000Z"},{"created_on":"2025-03-25T06:20:16.000Z","created_by":"188","modified_on":"2025-03-25T06:49:18.000Z","id":"298","staff_id":null,"manager_id":null,"first_name":"Billy","last_name":"Roy","display_name":null,"description":null,"photo":null,"phone":null,"email":"Billy@yopmail.com","status":"active","last_login_date":"2025-03-25T06:49:18.000Z"},{"created_on":"2025-03-24T16:22:41.000Z","created_by":"172","modified_on":"2025-03-24T16:51:26.000Z","id":"297","staff_id":null,"manager_id":null,"first_name":"christo","last_name":"esiv","display_name":null,"description":null,"photo":null,"phone":null,"email":"christo@yopmail.com","status":"active","last_login_date":"2025-03-24T16:51:27.000Z"},{"created_on":"2025-03-24T14:58:44.000Z","created_by":"188","modified_on":"2025-03-24T15:07:01.000Z","id":"294","staff_id":null,"manager_id":null,"first_name":"jay","last_name":"jay","display_name":null,"description":null,"photo":null,"phone":null,"email":"jayjay@yopmail.com","status":"active","last_login_date":"2025-03-24T15:07:01.000Z"},{"created_on":"2025-03-24T12:28:52.000Z","created_by":"170","modified_on":"2025-03-26T11:51:52.000Z","id":"293","staff_id":null,"manager_id":null,"first_name":"omerebere","last_name":"Ejiaku","display_name":null,"description":null,"photo":null,"phone":null,"email":"Omerebere.Ejiaku@novabank.ng","status":"active","last_login_date":"2025-03-26T11:51:53.000Z"},{"created_on":"2025-03-24T12:27:53.000Z","created_by":"170","modified_on":"2025-03-25T15:55:51.000Z","id":"292","staff_id":null,"manager_id":null,"first_name":"Sele","last_name":"Gyang","display_name":null,"description":null,"photo":null,"phone":null,"email":"sele.gyang@novabank.ng","status":"active","last_login_date":"2025-03-25T15:55:51.000Z"},{"created_on":"2025-03-21T23:21:27.000Z","created_by":"172","modified_on":"2025-03-22T13:48:26.000Z","id":"290","staff_id":null,"manager_id":null,"first_name":"Christopher","last_name":"Esiv","display_name":null,"description":null,"photo":null,"phone":null,"email":"christopher@yopmail.com","status":"active","last_login_date":"2025-03-22T13:48:26.000Z"},{"created_on":"2025-03-21T06:46:31.000Z","created_by":"188","modified_on":"2025-03-24T14:38:29.000Z","id":"289","staff_id":null,"manager_id":null,"first_name":"jay","last_name":"","display_name":null,"description":null,"photo":null,"phone":null,"email":"jaden1@yopmail.com","status":"pending","last_login_date":null},{"created_on":"2025-03-20T19:14:41.000Z","created_by":"170","modified_on":"2025-03-24T07:41:24.000Z","id":"288","staff_id":null,"manager_id":null,"first_name":"Gladys","last_name":"Kefas","display_name":null,"description":null,"photo":null,"phone":null,"email":"Bede.Alugbue@novabank.ng","status":"active","last_login_date":"2025-03-24T07:41:25.000Z"}]}}