{"status":true,"response":{"total":248,"page":1,"limit":10,"totalPages":25,"data":[{"created_on":"2025-06-18T11:12:41.000Z","created_by":"272","modified_on":"2025-06-18T11:12:54.000Z","id":"328","staff_id":"5630","manager_id":null,"first_name":"","last_name":"","display_name":null,"description":null,"photo":null,"phone":null,"email":"abimbola+100@novabank.ng","status":"pending","last_login_date":null},{"created_on":"2025-06-17T12:52:25.000Z","created_by":"310","modified_on":"2025-06-18T11:10:26.000Z","id":"327","staff_id":"Ez00567","manager_id":null,"first_name":"","last_name":"","display_name":null,"description":null,"photo":null,"phone":null,"email":"abimbola+20@novabank.ng","status":"active","last_login_date":null},{"created_on":"2025-06-17T12:49:54.000Z","created_by":"310","modified_on":"2025-06-18T11:01:24.000Z","id":"326","staff_id":"+#334Asd","manager_id":null,"first_name":"","last_name":"","display_name":null,"description":null,"photo":null,"phone":null,"email":"abimbola+18@novabank.ng","status":"pending","last_login_date":null},{"created_on":"2025-06-17T12:36:43.000Z","created_by":"310","modified_on":"2025-06-17T12:36:43.000Z","id":"325","staff_id":"+#334Asd","manager_id":null,"first_name":"","last_name":"","display_name":null,"description":null,"photo":null,"phone":null,"email":"abimbola+2025@novabank.ng","status":"pending","last_login_date":null},{"created_on":"2025-06-17T10:50:22.000Z","created_by":"272","modified_on":"2025-06-17T10:50:22.000Z","id":"324","staff_id":"EA001001","manager_id":null,"first_name":"","last_name":"","display_name":null,"description":null,"photo":null,"phone":null,"email":"mikel@novabank.ng","status":"pending","last_login_date":null},{"created_on":"2025-06-11T21:36:23.000Z","created_by":"272","modified_on":"2025-06-11T21:36:23.000Z","id":"323","staff_id":"3400","manager_id":null,"first_name":"","last_name":"","display_name":null,"description":null,"photo":null,"phone":null,"email":"testing+1749677781334@novabank.ng","status":"pending","last_login_date":null},{"created_on":"2025-06-11T21:30:28.000Z","created_by":"272","modified_on":"2025-06-11T21:30:28.000Z","id":"322","staff_id":"3400","manager_id":null,"first_name":"","last_name":"","display_name":null,"description":null,"photo":null,"phone":null,"email":"testing+12@novabank.ng","status":"pending","last_login_date":null},{"created_on":"2025-06-11T21:17:21.000Z","created_by":"272","modified_on":"2025-06-11T21:17:21.000Z","id":"321","staff_id":"3400","manager_id":null,"first_name":"","last_name":"","display_name":null,"description":null,"photo":null,"phone":null,"email":"testing+10@novabank.ng","status":"pending","last_login_date":null},{"created_on":"2025-06-03T15:11:01.000Z","created_by":"272","modified_on":"2025-06-03T15:11:01.000Z","id":"320","staff_id":"5678","manager_id":null,"first_name":"","last_name":"","display_name":null,"description":null,"photo":null,"phone":null,"email":"abimbola+15@novabank.ng","status":"pending","last_login_date":null},{"created_on":"2025-06-03T15:08:55.000Z","created_by":"272","modified_on":"2025-06-03T15:08:55.000Z","id":"319","staff_id":"345","manager_id":null,"first_name":"","last_name":"","display_name":null,"description":null,"photo":null,"phone":null,"email":"abimbola+12@novabank.ng","status":"pending","last_login_date":null}]}}