{"status":true,"response":{"total":259,"page":1,"limit":10,"totalPages":26,"data":[{"created_on":"2025-07-04T16:08:36.000Z","created_by":"170","modified_on":"2025-07-04T16:09:55.000Z","id":"340","staff_id":null,"manager_id":null,"first_name":"Udeme","last_name":"Newest","display_name":null,"description":null,"photo":null,"phone":null,"email":"udeme+02@assurdly.com","status":"active","last_login_date":"2025-07-04T16:09:56.000Z"},{"created_on":"2025-07-03T16:03:56.000Z","created_by":"170","modified_on":"2025-07-04T16:00:24.000Z","id":"339","staff_id":null,"manager_id":null,"first_name":"Udeme","last_name":"Profile","display_name":null,"description":null,"photo":null,"phone":null,"email":"udeme+01@assurdly.com","status":"active","last_login_date":"2025-07-04T16:00:25.000Z"},{"created_on":"2025-06-30T21:58:42.000Z","created_by":"272","modified_on":"2025-07-02T08:38:53.000Z","id":"338","staff_id":"3456","manager_id":null,"first_name":"Travis","last_name":"Chris","display_name":null,"description":null,"photo":null,"phone":null,"email":"abimbola+mobile@assurdly.com","status":"active","last_login_date":"2025-07-02T08:38:54.000Z"},{"created_on":"2025-06-30T18:22:10.000Z","created_by":"272","modified_on":"2025-06-30T18:22:10.000Z","id":"337","staff_id":"3400id","manager_id":null,"first_name":"","last_name":"","display_name":null,"description":null,"photo":null,"phone":null,"email":"testapp@novabank.ng","status":"pending","last_login_date":null},{"created_on":"2025-06-30T16:14:56.000Z","created_by":"310","modified_on":"2025-06-30T16:14:56.000Z","id":"336","staff_id":"ghhhh","manager_id":null,"first_name":"","last_name":"","display_name":null,"description":null,"photo":null,"phone":null,"email":"abimboly+test@assurdly.com","status":"pending","last_login_date":null},{"created_on":"2025-06-30T15:59:18.000Z","created_by":"310","modified_on":"2025-06-30T15:59:18.000Z","id":"335","staff_id":"567878","manager_id":null,"first_name":"","last_name":"","display_name":null,"description":null,"photo":null,"phone":null,"email":"bimbola+tester@assurdly.com","status":"pending","last_login_date":null},{"created_on":"2025-06-30T13:34:31.000Z","created_by":"272","modified_on":"2025-06-30T13:37:02.000Z","id":"334","staff_id":"567890","manager_id":null,"first_name":"Bug","last_name":"Sheriff","display_name":null,"description":null,"photo":null,"phone":null,"email":"abimbola+finder@assurdly.com","status":"active","last_login_date":"2025-06-30T13:37:02.000Z"},{"created_on":"2025-06-30T11:18:48.000Z","created_by":"272","modified_on":"2025-06-30T11:18:48.000Z","id":"333","staff_id":"567","manager_id":null,"first_name":"","last_name":"","display_name":null,"description":null,"photo":null,"phone":null,"email":"abimbola+test103@assurdly.com","status":"pending","last_login_date":null},{"created_on":"2025-06-30T11:07:24.000Z","created_by":"272","modified_on":"2025-06-30T11:07:24.000Z","id":"332","staff_id":"567","manager_id":null,"first_name":"","last_name":"","display_name":null,"description":null,"photo":null,"phone":null,"email":"abimbola+test102@assurdly.com","status":"pending","last_login_date":null},{"created_on":"2025-06-30T10:59:18.000Z","created_by":"272","modified_on":"2025-06-30T11:08:36.000Z","id":"331","staff_id":"567","manager_id":null,"first_name":"Sly","last_name":"Coyote","display_name":null,"description":null,"photo":null,"phone":null,"email":"abimbola+test001@assurdly.com","status":"active","last_login_date":"2025-06-30T11:08:36.000Z"}]}}