{"status":true,"response":{"data":[{"id":"411","comment":"commenting on your account","created_on":"2025-07-09T18:51:34.000Z","edited_on":null,"created_by":"272","issue_id":null,"customer_id":"5178","created":{"id":"272","first_name":"Ayo","last_name":"Jide"},"can_edit":true,"can_delete":true,"replies":[]},{"id":"410","comment":"HEY","created_on":"2025-07-09T18:51:33.000Z","edited_on":null,"created_by":"272","issue_id":586,"customer_id":"5178","created":{"id":"272","first_name":"Ayo","last_name":"Jide"},"can_edit":true,"can_delete":true,"replies":[]},{"id":"409","comment":"hey favorite","created_on":"2025-07-06T20:11:46.000Z","edited_on":"2025-07-06T20:11:47.000Z","created_by":"272","issue_id":null,"customer_id":"5178","created":{"id":"272","first_name":"Ayo","last_name":"Jide"},"can_edit":true,"can_delete":true,"replies":[]},{"id":"407","comment":"hey favorite","created_on":"2025-07-04T18:57:33.000Z","edited_on":"2025-07-04T18:57:34.000Z","created_by":"272","issue_id":null,"customer_id":"5178","created":{"id":"272","first_name":"Ayo","last_name":"Jide"},"can_edit":true,"can_delete":true,"replies":[]},{"id":"405","comment":"hey favorite","created_on":"2025-07-02T18:50:26.000Z","edited_on":"2025-07-02T18:50:27.000Z","created_by":"272","issue_id":null,"customer_id":"5178","created":{"id":"272","first_name":"Ayo","last_name":"Jide"},"can_edit":true,"can_delete":true,"replies":[]},{"id":"403","comment":"hey favorite","created_on":"2025-06-29T20:11:43.000Z","edited_on":"2025-06-29T20:11:43.000Z","created_by":"272","issue_id":null,"customer_id":"5178","created":{"id":"272","first_name":"Ayo","last_name":"Jide"},"can_edit":true,"can_delete":true,"replies":[]},{"id":"401","comment":"hey favorite","created_on":"2025-06-27T18:58:22.000Z","edited_on":"2025-06-27T18:58:23.000Z","created_by":"272","issue_id":null,"customer_id":"5178","created":{"id":"272","first_name":"Ayo","last_name":"Jide"},"can_edit":true,"can_delete":true,"replies":[]},{"id":"399","comment":"hey favorite","created_on":"2025-06-25T18:51:00.000Z","edited_on":"2025-06-25T18:51:01.000Z","created_by":"272","issue_id":null,"customer_id":"5178","created":{"id":"272","first_name":"Ayo","last_name":"Jide"},"can_edit":true,"can_delete":true,"replies":[]},{"id":"396","comment":"hey favorite","created_on":"2025-06-22T20:11:14.000Z","edited_on":"2025-06-22T20:11:15.000Z","created_by":"272","issue_id":null,"customer_id":"5178","created":{"id":"272","first_name":"Ayo","last_name":"Jide"},"can_edit":true,"can_delete":true,"replies":[]},{"id":"394","comment":"hey favorite","created_on":"2025-06-20T18:57:48.000Z","edited_on":"2025-06-20T18:57:49.000Z","created_by":"272","issue_id":null,"customer_id":"5178","created":{"id":"272","first_name":"Ayo","last_name":"Jide"},"can_edit":true,"can_delete":true,"replies":[]}],"total":111,"page":1,"limit":10,"totalPages":12}}