{"status":true,"response":{"total":25,"page":3,"limit":10,"totalPages":3,"data":[{"created_on":"2025-02-03T18:18:19.000Z","created_by":"4","modified_on":"2025-02-03T18:18:19.000Z","modified_by":null,"deleted_on":null,"deleted_by":null,"id":"6","uuid":"0194cd08-e4f4-75d1-aa26-fbb108464d74","name":"Executive","description":"Posting Access","type":"system","meta":{},"user_count":"2","organization_count":"0","permissions":[]},{"created_on":"2025-01-29T10:32:47.000Z","created_by":"3","modified_on":"2025-01-29T10:32:47.000Z","modified_by":null,"deleted_on":null,"deleted_by":null,"id":"5","uuid":"","name":"Admin","description":"Administrator with full access","type":"system","meta":{},"user_count":"3","organization_count":"0","permissions":[]},{"created_on":"2025-01-27T13:58:02.000Z","created_by":"1","modified_on":"2025-01-27T13:58:02.000Z","modified_by":null,"deleted_on":null,"deleted_by":null,"id":"3","uuid":"","name":"Account Officer","description":"Posting Access","type":"system","meta":{},"user_count":"1","organization_count":"0","permissions":[]},{"created_on":"2025-01-26T18:13:31.000Z","created_by":"1","modified_on":"2025-01-26T18:13:31.000Z","modified_by":null,"deleted_on":null,"deleted_by":null,"id":"2","uuid":"","name":"Admin","description":"Administrator with full access","type":"system","meta":{},"user_count":"1","organization_count":"0","permissions":[]},{"created_on":"2025-01-26T18:13:03.000Z","created_by":"1","modified_on":"2025-03-31T11:44:20.000Z","modified_by":"272","deleted_on":null,"deleted_by":null,"id":"1","uuid":"0195ec04-4fbc-71d8-8597-1fe22dc14cc5","name":"Test User","description":"Testing","type":"user","meta":{},"user_count":"1","organization_count":"0","permissions":[{"module":"Admin","can_create":true,"can_delete":false,"can_list":false,"can_read":true,"can_update":false},{"module":"REPORTS","can_create":true,"can_delete":false,"can_list":false,"can_read":true,"can_update":false}]}]}}