{"status":true,"response":{"total":11247,"page":1,"limit":10,"totalPages":1125,"data":[{"created_on":"2025-02-24T04:56:11.000Z","created_by":"198","modified_on":"2025-02-24T04:56:11.000Z","modified_by":null,"deleted_on":null,"deleted_by":null,"id":"11246","event_id":"12689","entity_type":"AUDIT_TRAILS","entity_id":null,"description":"Favour tester read AUDIT_TRAILS","ip_address":"10.0.0.2","location":"Lagos","meta":null,"event":{"created_on":"2025-02-24T04:56:11.000Z","created_by":"198","modified_on":"2025-02-24T04:56:11.000Z","modified_by":null,"deleted_on":null,"deleted_by":null,"id":"12689","name":"READ_AUDIT_TRAILS","description":"Favour tester accessed AUDIT_TRAILS to READ","type":"READ_AUDIT_TRAILS"}},{"created_on":"2025-02-24T04:56:11.000Z","created_by":"198","modified_on":"2025-02-24T04:56:11.000Z","modified_by":null,"deleted_on":null,"deleted_by":null,"id":"11247","event_id":"12690","entity_type":"AUDIT_TRAILS","entity_id":null,"description":"Favour tester read AUDIT_TRAILS","ip_address":"10.0.0.2","location":"Lagos","meta":null,"event":{"created_on":"2025-02-24T04:56:11.000Z","created_by":"198","modified_on":"2025-02-24T04:56:11.000Z","modified_by":null,"deleted_on":null,"deleted_by":null,"id":"12690","name":"READ_AUDIT_TRAILS","description":"Favour tester accessed AUDIT_TRAILS to READ","type":"READ_AUDIT_TRAILS"}},{"created_on":"2025-02-24T04:56:10.000Z","created_by":"198","modified_on":"2025-02-24T04:56:10.000Z","modified_by":null,"deleted_on":null,"deleted_by":null,"id":"11244","event_id":"12687","entity_type":"AUDIT_TRAILS","entity_id":null,"description":"Favour tester read AUDIT_TRAILS","ip_address":"10.0.0.2","location":"Lagos","meta":null,"event":{"created_on":"2025-02-24T04:56:10.000Z","created_by":"198","modified_on":"2025-02-24T04:56:10.000Z","modified_by":null,"deleted_on":null,"deleted_by":null,"id":"12687","name":"READ_AUDIT_TRAILS","description":"Favour tester accessed AUDIT_TRAILS to READ","type":"READ_AUDIT_TRAILS"}},{"created_on":"2025-02-24T04:56:10.000Z","created_by":"198","modified_on":"2025-02-24T04:56:10.000Z","modified_by":null,"deleted_on":null,"deleted_by":null,"id":"11245","event_id":"12688","entity_type":"AUDIT_TRAILS","entity_id":null,"description":"Favour tester read AUDIT_TRAILS","ip_address":"10.0.0.2","location":"Lagos","meta":null,"event":{"created_on":"2025-02-24T04:56:10.000Z","created_by":"198","modified_on":"2025-02-24T04:56:10.000Z","modified_by":null,"deleted_on":null,"deleted_by":null,"id":"12688","name":"READ_AUDIT_TRAILS","description":"Favour tester accessed AUDIT_TRAILS to READ","type":"READ_AUDIT_TRAILS"}},{"created_on":"2025-02-23T20:43:00.000Z","created_by":"4","modified_on":"2025-02-23T20:43:00.000Z","modified_by":null,"deleted_on":null,"deleted_by":null,"id":"11243","event_id":"12676","entity_type":"PROFILE","entity_id":null,"description":"Favour Elijah requested MFA setup PROFILE","ip_address":"10.0.0.2","location":"Lagos","meta":null,"event":{"created_on":"2025-02-23T20:42:59.000Z","created_by":"4","modified_on":"2025-02-23T20:42:59.000Z","modified_by":null,"deleted_on":null,"deleted_by":null,"id":"12676","name":"requested MFA setup_PROFILE","description":"Favour Elijah accessed PROFILE to requested MFA setup","type":"CREATE_PROFILE"}},{"created_on":"2025-02-23T19:08:25.000Z","created_by":"188","modified_on":"2025-02-23T19:08:25.000Z","modified_by":null,"deleted_on":null,"deleted_by":null,"id":"11242","event_id":"12675","entity_type":"INVITES","entity_id":null,"description":"favour Assurdly created INVITES","ip_address":"10.0.0.2","location":"Lagos","meta":null,"event":{"created_on":"2025-02-23T19:08:25.000Z","created_by":"188","modified_on":"2025-02-23T19:08:25.000Z","modified_by":null,"deleted_on":null,"deleted_by":null,"id":"12675","name":"CREATE_INVITES","description":"favour Assurdly accessed INVITES to CREATE","type":"CREATE_INVITES"}},{"created_on":"2025-02-23T16:15:46.000Z","created_by":"4","modified_on":"2025-02-23T16:15:46.000Z","modified_by":null,"deleted_on":null,"deleted_by":null,"id":"11241","event_id":"12674","entity_type":"ORGANIZATIONS","entity_id":"28","description":"Favour Elijah modified ORGANIZATIONS","ip_address":"10.0.0.2","location":"Lagos","meta":{"keys":["name","description","operations_manager_id","business_manager_id","street","city","state","country","mis_code"],"before":{"name":"Lagos directorate","description":"Lagos","operations_manager_id":"183","business_manager_id":"196","street":"ikeja","city":"lagos","state":"291","country":"2993","mis_code":"N12"},"after":{"name":"Consumer Directorate","description":"Consumer Directorate","operations_manager_id":183,"business_manager_id":196,"street":"ikeja","city":"lagos","state":291,"country":2993,"mis_code":"N12"}},"event":{"created_on":"2025-02-23T16:15:46.000Z","created_by":"4","modified_on":"2025-02-23T16:15:46.000Z","modified_by":null,"deleted_on":null,"deleted_by":null,"id":"12674","name":"update_ORGANIZATIONS","description":"Favour Elijah accessed ORGANIZATIONS to update","type":"update_ORGANIZATIONS"}},{"created_on":"2025-02-23T16:14:24.000Z","created_by":"4","modified_on":"2025-02-23T16:14:24.000Z","modified_by":null,"deleted_on":null,"deleted_by":null,"id":"11240","event_id":"12672","entity_type":"ORGANIZATIONS","entity_id":null,"description":"Favour Elijah created ORGANIZATIONS","ip_address":"10.0.0.2","location":"Lagos","meta":null,"event":{"created_on":"2025-02-23T16:14:23.000Z","created_by":"4","modified_on":"2025-02-23T16:14:23.000Z","modified_by":null,"deleted_on":null,"deleted_by":null,"id":"12672","name":"CREATE_ORGANIZATIONS","description":"Favour Elijah accessed ORGANIZATIONS to CREATE","type":"CREATE_ORGANIZATIONS"}},{"created_on":"2025-02-23T15:34:51.000Z","created_by":"4","modified_on":"2025-02-23T15:34:51.000Z","modified_by":null,"deleted_on":null,"deleted_by":null,"id":"11239","event_id":"12671","entity_type":"PERMISSIONS","entity_id":null,"description":"Favour Elijah read PERMISSIONS","ip_address":"10.0.0.2","location":"Lagos","meta":null,"event":{"created_on":"2025-02-23T15:34:51.000Z","created_by":"4","modified_on":"2025-02-23T15:34:51.000Z","modified_by":null,"deleted_on":null,"deleted_by":null,"id":"12671","name":"READ_PERMISSIONS","description":"Favour Elijah accessed PERMISSIONS to READ","type":"READ_PERMISSIONS"}},{"created_on":"2025-02-23T15:34:50.000Z","created_by":"4","modified_on":"2025-02-23T15:34:50.000Z","modified_by":null,"deleted_on":null,"deleted_by":null,"id":"11238","event_id":"12670","entity_type":"PERMISSIONS","entity_id":null,"description":"Favour Elijah read PERMISSIONS","ip_address":"10.0.0.2","location":"Lagos","meta":null,"event":{"created_on":"2025-02-23T15:34:50.000Z","created_by":"4","modified_on":"2025-02-23T15:34:50.000Z","modified_by":null,"deleted_on":null,"deleted_by":null,"id":"12670","name":"READ_PERMISSIONS","description":"Favour Elijah accessed PERMISSIONS to READ","type":"READ_PERMISSIONS"}}]}}