{"status":true,"response":{"total":52,"page":2,"limit":10,"totalPages":6,"data":[{"created_on":"2025-02-27T14:44:30.000Z","created_by":"170","modified_on":"2025-02-27T14:44:30.000Z","modified_by":null,"deleted_on":null,"deleted_by":null,"id":"113","user_id":"255","organization_id":"17","user":{"created_on":"2025-02-27T14:44:30.000Z","id":"255","staff_id":null,"first_name":"","last_name":"","display_name":null,"description":null,"phone":null,"email":"udeme+11@assurdly.com","status":"pending","last_login_date":null,"roles":[{"name":"Staff","description":"Staff role"}]}},{"created_on":"2025-02-26T23:05:03.000Z","created_by":"214","modified_on":"2025-02-26T23:05:03.000Z","modified_by":null,"deleted_on":null,"deleted_by":null,"id":"112","user_id":"254","organization_id":"17","user":{"created_on":"2025-02-26T23:05:03.000Z","id":"254","staff_id":null,"first_name":"","last_name":"","display_name":null,"description":null,"phone":null,"email":"uju@lendsqr.com","status":"pending","last_login_date":null,"roles":[{"name":"Super Admin","description":"Super Admin role"}]}},{"created_on":"2025-02-26T23:04:26.000Z","created_by":"214","modified_on":"2025-02-26T23:04:26.000Z","modified_by":null,"deleted_on":null,"deleted_by":null,"id":"111","user_id":"253","organization_id":"17","user":{"created_on":"2025-02-26T23:04:26.000Z","id":"253","staff_id":null,"first_name":"Adedeji","last_name":"Olowe","display_name":null,"description":null,"phone":"+2347034138291","email":"adedeji@lendsqr.com","status":"active","last_login_date":"2025-02-26T23:09:00.000Z","roles":[{"name":"Super Admin","description":"Super Admin role"}]}},{"created_on":"2025-02-26T22:04:37.000Z","created_by":"214","modified_on":"2025-02-26T22:04:37.000Z","modified_by":null,"deleted_on":null,"deleted_by":null,"id":"110","user_id":"252","organization_id":"17","user":{"created_on":"2025-02-26T22:04:37.000Z","id":"252","staff_id":null,"first_name":"Temitop","last_name":"Akinyemi","display_name":null,"description":null,"phone":null,"email":"temitope.akinyemi@novabank.ng","status":"active","last_login_date":"2025-02-27T19:06:00.000Z","roles":[{"name":"UAT Role","description":"The role of the first group of UAT testers."}]}},{"created_on":"2025-02-26T22:04:20.000Z","created_by":"214","modified_on":"2025-02-26T22:04:20.000Z","modified_by":null,"deleted_on":null,"deleted_by":null,"id":"109","user_id":"251","organization_id":"17","user":{"created_on":"2025-02-26T22:04:20.000Z","id":"251","staff_id":null,"first_name":"Oluwaseyi","last_name":"Ajayi","display_name":null,"description":null,"phone":null,"email":"oluwaseyi.ajayi@novabank.ng","status":"active","last_login_date":"2025-03-05T11:08:55.000Z","roles":[{"name":"UAT Role","description":"The role of the first group of UAT testers."}]}},{"created_on":"2025-02-26T22:03:59.000Z","created_by":"214","modified_on":"2025-02-26T22:03:59.000Z","modified_by":null,"deleted_on":null,"deleted_by":null,"id":"108","user_id":"250","organization_id":"17","user":{"created_on":"2025-02-26T22:03:59.000Z","id":"250","staff_id":null,"first_name":"Folasele","last_name":"Akinloose","display_name":null,"description":null,"phone":"+2347037089870","email":"folasele.akinloose@novabank.ng","status":"active","last_login_date":"2025-03-06T18:06:31.000Z","roles":[{"name":"UAT Role","description":"The role of the first group of UAT testers."}]}},{"created_on":"2025-02-26T22:03:30.000Z","created_by":"214","modified_on":"2025-02-26T22:03:30.000Z","modified_by":null,"deleted_on":null,"deleted_by":null,"id":"107","user_id":"249","organization_id":"17","user":{"created_on":"2025-02-26T22:03:30.000Z","id":"249","staff_id":null,"first_name":"LOVELINE","last_name":"ANTHONY","display_name":null,"description":null,"phone":null,"email":"loveline.anthony@novabank.ng","status":"active","last_login_date":"2025-03-07T18:34:44.000Z","roles":[{"name":"UAT Role","description":"The role of the first group of UAT testers."}]}},{"created_on":"2025-02-26T22:03:09.000Z","created_by":"214","modified_on":"2025-02-26T22:03:09.000Z","modified_by":null,"deleted_on":null,"deleted_by":null,"id":"106","user_id":"248","organization_id":"17","user":{"created_on":"2025-02-26T22:03:09.000Z","id":"248","staff_id":null,"first_name":"FEMI","last_name":"AJAYI","display_name":null,"description":null,"phone":null,"email":"femi.ajayi@novabank.ng","status":"active","last_login_date":"2025-02-27T07:36:27.000Z","roles":[{"name":"UAT Role","description":"The role of the first group of UAT testers."}]}},{"created_on":"2025-02-26T22:02:48.000Z","created_by":"214","modified_on":"2025-02-26T22:02:48.000Z","modified_by":null,"deleted_on":null,"deleted_by":null,"id":"105","user_id":"247","organization_id":"17","user":{"created_on":"2025-02-26T22:02:48.000Z","id":"247","staff_id":null,"first_name":"Raymond","last_name":"Chukwukere","display_name":null,"description":null,"phone":null,"email":"raymond.chukwukere@novabank.ng","status":"active","last_login_date":"2025-03-06T17:59:49.000Z","roles":[{"name":"UAT Role","description":"The role of the first group of UAT testers."}]}},{"created_on":"2025-02-26T22:02:25.000Z","created_by":"214","modified_on":"2025-02-26T22:02:25.000Z","modified_by":null,"deleted_on":null,"deleted_by":null,"id":"104","user_id":"246","organization_id":"17","user":{"created_on":"2025-02-26T22:02:25.000Z","id":"246","staff_id":null,"first_name":"Akinyemi","last_name":"Sowunmi","display_name":null,"description":null,"phone":null,"email":"akinyemi.sowunmi@novabank.ng","status":"active","last_login_date":"2025-03-07T08:24:43.000Z","roles":[{"name":"UAT Role","description":"The role of the first group of UAT testers."}]}}]}}