{"status":true,"response":{"total":39,"page":1,"limit":10,"totalPages":4,"data":[{"created_on":"2025-03-09T15:04:24.000Z","created_by":"272","modified_on":"2025-03-09T15:04:24.000Z","modified_by":null,"deleted_on":null,"deleted_by":null,"id":"3196","uuid":"01957b6f-933a-76ab-9df6-06bdfd53d9e4","slug":"issue-status","name":"Issue Status","description":"Issue Status","meta":null,"parent":{"slug":"root"},"sub_definition_count":5},{"created_on":"2025-03-09T13:17:14.000Z","created_by":"272","modified_on":"2025-03-09T13:17:14.000Z","modified_by":null,"deleted_on":null,"deleted_by":null,"id":"3195","uuid":"01957b0d-766a-7329-bd87-5b0dfecd1b1e","slug":"issue-status","name":"Issue Status","description":"Issue Status","meta":null,"parent":{"slug":"root"},"sub_definition_count":5},{"created_on":"2025-02-26T14:55:38.000Z","created_by":"4","modified_on":"2025-02-26T14:55:38.000Z","modified_by":null,"deleted_on":null,"deleted_by":null,"id":"3190","uuid":"019542c1-99bf-7089-9fda-5c2f6cbde49a","slug":"report-categories","name":"Report Categories","description":"Report Categories","meta":null,"parent":{"slug":"root"},"sub_definition_count":1},{"created_on":"2025-02-26T09:33:01.000Z","created_by":"172","modified_on":"2025-02-26T09:33:01.000Z","modified_by":null,"deleted_on":null,"deleted_by":null,"id":"3186","uuid":"0195419a-3999-7598-b485-1c16ed3762fb","slug":"try","name":"try","description":"try","meta":null,"parent":{"slug":"root"},"sub_definition_count":1},{"created_on":"2025-02-25T05:40:47.000Z","created_by":"198","modified_on":"2025-02-26T09:19:03.000Z","modified_by":"172","deleted_on":null,"deleted_by":null,"id":"3183","uuid":"01953b9f-4002-72ce-8208-e193821d4127","slug":"issue-status","name":"Issue Status","description":"Issue Status","meta":null,"parent":{"slug":"root"},"sub_definition_count":5},{"created_on":"2025-02-25T04:28:06.000Z","created_by":"4","modified_on":"2025-02-25T04:28:06.000Z","modified_by":null,"deleted_on":null,"deleted_by":null,"id":"3181","uuid":"01953b5c-b50b-7194-a82d-3c84ae0a65d4","slug":"issue-status","name":"Issue Status","description":"Issue Status","meta":null,"parent":{"slug":"root"},"sub_definition_count":5},{"created_on":"2025-02-25T03:43:49.000Z","created_by":"4","modified_on":"2025-02-25T03:43:49.000Z","modified_by":null,"deleted_on":null,"deleted_by":null,"id":"3177","uuid":"01953b34-2940-747c-8fdc-4c628591aa70","slug":"issue-priority","name":"Issue Priority","description":"Issue Priority","meta":null,"parent":{"slug":"root"},"sub_definition_count":4},{"created_on":"2025-02-22T22:34:58.000Z","created_by":"188","modified_on":"2025-02-22T22:55:08.000Z","modified_by":"4","deleted_on":null,"deleted_by":null,"id":"3173","uuid":"01952fcc-b17c-72e3-9db5-df6ebb57dc1b","slug":"gender","name":"Gender","description":"This is a gender","meta":null,"parent":{"slug":"root"},"sub_definition_count":3},{"created_on":"2025-02-19T16:14:47.000Z","created_by":null,"modified_on":"2025-02-21T09:25:47.000Z","modified_by":"4","deleted_on":null,"deleted_by":null,"id":"3156","uuid":"9da4d82c-eedc-11ef-8d17-02420a0002af","slug":"issue-category","name":"Issue Category","description":"Define the different types of issues that can be raised on the system","meta":null,"parent":{"slug":"root"},"sub_definition_count":4},{"created_on":"2025-02-18T09:42:05.000Z","created_by":null,"modified_on":"2025-02-18T09:16:41.000Z","modified_by":null,"deleted_on":null,"deleted_by":null,"id":"3042","uuid":"992838aa-eddc-11ef-8d17-02420a0002af","slug":"digital-channels","name":"Digital Channels","description":"","meta":null,"parent":{"slug":"root"},"sub_definition_count":6}]}}