{"status":true,"response":{"data":[{"transaction_id":"SS0031881","part_transaction_serial_number":"   5","transaction_date":"2024-12-01T00:00:00.000Z","transaction_type":"T","reference_number":null,"svs_transaction_id":null,"customer_id":"4790","transaction_sub_type":"IC","part_transaction_type":"D","account_id":"NB5005760","value_date":"2024-12-01T00:00:00.000Z","transaction_amount":"139.4200","transaction_particular":"1600300879:Normal Int.Coll:For 30-11-2024","entry_user_id":"CE148","entry_date":"2024-11-29T00:00:00.000Z","currency_code":null,"transaction_remarks":"Interest run","bank_id":"01","gl_sub_head_code":"15005","transaction_currency_code":"USD","solution_id":"001","foreign_transaction_amount":"0.0000","rate_code":null,"rate":"1.0000000000","navigation_flag":"","reference_amount":"139.4200","branch_code":null,"posted_flag":"Y","print_advice_indicator":"","posted_date":"2024-11-29T00:00:00.000Z","module_id":null,"last_changed_user_id":"SYSTEM","last_changed_time":"2024-11-29T00:00:00.000Z","record_created_user_id":"CE148","record_created_time":"2024-11-29T00:00:00.000Z","transaction_sequence_count":2,"user_defined_module_key":null,"reversal_date":null,"reversal_status":"","used_sanction_limit":0,"used_pool_amount":0,"account_balance":0,"load_date":"2025-01-02T17:50:17.000Z"},{"transaction_id":"SS0031881","part_transaction_serial_number":"  41","transaction_date":"2024-12-01T00:00:00.000Z","transaction_type":"T","reference_number":null,"svs_transaction_id":null,"customer_id":"4790","transaction_sub_type":"IC","part_transaction_type":"D","account_id":"NB5007838","value_date":"2024-12-01T00:00:00.000Z","transaction_amount":"147.1300","transaction_particular":"1600303449:Normal Int.Coll:For 30-11-2024","entry_user_id":"CE148","entry_date":"2024-11-29T00:00:00.000Z","currency_code":null,"transaction_remarks":"Interest run","bank_id":"01","gl_sub_head_code":"15005","transaction_currency_code":"USD","solution_id":"001","foreign_transaction_amount":"0.0000","rate_code":null,"rate":"1.0000000000","navigation_flag":"","reference_amount":"147.1300","branch_code":null,"posted_flag":"Y","print_advice_indicator":"","posted_date":"2024-11-29T00:00:00.000Z","module_id":null,"last_changed_user_id":"SYSTEM","last_changed_time":"2024-11-29T00:00:00.000Z","record_created_user_id":"CE148","record_created_time":"2024-11-29T00:00:00.000Z","transaction_sequence_count":2,"user_defined_module_key":null,"reversal_date":null,"reversal_status":"","used_sanction_limit":0,"used_pool_amount":0,"account_balance":0,"load_date":"2025-01-02T17:50:26.000Z"},{"transaction_id":"SS0031881","part_transaction_serial_number":"  43","transaction_date":"2024-12-01T00:00:00.000Z","transaction_type":"T","reference_number":null,"svs_transaction_id":null,"customer_id":"4790","transaction_sub_type":"IC","part_transaction_type":"D","account_id":"NB5007839","value_date":"2024-12-01T00:00:00.000Z","transaction_amount":"73.8900","transaction_particular":"1600303456:Normal Int.Coll:For 30-11-2024","entry_user_id":"CE148","entry_date":"2024-11-29T00:00:00.000Z","currency_code":null,"transaction_remarks":"Interest run","bank_id":"01","gl_sub_head_code":"15005","transaction_currency_code":"USD","solution_id":"001","foreign_transaction_amount":"0.0000","rate_code":null,"rate":"1.0000000000","navigation_flag":"","reference_amount":"73.8900","branch_code":null,"posted_flag":"Y","print_advice_indicator":"","posted_date":"2024-11-29T00:00:00.000Z","module_id":null,"last_changed_user_id":"SYSTEM","last_changed_time":"2024-11-29T00:00:00.000Z","record_created_user_id":"CE148","record_created_time":"2024-11-29T00:00:00.000Z","transaction_sequence_count":2,"user_defined_module_key":null,"reversal_date":null,"reversal_status":"","used_sanction_limit":0,"used_pool_amount":0,"account_balance":0,"load_date":"2025-01-02T17:50:26.000Z"},{"transaction_id":"SS0031881","part_transaction_serial_number":"  45","transaction_date":"2024-12-01T00:00:00.000Z","transaction_type":"T","reference_number":null,"svs_transaction_id":null,"customer_id":"4790","transaction_sub_type":"IC","part_transaction_type":"D","account_id":"NB5007840","value_date":"2024-12-01T00:00:00.000Z","transaction_amount":"38.4900","transaction_particular":"1600303463:Normal Int.Coll:For 30-11-2024","entry_user_id":"CE148","entry_date":"2024-11-29T00:00:00.000Z","currency_code":null,"transaction_remarks":"Interest run","bank_id":"01","gl_sub_head_code":"15005","transaction_currency_code":"USD","solution_id":"001","foreign_transaction_amount":"0.0000","rate_code":null,"rate":"1.0000000000","navigation_flag":"","reference_amount":"38.4900","branch_code":null,"posted_flag":"Y","print_advice_indicator":"","posted_date":"2024-11-29T00:00:00.000Z","module_id":null,"last_changed_user_id":"SYSTEM","last_changed_time":"2024-11-29T00:00:00.000Z","record_created_user_id":"CE148","record_created_time":"2024-11-29T00:00:00.000Z","transaction_sequence_count":2,"user_defined_module_key":null,"reversal_date":null,"reversal_status":"","used_sanction_limit":0,"used_pool_amount":0,"account_balance":0,"load_date":"2025-01-02T17:50:27.000Z"},{"transaction_id":"SS0031881","part_transaction_serial_number":"  47","transaction_date":"2024-12-01T00:00:00.000Z","transaction_type":"T","reference_number":null,"svs_transaction_id":null,"customer_id":"4790","transaction_sub_type":"IC","part_transaction_type":"D","account_id":"NB5007841","value_date":"2024-12-01T00:00:00.000Z","transaction_amount":"42.3900","transaction_particular":"1600303470:Normal Int.Coll:For 30-11-2024","entry_user_id":"CE148","entry_date":"2024-11-29T00:00:00.000Z","currency_code":null,"transaction_remarks":"Interest run","bank_id":"01","gl_sub_head_code":"15005","transaction_currency_code":"USD","solution_id":"001","foreign_transaction_amount":"0.0000","rate_code":null,"rate":"1.0000000000","navigation_flag":"","reference_amount":"42.3900","branch_code":null,"posted_flag":"Y","print_advice_indicator":"","posted_date":"2024-11-29T00:00:00.000Z","module_id":null,"last_changed_user_id":"SYSTEM","last_changed_time":"2024-11-29T00:00:00.000Z","record_created_user_id":"CE148","record_created_time":"2024-11-29T00:00:00.000Z","transaction_sequence_count":2,"user_defined_module_key":null,"reversal_date":null,"reversal_status":"","used_sanction_limit":0,"used_pool_amount":0,"account_balance":0,"load_date":"2025-01-02T17:50:27.000Z"},{"transaction_id":"SS0031881","part_transaction_serial_number":"  49","transaction_date":"2024-12-01T00:00:00.000Z","transaction_type":"T","reference_number":null,"svs_transaction_id":null,"customer_id":"4790","transaction_sub_type":"IC","part_transaction_type":"D","account_id":"NB5007842","value_date":"2024-12-01T00:00:00.000Z","transaction_amount":"43.6200","transaction_particular":"1600303487:Normal Int.Coll:For 30-11-2024","entry_user_id":"CE148","entry_date":"2024-11-29T00:00:00.000Z","currency_code":null,"transaction_remarks":"Interest run","bank_id":"01","gl_sub_head_code":"15005","transaction_currency_code":"USD","solution_id":"001","foreign_transaction_amount":"0.0000","rate_code":null,"rate":"1.0000000000","navigation_flag":"","reference_amount":"43.6200","branch_code":null,"posted_flag":"Y","print_advice_indicator":"","posted_date":"2024-11-29T00:00:00.000Z","module_id":null,"last_changed_user_id":"SYSTEM","last_changed_time":"2024-11-29T00:00:00.000Z","record_created_user_id":"CE148","record_created_time":"2024-11-29T00:00:00.000Z","transaction_sequence_count":2,"user_defined_module_key":null,"reversal_date":null,"reversal_status":"","used_sanction_limit":0,"used_pool_amount":0,"account_balance":0,"load_date":"2025-01-02T17:50:28.000Z"},{"transaction_id":"SS0031881","part_transaction_serial_number":"  51","transaction_date":"2024-12-01T00:00:00.000Z","transaction_type":"T","reference_number":null,"svs_transaction_id":null,"customer_id":"4790","transaction_sub_type":"IC","part_transaction_type":"D","account_id":"NB5007843","value_date":"2024-12-01T00:00:00.000Z","transaction_amount":"43.0200","transaction_particular":"1600303494:Normal Int.Coll:For 30-11-2024","entry_user_id":"CE148","entry_date":"2024-11-29T00:00:00.000Z","currency_code":null,"transaction_remarks":"Interest run","bank_id":"01","gl_sub_head_code":"15005","transaction_currency_code":"USD","solution_id":"001","foreign_transaction_amount":"0.0000","rate_code":null,"rate":"1.0000000000","navigation_flag":"","reference_amount":"43.0200","branch_code":null,"posted_flag":"Y","print_advice_indicator":"","posted_date":"2024-11-29T00:00:00.000Z","module_id":null,"last_changed_user_id":"SYSTEM","last_changed_time":"2024-11-29T00:00:00.000Z","record_created_user_id":"CE148","record_created_time":"2024-11-29T00:00:00.000Z","transaction_sequence_count":2,"user_defined_module_key":null,"reversal_date":null,"reversal_status":"","used_sanction_limit":0,"used_pool_amount":0,"account_balance":0,"load_date":"2025-01-02T17:50:28.000Z"},{"transaction_id":"SS0031881","part_transaction_serial_number":"  53","transaction_date":"2024-12-01T00:00:00.000Z","transaction_type":"T","reference_number":null,"svs_transaction_id":null,"customer_id":"4790","transaction_sub_type":"IC","part_transaction_type":"D","account_id":"NB5007844","value_date":"2024-12-01T00:00:00.000Z","transaction_amount":"42.5500","transaction_particular":"1600303508:Normal Int.Coll:For 30-11-2024","entry_user_id":"CE148","entry_date":"2024-11-29T00:00:00.000Z","currency_code":null,"transaction_remarks":"Interest run","bank_id":"01","gl_sub_head_code":"15005","transaction_currency_code":"USD","solution_id":"001","foreign_transaction_amount":"0.0000","rate_code":null,"rate":"1.0000000000","navigation_flag":"","reference_amount":"42.5500","branch_code":null,"posted_flag":"Y","print_advice_indicator":"","posted_date":"2024-11-29T00:00:00.000Z","module_id":null,"last_changed_user_id":"SYSTEM","last_changed_time":"2024-11-29T00:00:00.000Z","record_created_user_id":"CE148","record_created_time":"2024-11-29T00:00:00.000Z","transaction_sequence_count":2,"user_defined_module_key":null,"reversal_date":null,"reversal_status":"","used_sanction_limit":0,"used_pool_amount":0,"account_balance":0,"load_date":"2025-01-02T17:50:28.000Z"},{"transaction_id":"SS0031881","part_transaction_serial_number":"  55","transaction_date":"2024-12-01T00:00:00.000Z","transaction_type":"T","reference_number":null,"svs_transaction_id":null,"customer_id":"4790","transaction_sub_type":"IC","part_transaction_type":"D","account_id":"NB5007845","value_date":"2024-12-01T00:00:00.000Z","transaction_amount":"4.7500","transaction_particular":"1600303515:Normal Int.Coll:For 30-11-2024","entry_user_id":"CE148","entry_date":"2024-11-29T00:00:00.000Z","currency_code":null,"transaction_remarks":"Interest run","bank_id":"01","gl_sub_head_code":"15005","transaction_currency_code":"USD","solution_id":"001","foreign_transaction_amount":"0.0000","rate_code":null,"rate":"1.0000000000","navigation_flag":"","reference_amount":"4.7500","branch_code":null,"posted_flag":"Y","print_advice_indicator":"","posted_date":"2024-11-29T00:00:00.000Z","module_id":null,"last_changed_user_id":"SYSTEM","last_changed_time":"2024-11-29T00:00:00.000Z","record_created_user_id":"CE148","record_created_time":"2024-11-29T00:00:00.000Z","transaction_sequence_count":2,"user_defined_module_key":null,"reversal_date":null,"reversal_status":"","used_sanction_limit":0,"used_pool_amount":0,"account_balance":0,"load_date":"2025-01-02T17:50:29.000Z"},{"transaction_id":"SS0031881","part_transaction_serial_number":"  57","transaction_date":"2024-12-01T00:00:00.000Z","transaction_type":"T","reference_number":null,"svs_transaction_id":null,"customer_id":"4790","transaction_sub_type":"IC","part_transaction_type":"D","account_id":"NB5007846","value_date":"2024-12-01T00:00:00.000Z","transaction_amount":"10.6400","transaction_particular":"1600303522:Normal Int.Coll:For 30-11-2024","entry_user_id":"CE148","entry_date":"2024-11-29T00:00:00.000Z","currency_code":null,"transaction_remarks":"Interest run","bank_id":"01","gl_sub_head_code":"15005","transaction_currency_code":"USD","solution_id":"001","foreign_transaction_amount":"0.0000","rate_code":null,"rate":"1.0000000000","navigation_flag":"","reference_amount":"10.6400","branch_code":null,"posted_flag":"Y","print_advice_indicator":"","posted_date":"2024-11-29T00:00:00.000Z","module_id":null,"last_changed_user_id":"SYSTEM","last_changed_time":"2024-11-29T00:00:00.000Z","record_created_user_id":"CE148","record_created_time":"2024-11-29T00:00:00.000Z","transaction_sequence_count":2,"user_defined_module_key":null,"reversal_date":null,"reversal_status":"","used_sanction_limit":0,"used_pool_amount":0,"account_balance":0,"load_date":"2025-01-02T17:50:29.000Z"}],"total":753,"page":1,"limit":10,"totalPages":76}}