{"status":true,"response":{"total":4935,"page":1,"limit":10,"totalPages":494,"data":[{"created_on":"2025-02-18T09:12:36.000Z","created_by":"181","modified_on":"2025-02-18T09:12:36.000Z","modified_by":null,"deleted_on":null,"deleted_by":null,"id":"7294","event_id":"8486","entity_type":"ORGANIZATIONS","entity_id":"17","description":"Destiny caesar listed ORGANIZATIONS with IDs 53, 52, 51, 50, 49, 48, 47, 43, 42, 31","ip_address":"102.220.173.36","location":"Lagos","meta":null,"event":{"created_on":"2025-02-18T09:12:36.000Z","created_by":"181","modified_on":"2025-02-18T09:12:36.000Z","modified_by":null,"deleted_on":null,"deleted_by":null,"id":"8486","name":"READ_ORGANIZATIONS","description":"Destiny caesar accessed ORGANIZATIONS to READ","type":"READ_ORGANIZATIONS"},"creator":{"first_name":"Destiny","last_name":"caesar","email":"destinyerhabor6+dev@gmail.com","status":"inactive","id":"181","display_name":null}},{"created_on":"2025-02-18T09:12:36.000Z","created_by":"181","modified_on":"2025-02-18T09:12:36.000Z","modified_by":null,"deleted_on":null,"deleted_by":null,"id":"7295","event_id":"8485","entity_type":"ORGANIZATIONS","entity_id":null,"description":"Destiny caesar listed ORGANIZATIONS with IDs 17, 20, 21, 22, 24","ip_address":"102.220.173.36","location":"Lagos","meta":null,"event":{"created_on":"2025-02-18T09:12:36.000Z","created_by":"181","modified_on":"2025-02-18T09:12:36.000Z","modified_by":null,"deleted_on":null,"deleted_by":null,"id":"8485","name":"READ_ORGANIZATIONS","description":"Destiny caesar accessed ORGANIZATIONS to READ","type":"READ_ORGANIZATIONS"},"creator":{"first_name":"Destiny","last_name":"caesar","email":"destinyerhabor6+dev@gmail.com","status":"inactive","id":"181","display_name":null}},{"created_on":"2025-02-18T09:10:29.000Z","created_by":"181","modified_on":"2025-02-18T09:10:29.000Z","modified_by":null,"deleted_on":null,"deleted_by":null,"id":"7292","event_id":"8483","entity_type":"ORGANIZATIONS","entity_id":"17","description":"Destiny caesar listed ORGANIZATIONS with IDs 53, 52, 51, 50, 49, 48, 47, 43, 42, 31","ip_address":"102.220.173.36","location":"Lagos","meta":null,"event":{"created_on":"2025-02-18T09:10:29.000Z","created_by":"181","modified_on":"2025-02-18T09:10:29.000Z","modified_by":null,"deleted_on":null,"deleted_by":null,"id":"8483","name":"READ_ORGANIZATIONS","description":"Destiny caesar accessed ORGANIZATIONS to READ","type":"READ_ORGANIZATIONS"},"creator":{"first_name":"Destiny","last_name":"caesar","email":"destinyerhabor6+dev@gmail.com","status":"inactive","id":"181","display_name":null}},{"created_on":"2025-02-18T09:10:29.000Z","created_by":"181","modified_on":"2025-02-18T09:10:29.000Z","modified_by":null,"deleted_on":null,"deleted_by":null,"id":"7293","event_id":"8484","entity_type":"ORGANIZATIONS","entity_id":null,"description":"Destiny caesar listed ORGANIZATIONS with IDs 17, 20, 21, 22, 24","ip_address":"102.220.173.36","location":"Lagos","meta":null,"event":{"created_on":"2025-02-18T09:10:29.000Z","created_by":"181","modified_on":"2025-02-18T09:10:29.000Z","modified_by":null,"deleted_on":null,"deleted_by":null,"id":"8484","name":"READ_ORGANIZATIONS","description":"Destiny caesar accessed ORGANIZATIONS to READ","type":"READ_ORGANIZATIONS"},"creator":{"first_name":"Destiny","last_name":"caesar","email":"destinyerhabor6+dev@gmail.com","status":"inactive","id":"181","display_name":null}},{"created_on":"2025-02-18T09:03:55.000Z","created_by":"181","modified_on":"2025-02-18T09:03:55.000Z","modified_by":null,"deleted_on":null,"deleted_by":null,"id":"7291","event_id":"8482","entity_type":"ORGANIZATIONS","entity_id":"17","description":"Destiny caesar listed ORGANIZATIONS with IDs 53, 52, 51, 50, 49, 48, 47, 43, 42, 31","ip_address":"102.220.173.36","location":"Lagos","meta":null,"event":{"created_on":"2025-02-18T09:03:55.000Z","created_by":"181","modified_on":"2025-02-18T09:03:55.000Z","modified_by":null,"deleted_on":null,"deleted_by":null,"id":"8482","name":"READ_ORGANIZATIONS","description":"Destiny caesar accessed ORGANIZATIONS to READ","type":"READ_ORGANIZATIONS"},"creator":{"first_name":"Destiny","last_name":"caesar","email":"destinyerhabor6+dev@gmail.com","status":"inactive","id":"181","display_name":null}},{"created_on":"2025-02-18T09:03:51.000Z","created_by":"181","modified_on":"2025-02-18T09:03:51.000Z","modified_by":null,"deleted_on":null,"deleted_by":null,"id":"7289","event_id":"8480","entity_type":"INVITES","entity_id":null,"description":"Destiny caesar created INVITES with IDs 189","ip_address":"102.220.173.36","location":"Lagos","meta":null,"event":{"created_on":"2025-02-18T09:03:51.000Z","created_by":"181","modified_on":"2025-02-18T09:03:51.000Z","modified_by":null,"deleted_on":null,"deleted_by":null,"id":"8480","name":"CREATE_INVITES","description":"Destiny caesar accessed INVITES to CREATE","type":"CREATE_INVITES"},"creator":{"first_name":"Destiny","last_name":"caesar","email":"destinyerhabor6+dev@gmail.com","status":"inactive","id":"181","display_name":null}},{"created_on":"2025-02-18T09:03:51.000Z","created_by":"181","modified_on":"2025-02-18T09:03:51.000Z","modified_by":null,"deleted_on":null,"deleted_by":null,"id":"7290","event_id":"8481","entity_type":"USERS","entity_id":null,"description":"Destiny caesar listed USERS with IDs 189, 188, 187, 186, 185, 184, 183, 182, 180, 179, 178, 177, 176, 175, 174, 173, 172, 171, 170, 169, 69, 56, 68, 67, 66, 65, 64, 63, 62, 61, 60, 59, 58, 57, 55, 70, 71, 72, 73, 74, 75, 76, 77, 78, 79, 80, 81, 82, 83, 84, 17, 29, 28, 27, 26, 25, 24, 23, 22, 21, 20, 19, 18, 30, 16, 15, 14, 13, 12, 11, 10, 9, 8, 7, 6, 42, 54, 53, 52, 51, 50, 49, 48, 47, 46, 45, 44, 43, 5, 41, 40, 39, 38, 37, 36, 35, 34, 33, 32, 31","ip_address":"102.220.173.36","location":"Lagos","meta":null,"event":{"created_on":"2025-02-18T09:03:51.000Z","created_by":"181","modified_on":"2025-02-18T09:03:51.000Z","modified_by":null,"deleted_on":null,"deleted_by":null,"id":"8481","name":"READ_USERS","description":"Destiny caesar accessed USERS to READ","type":"READ_USERS"},"creator":{"first_name":"Destiny","last_name":"caesar","email":"destinyerhabor6+dev@gmail.com","status":"inactive","id":"181","display_name":null}},{"created_on":"2025-02-18T09:03:47.000Z","created_by":"181","modified_on":"2025-02-18T09:03:47.000Z","modified_by":null,"deleted_on":null,"deleted_by":null,"id":"7288","event_id":"8479","entity_type":"USERS","entity_id":null,"description":"Destiny caesar listed USERS with IDs 188, 187, 186, 185, 184, 183, 182, 180, 179, 178, 177, 176, 175, 174, 173, 172, 171, 170, 169, 70, 56, 69, 68, 67, 66, 65, 64, 63, 62, 61, 60, 59, 58, 57, 55, 71, 72, 73, 74, 75, 76, 77, 78, 79, 80, 81, 82, 83, 84, 85, 17, 29, 28, 27, 26, 25, 24, 23, 22, 21, 20, 19, 18, 30, 16, 15, 14, 13, 12, 11, 10, 9, 8, 7, 6, 42, 54, 53, 52, 51, 50, 49, 48, 47, 46, 45, 44, 43, 5, 41, 40, 39, 38, 37, 36, 35, 34, 33, 32, 31","ip_address":"102.220.173.36","location":"Lagos","meta":null,"event":{"created_on":"2025-02-18T09:03:47.000Z","created_by":"181","modified_on":"2025-02-18T09:03:47.000Z","modified_by":null,"deleted_on":null,"deleted_by":null,"id":"8479","name":"READ_USERS","description":"Destiny caesar accessed USERS to READ","type":"READ_USERS"},"creator":{"first_name":"Destiny","last_name":"caesar","email":"destinyerhabor6+dev@gmail.com","status":"inactive","id":"181","display_name":null}},{"created_on":"2025-02-18T09:03:39.000Z","created_by":"181","modified_on":"2025-02-18T09:03:39.000Z","modified_by":null,"deleted_on":null,"deleted_by":null,"id":"7286","event_id":"8477","entity_type":"ROLES","entity_id":null,"description":"Destiny caesar listed ROLES with IDs 16, 15, 14, 13, 12, 10, 6, 5, 3, 2, 1","ip_address":"102.220.173.36","location":"Lagos","meta":null,"event":{"created_on":"2025-02-18T09:03:39.000Z","created_by":"181","modified_on":"2025-02-18T09:03:39.000Z","modified_by":null,"deleted_on":null,"deleted_by":null,"id":"8477","name":"READ_ROLES","description":"Destiny caesar accessed ROLES to READ","type":"READ_ROLES"},"creator":{"first_name":"Destiny","last_name":"caesar","email":"destinyerhabor6+dev@gmail.com","status":"inactive","id":"181","display_name":null}},{"created_on":"2025-02-18T09:03:39.000Z","created_by":"181","modified_on":"2025-02-18T09:03:39.000Z","modified_by":null,"deleted_on":null,"deleted_by":null,"id":"7287","event_id":"8478","entity_type":"USERS","entity_id":null,"description":"Destiny caesar listed USERS with IDs 188, 187, 186, 185, 184, 183, 182, 180, 179, 178, 177, 176, 175, 174, 173, 172, 171, 170, 169, 70, 56, 69, 68, 67, 66, 65, 64, 63, 62, 61, 60, 59, 58, 57, 55, 71, 72, 73, 74, 75, 76, 77, 78, 79, 80, 81, 82, 83, 84, 85, 17, 29, 28, 27, 26, 25, 24, 23, 22, 21, 20, 19, 18, 30, 16, 15, 14, 13, 12, 11, 10, 9, 8, 7, 6, 42, 54, 53, 52, 51, 50, 49, 48, 47, 46, 45, 44, 43, 5, 41, 40, 39, 38, 37, 36, 35, 34, 33, 32, 31","ip_address":"102.220.173.36","location":"Lagos","meta":null,"event":{"created_on":"2025-02-18T09:03:39.000Z","created_by":"181","modified_on":"2025-02-18T09:03:39.000Z","modified_by":null,"deleted_on":null,"deleted_by":null,"id":"8478","name":"READ_USERS","description":"Destiny caesar accessed USERS to READ","type":"READ_USERS"},"creator":{"first_name":"Destiny","last_name":"caesar","email":"destinyerhabor6+dev@gmail.com","status":"inactive","id":"181","display_name":null}}]}}