{"status":true,"response":{"total":59,"page":1,"limit":10,"totalPages":6,"data":[{"created_on":"2025-05-25T04:55:29.000Z","modified_on":"2025-05-25T04:55:29.000Z","id":"3237","slug":"allowed-email-domains","name":"Allowed Email Domains","description":"Allowed Email Domains for user registration","meta":null,"parent":{"slug":"root"},"creator":{"first_name":"Deleted","last_name":"User","email":"Deleted","status":"inactive"},"sub_definition_count":1},{"created_on":"2025-05-19T21:31:50.000Z","modified_on":"2025-05-19T21:31:50.000Z","id":"3235","slug":"dashboard-definition","name":"Dashboard Definition","description":"Dashboard definitions for what End-users see when they first log in","meta":null,"parent":{"slug":"root"},"creator":{"first_name":"Adedeji","last_name":"Olowe","email":"adedeji@lendsqr.com","status":"inactive","id":"253","display_name":null},"sub_definition_count":0},{"created_on":"2025-04-20T14:31:07.000Z","modified_on":"2025-04-20T14:31:07.000Z","id":"3227","slug":"budget-category","name":"Budget Category","description":"Budget Category","meta":null,"parent":{"slug":"root"},"creator":{"first_name":"Deleted","last_name":"User","email":"Deleted","status":"inactive"},"sub_definition_count":4},{"created_on":"2025-04-03T11:48:25.000Z","modified_on":"2025-04-03T11:48:25.000Z","id":"3223","slug":"definition-slugww","name":"definition-namdde","description":"definition description","meta":{"bulk_upload_id":"17"},"parent":{"slug":"root"},"creator":{"first_name":"Chris","last_name":"Esiv","email":"chris@yopmail.com","status":"inactive","id":"172","display_name":null},"sub_definition_count":0},{"created_on":"2025-04-03T11:45:39.000Z","modified_on":"2025-04-03T11:45:39.000Z","id":"3220","slug":"definition-slugww","name":"definition-namdde","description":"definition description","meta":{"bulk_upload_id":"16"},"parent":{"slug":"root"},"creator":{"first_name":"Chris","last_name":"Esiv","email":"chris@yopmail.com","status":"inactive","id":"172","display_name":null},"sub_definition_count":0},{"created_on":"2025-04-03T09:23:02.000Z","modified_on":"2025-04-03T09:23:02.000Z","id":"3218","slug":"definition-slugd","name":"definition-name2","description":"definition description","meta":{"bulk_upload_id":"15"},"parent":{"slug":"root"},"creator":{"first_name":"Chris","last_name":"Esiv","email":"chris@yopmail.com","status":"inactive","id":"172","display_name":null},"sub_definition_count":0},{"created_on":"2025-03-26T18:45:33.000Z","modified_on":"2025-03-26T18:45:33.000Z","id":"3213","slug":"issue-status","name":"Issue Status","description":"Issue Status","meta":null,"parent":{"slug":"root"},"creator":{"first_name":"Ayo","last_name":"Jide","email":"test_superadmin_staging_01@yopmail.com","status":"inactive","id":"272","display_name":null},"sub_definition_count":3},{"created_on":"2025-03-26T11:17:29.000Z","modified_on":"2025-03-26T11:17:29.000Z","id":"3212","slug":"issue-status","name":"Issue Status","description":"Issue Status","meta":null,"parent":{"slug":"root"},"creator":{"first_name":"Ayo","last_name":"Jide","email":"test_superadmin_staging_01@yopmail.com","status":"inactive","id":"272","display_name":null},"sub_definition_count":3},{"created_on":"2025-03-22T23:50:05.000Z","modified_on":"2025-03-25T06:40:26.000Z","id":"3211","slug":"issue-status","name":"Issue Status","description":"Issue Status","meta":null,"parent":{"slug":"root"},"creator":{"first_name":"Ayo","last_name":"Jide","email":"test_superadmin_staging_01@yopmail.com","status":"inactive","id":"272","display_name":null},"sub_definition_count":3},{"created_on":"2025-03-22T22:19:34.000Z","modified_on":"2025-03-22T22:19:34.000Z","id":"3210","slug":"issue-status","name":"Issue Status","description":"Issue Status","meta":null,"parent":{"slug":"root"},"creator":{"first_name":"Ayo","last_name":"Jide","email":"test_superadmin_staging_01@yopmail.com","status":"inactive","id":"272","display_name":null},"sub_definition_count":3}]}}