{"status":true,"response":{"total":11,"page":1,"limit":10,"totalPages":2,"data":[{"created_on":"2025-02-15T22:02:06.000Z","created_by":"170","modified_on":"2025-02-15T22:02:06.000Z","modified_by":null,"deleted_on":null,"deleted_by":null,"id":"32","user_id":"181","organization_id":"17","user":{"created_on":"2025-02-15T22:02:06.000Z","id":"181","staff_id":null,"first_name":"Destiny","last_name":"caesar","display_name":null,"description":null,"photo":null,"phone":null,"email":"destinyerhabor6+dev@gmail.com","status":"active","last_login_date":"2025-02-16T22:37:38.000Z","roles":[{"name":"TestRole","description":"Posting Access"},{"name":"customerRole","description":"Access"},{"name":"Super Admin","description":"Super Admin role"},{"name":"Staff","description":"Staff role"},{"name":"Administrator","description":"Invite Access"}]}},{"created_on":"2025-02-15T21:59:16.000Z","created_by":"170","modified_on":"2025-02-15T21:59:16.000Z","modified_by":null,"deleted_on":null,"deleted_by":null,"id":"31","user_id":"180","organization_id":"17","user":{"created_on":"2025-02-15T21:59:15.000Z","id":"180","staff_id":null,"first_name":"","last_name":"","display_name":null,"description":null,"photo":null,"phone":null,"email":"jolie@yopmail.com","status":"pending","last_login_date":null,"roles":[{"name":"Staff","description":"Staff role"}]}},{"created_on":"2025-02-15T21:04:51.000Z","created_by":"170","modified_on":"2025-02-15T21:04:51.000Z","modified_by":null,"deleted_on":null,"deleted_by":null,"id":"30","user_id":"179","organization_id":"17","user":{"created_on":"2025-02-15T21:04:51.000Z","id":"179","staff_id":null,"first_name":"","last_name":"","display_name":null,"description":null,"photo":null,"phone":null,"email":"destinyerhabor6+inf1@gmail.com","status":"pending","last_login_date":null,"roles":[{"name":"Super Admin","description":"Super Admin role"}]}},{"created_on":"2025-02-15T21:04:18.000Z","created_by":"170","modified_on":"2025-02-15T21:04:18.000Z","modified_by":null,"deleted_on":null,"deleted_by":null,"id":"29","user_id":"178","organization_id":"17","user":{"created_on":"2025-02-15T21:04:18.000Z","id":"178","staff_id":null,"first_name":"","last_name":"","display_name":null,"description":null,"photo":null,"phone":null,"email":"destinyerhabor6+infopool@gmail.com","status":"pending","last_login_date":null,"roles":[{"name":"Super Admin","description":"Super Admin role"}]}},{"created_on":"2025-02-15T21:03:04.000Z","created_by":"170","modified_on":"2025-02-15T21:03:04.000Z","modified_by":null,"deleted_on":null,"deleted_by":null,"id":"28","user_id":"177","organization_id":"17","user":{"created_on":"2025-02-15T21:03:04.000Z","id":"177","staff_id":null,"first_name":"","last_name":"","display_name":null,"description":null,"photo":null,"phone":null,"email":"destiny+12@gmail.com","status":"pending","last_login_date":null,"roles":[{"name":"Super Admin","description":"Super Admin role"}]}},{"created_on":"2025-02-15T20:46:16.000Z","created_by":"170","modified_on":"2025-02-15T20:46:16.000Z","modified_by":null,"deleted_on":null,"deleted_by":null,"id":"27","user_id":"176","organization_id":"17","user":{"created_on":"2025-02-15T20:46:14.000Z","id":"176","staff_id":null,"first_name":"","last_name":"","display_name":null,"description":null,"photo":null,"phone":null,"email":"jabari@yopmail.com","status":"pending","last_login_date":null,"roles":[{"name":"Staff","description":"Staff role"}]}},{"created_on":"2025-02-15T20:43:26.000Z","created_by":"170","modified_on":"2025-02-15T20:43:26.000Z","modified_by":null,"deleted_on":null,"deleted_by":null,"id":"26","user_id":"175","organization_id":"17","user":{"created_on":"2025-02-15T11:57:59.000Z","id":"175","staff_id":null,"first_name":"","last_name":"","display_name":null,"description":null,"photo":null,"phone":null,"email":"destiny+2@yopmail.com","status":"pending","last_login_date":null,"roles":[]}},{"created_on":"2025-02-13T05:19:19.000Z","created_by":"170","modified_on":"2025-02-13T05:19:19.000Z","modified_by":null,"deleted_on":null,"deleted_by":null,"id":"25","user_id":"172","organization_id":"17","user":{"created_on":"2025-02-13T05:19:19.000Z","id":"172","staff_id":null,"first_name":"Chris","last_name":"Esiv","display_name":null,"description":null,"photo":null,"phone":"+2349057362451","email":"chris@yopmail.com","status":"active","last_login_date":"2025-02-17T07:27:56.000Z","roles":[{"name":"Super Admin","description":"Super Admin role"}]}},{"created_on":"2025-02-12T16:46:29.000Z","created_by":"4","modified_on":"2025-02-12T16:46:29.000Z","modified_by":null,"deleted_on":null,"deleted_by":null,"id":"24","user_id":"171","organization_id":"17","user":{"created_on":"2025-02-12T16:46:29.000Z","id":"171","staff_id":null,"first_name":"Favour","last_name":"Desent","display_name":null,"description":null,"photo":null,"phone":null,"email":"favouradministrator@yopmail.com","status":"active","last_login_date":"2025-02-14T16:05:41.000Z","roles":[{"name":"Administrator","description":"Invite Access"}]}},{"created_on":"2025-02-12T16:28:48.000Z","created_by":"4","modified_on":"2025-02-12T16:28:48.000Z","modified_by":null,"deleted_on":null,"deleted_by":null,"id":"23","user_id":"170","organization_id":"17","user":{"created_on":"2025-02-12T16:28:48.000Z","id":"170","staff_id":null,"first_name":"Udeme","last_name":"Ben","display_name":null,"description":null,"photo":null,"phone":"+2348171111110","email":"Udeme@yopmail.com","status":"active","last_login_date":"2025-02-16T22:20:07.000Z","roles":[{"name":"Super Admin","description":"Super Admin role"}]}}]}}