{"status":true,"response":{"total":11,"page":1,"limit":10,"totalPages":2,"data":[{"created_on":"2025-02-12T16:22:05.000Z","created_by":"4","modified_on":"2025-02-12T16:22:05.000Z","modified_by":null,"deleted_on":null,"deleted_by":null,"id":"16","uuid":"0194faf7-b4b7-710f-b070-1d565a580bb2","name":"Administrator","description":"Invite Access","type":null,"meta":{},"user_count":"1","organization_count":"0","permissions":[{"module":"INVITES","can_create":true,"can_delete":true,"can_list":false,"can_read":true,"can_update":true}]},{"created_on":"2025-02-10T17:33:30.000Z","created_by":null,"modified_on":"2025-02-10T17:33:30.000Z","modified_by":null,"deleted_on":null,"deleted_by":null,"id":"15","uuid":"0194f0ec-5ffa-75b9-bbb9-83b14a825c96","name":"Staff","description":"Staff role","type":"user","meta":null,"user_count":"1","organization_count":"0","permissions":[{"module":"CUSTOMERS","can_create":true,"can_delete":true,"can_list":true,"can_read":true,"can_update":true},{"module":"EVENTS","can_create":true,"can_delete":true,"can_list":true,"can_read":true,"can_update":true},{"module":"AUDIT_TRAILS","can_create":true,"can_delete":true,"can_list":true,"can_read":true,"can_update":true},{"module":"ISSUES","can_create":true,"can_delete":true,"can_list":true,"can_read":true,"can_update":true},{"module":"ACCOUNTS","can_create":true,"can_delete":true,"can_list":true,"can_read":true,"can_update":true},{"module":"PROFILE","can_create":true,"can_delete":true,"can_list":true,"can_read":true,"can_update":true}]},{"created_on":"2025-02-10T17:33:19.000Z","created_by":null,"modified_on":"2025-02-10T17:33:19.000Z","modified_by":null,"deleted_on":null,"deleted_by":null,"id":"14","uuid":"0194f0ec-33a7-7450-a91d-1cc62e9e4ca5","name":"Super Admin","description":"Super Admin role","type":"user","meta":null,"user_count":"1","organization_count":"0","permissions":[{"module":"INVITES","can_create":true,"can_delete":true,"can_list":true,"can_read":true,"can_update":true},{"module":"USERS","can_create":true,"can_delete":true,"can_list":true,"can_read":true,"can_update":true},{"module":"PERMISSIONS","can_create":true,"can_delete":true,"can_list":true,"can_read":true,"can_update":true},{"module":"ROLES","can_create":true,"can_delete":true,"can_list":true,"can_read":true,"can_update":true},{"module":"SETTINGS","can_create":true,"can_delete":true,"can_list":true,"can_read":true,"can_update":true},{"module":"DEFINITIONS","can_create":true,"can_delete":true,"can_list":true,"can_read":true,"can_update":true},{"module":"ORGANIZATIONS","can_create":true,"can_delete":true,"can_list":true,"can_read":true,"can_update":true},{"module":"NOTIFICATION_TEMPLATES","can_create":true,"can_delete":true,"can_list":true,"can_read":true,"can_update":true},{"module":"MPR","can_create":true,"can_delete":true,"can_list":true,"can_read":true,"can_update":true},{"module":"REPORTS","can_create":true,"can_delete":true,"can_list":true,"can_read":true,"can_update":true},{"module":"Admin","can_create":true,"can_delete":true,"can_list":true,"can_read":true,"can_update":true},{"module":"CUSTOMERS","can_create":true,"can_delete":true,"can_list":true,"can_read":true,"can_update":true},{"module":"PROFILE","can_create":true,"can_delete":true,"can_list":true,"can_read":true,"can_update":true},{"module":"NOTIFICATIONS","can_create":true,"can_delete":true,"can_list":true,"can_read":true,"can_update":true},{"module":"ACCOUNTS","can_create":true,"can_delete":true,"can_list":true,"can_read":true,"can_update":true},{"module":"ISSUES","can_create":true,"can_delete":true,"can_list":true,"can_read":true,"can_update":true},{"module":"SESSIONS","can_create":true,"can_delete":true,"can_list":true,"can_read":true,"can_update":true},{"module":"SETTINGS_MASTER","can_create":true,"can_delete":true,"can_list":true,"can_read":true,"can_update":true},{"module":"AUDIT_TRAILS","can_create":true,"can_delete":true,"can_list":true,"can_read":true,"can_update":true},{"module":"EVENTS","can_create":true,"can_delete":true,"can_list":true,"can_read":true,"can_update":true}]},{"created_on":"2025-02-10T16:29:43.000Z","created_by":"4","modified_on":"2025-02-10T16:29:43.000Z","modified_by":null,"deleted_on":null,"deleted_by":null,"id":"13","uuid":"0194f0b1-fa14-75bb-b525-ce013fd97acf","name":"customerRole","description":"Access","type":null,"meta":{},"user_count":"1","organization_count":"0","permissions":[{"module":"CUSTOMERS","can_create":false,"can_delete":false,"can_list":false,"can_read":true,"can_update":false}]},{"created_on":"2025-02-09T19:06:32.000Z","created_by":"4","modified_on":"2025-02-09T19:06:32.000Z","modified_by":null,"deleted_on":null,"deleted_by":null,"id":"12","uuid":"0194ec1b-3220-7107-8c87-1ff0ca003c39","name":"TestRole","description":"Posting Access","type":null,"meta":{},"user_count":"1","organization_count":"0","permissions":[{"module":"Admin","can_create":true,"can_delete":false,"can_list":false,"can_read":true,"can_update":false}]},{"created_on":"2025-02-08T15:19:16.000Z","created_by":"4","modified_on":"2025-02-10T07:09:48.000Z","modified_by":"3","deleted_on":null,"deleted_by":null,"id":"10","uuid":"0194e624-c166-756c-b77d-18bfbc46b0e7","name":"TestRole1123","description":"Posting Access full","type":null,"meta":{},"user_count":"1","organization_count":"0","permissions":[{"module":"Admin","can_create":true,"can_delete":false,"can_list":false,"can_read":true,"can_update":false},{"module":"AUDIT_TRAILS","can_create":true,"can_delete":false,"can_list":false,"can_read":false,"can_update":false},{"module":"EVENTS","can_create":true,"can_delete":true,"can_list":false,"can_read":true,"can_update":true}]},{"created_on":"2025-02-03T18:18:19.000Z","created_by":"4","modified_on":"2025-02-03T18:18:19.000Z","modified_by":null,"deleted_on":null,"deleted_by":null,"id":"6","uuid":"0194cd08-e4f4-75d1-aa26-fbb108464d74","name":"Executive","description":"Posting Access","type":"system","meta":{},"user_count":"1","organization_count":"0","permissions":[]},{"created_on":"2025-01-29T10:32:47.000Z","created_by":"3","modified_on":"2025-01-29T10:32:47.000Z","modified_by":null,"deleted_on":null,"deleted_by":null,"id":"5","uuid":"","name":"Admin","description":"Administrator with full access","type":"system","meta":{},"user_count":"1","organization_count":"0","permissions":[]},{"created_on":"2025-01-27T13:58:02.000Z","created_by":"1","modified_on":"2025-01-27T13:58:02.000Z","modified_by":null,"deleted_on":null,"deleted_by":null,"id":"3","uuid":"","name":"Account Officer","description":"Posting Access","type":"system","meta":{},"user_count":"1","organization_count":"0","permissions":[]},{"created_on":"2025-01-26T18:13:31.000Z","created_by":"1","modified_on":"2025-01-26T18:13:31.000Z","modified_by":null,"deleted_on":null,"deleted_by":null,"id":"2","uuid":"","name":"Admin","description":"Administrator with full access","type":"system","meta":{},"user_count":"1","organization_count":"0","permissions":[]}]}}