{"status":true,"response":{"total":17,"page":1,"limit":10,"totalPages":2,"data":[{"created_on":"2025-02-05T21:31:00.000Z","created_by":"1","modified_on":"2025-02-05T21:31:00.000Z","modified_by":null,"deleted_on":null,"deleted_by":null,"id":"2987","uuid":"0194d806-0407-7489-91a1-22129efac1cd","slug":"organization_types","name":"Organization Categories","description":"Organization Categories","meta":null},{"created_on":"2025-01-14T19:17:08.000Z","created_by":null,"modified_on":"2025-01-14T19:17:08.000Z","modified_by":null,"deleted_on":null,"deleted_by":null,"id":"1771","uuid":"","slug":"organization-type","name":"Organization Type","description":"Parent Definition for Organizations","meta":null},{"created_on":"2025-01-14T12:35:15.000Z","created_by":null,"modified_on":"2025-01-17T07:39:32.000Z","modified_by":null,"deleted_on":null,"deleted_by":null,"id":"1760","uuid":"","slug":"division","name":"Division","description":"","meta":{}},{"created_on":"2025-01-14T12:35:15.000Z","created_by":null,"modified_on":"2025-01-17T07:39:33.000Z","modified_by":null,"deleted_on":null,"deleted_by":null,"id":"1763","uuid":"","slug":"branch","name":"Branch","description":"","meta":{}},{"created_on":"2025-01-14T12:35:15.000Z","created_by":null,"modified_on":"2025-01-17T07:39:32.000Z","modified_by":null,"deleted_on":null,"deleted_by":null,"id":"1762","uuid":"","slug":"group","name":"Group","description":"","meta":{}},{"created_on":"2025-01-14T12:35:15.000Z","created_by":null,"modified_on":"2025-01-17T07:39:32.000Z","modified_by":null,"deleted_on":null,"deleted_by":null,"id":"1761","uuid":"","slug":"region","name":"Region","description":"","meta":{}},{"created_on":"2025-01-14T12:35:15.000Z","created_by":null,"modified_on":"2025-01-16T19:55:39.000Z","modified_by":null,"deleted_on":null,"deleted_by":null,"id":"11","uuid":"","slug":"organization-type","name":"Organization type","description":"","meta":null},{"created_on":"2025-01-14T12:35:15.000Z","created_by":null,"modified_on":"2025-01-17T07:39:31.000Z","modified_by":null,"deleted_on":null,"deleted_by":null,"id":"1759","uuid":"","slug":"bank","name":"Bank","description":"","meta":{}},{"created_on":"2025-01-14T12:35:15.000Z","created_by":null,"modified_on":"2025-01-17T07:39:31.000Z","modified_by":null,"deleted_on":null,"deleted_by":null,"id":"1758","uuid":"","slug":"directorate","name":"Directorate","description":"","meta":{}},{"created_on":"2025-01-14T12:35:15.000Z","created_by":null,"modified_on":"2025-01-17T07:39:30.000Z","modified_by":null,"deleted_on":null,"deleted_by":null,"id":"1757","uuid":"","slug":"global","name":"Global","description":"","meta":{}}]}}