{"status":true,"response":{"total":28,"page":1,"limit":10,"totalPages":3,"data":[{"module":"General","created_on":"2025-03-20T20:20:26.988Z","created_by":null,"modified_on":"2025-03-20T20:20:26.988Z","modified_by":null,"deleted_on":null,"deleted_by":null,"id":28,"name":"CUSTOMER_COMMENTS","description":"Customer comments permission","meta":null},{"module":"General","created_on":"2025-03-20T20:20:26.964Z","created_by":null,"modified_on":"2025-03-20T20:20:26.964Z","modified_by":null,"deleted_on":null,"deleted_by":null,"id":27,"name":"CUSTOMER_INVESTMENTS","description":"Customer investments permission","meta":null},{"module":"General","created_on":"2025-03-20T20:20:26.878Z","created_by":null,"modified_on":"2025-03-20T20:20:26.878Z","modified_by":null,"deleted_on":null,"deleted_by":null,"id":26,"name":"CUSTOMER_LOANS","description":"Customer loans permission","meta":null},{"module":"General","created_on":"2025-03-20T20:20:26.800Z","created_by":null,"modified_on":"2025-03-20T20:20:26.800Z","modified_by":null,"deleted_on":null,"deleted_by":null,"id":25,"name":"CUSTOMER_COMMUNICATIONS","description":"Customer communications permission","meta":null},{"module":"General","created_on":"2025-03-20T20:20:26.777Z","created_by":null,"modified_on":"2025-03-20T20:20:26.777Z","modified_by":null,"deleted_on":null,"deleted_by":null,"id":24,"name":"CUSTOMER_CHANNELS","description":"Customer channels permission","meta":null},{"module":"General","created_on":"2025-03-20T20:20:26.689Z","created_by":null,"modified_on":"2025-03-20T20:20:26.689Z","modified_by":null,"deleted_on":null,"deleted_by":null,"id":23,"name":"CUSTOMER_TRANSACTIONS","description":"Customer transactions permission","meta":null},{"module":"General","created_on":"2025-03-20T20:20:26.658Z","created_by":null,"modified_on":"2025-03-20T20:20:26.658Z","modified_by":null,"deleted_on":null,"deleted_by":null,"id":22,"name":"CUSTOMER_ACCOUNTS","description":"Customer accounts permission","meta":null},{"module":"General","created_on":"2025-03-20T20:20:26.566Z","created_by":null,"modified_on":"2025-03-20T20:20:26.566Z","modified_by":null,"deleted_on":null,"deleted_by":null,"id":21,"name":"CUSTOMER_ISSUES","description":"Customer issues permission","meta":null},{"module":"General","created_on":"2025-02-13T13:41:46.661Z","created_by":null,"modified_on":"2025-02-13T13:41:46.661Z","modified_by":null,"deleted_on":null,"deleted_by":null,"id":20,"name":"PROFILE","description":"Profile permission","meta":null},{"module":"Administration","created_on":"2025-02-13T13:41:46.141Z","created_by":null,"modified_on":"2025-02-13T13:41:46.141Z","modified_by":null,"deleted_on":null,"deleted_by":null,"id":19,"name":"NOTIFICATIONS","description":"Notifications permission","meta":null}]}}