{"status":true,"response":{"data":[{"created_on":"2025-06-05T19:05:16.000Z","created_by":null,"modified_on":"2025-06-05T19:05:16.000Z","modified_by":null,"deleted_on":null,"deleted_by":null,"id":"61","home_branch_code":null,"foracid":null,"acct_name":"test721","gl_sub_head_code":null,"bacid":null,"tran_date":null,"tran_id":null,"part_tran_srl_num":null,"tran_type":null,"tran_sub_type":null,"part_tran_type":null,"acid":null,"value_date":"2025-06-11","tran_amt":null,"tran_particular":null,"sol_id":null,"ref_num":null,"tran_crncy_code":null,"rpt_code":null,"acct_pattern":null,"adjustment_type":"other","mpr_id":42},{"created_on":"2025-06-05T19:05:16.000Z","created_by":null,"modified_on":"2025-06-05T19:05:16.000Z","modified_by":null,"deleted_on":null,"deleted_by":null,"id":"60","home_branch_code":null,"foracid":null,"acct_name":"testing 1030","gl_sub_head_code":null,"bacid":null,"tran_date":null,"tran_id":null,"part_tran_srl_num":null,"tran_type":null,"tran_sub_type":null,"part_tran_type":null,"acid":null,"value_date":"2025-08-27","tran_amt":null,"tran_particular":null,"sol_id":null,"ref_num":null,"tran_crncy_code":null,"rpt_code":null,"acct_pattern":null,"adjustment_type":"other","mpr_id":42},{"created_on":"2025-06-05T19:04:07.000Z","created_by":null,"modified_on":"2025-06-05T19:04:07.000Z","modified_by":null,"deleted_on":null,"deleted_by":null,"id":"58","home_branch_code":null,"foracid":null,"acct_name":"testing 1030","gl_sub_head_code":null,"bacid":null,"tran_date":null,"tran_id":null,"part_tran_srl_num":null,"tran_type":null,"tran_sub_type":null,"part_tran_type":null,"acid":null,"value_date":"2025-08-27","tran_amt":null,"tran_particular":null,"sol_id":null,"ref_num":null,"tran_crncy_code":null,"rpt_code":null,"acct_pattern":null,"adjustment_type":"other","mpr_id":42},{"created_on":"2025-06-05T17:43:27.000Z","created_by":null,"modified_on":"2025-06-05T17:43:27.000Z","modified_by":null,"deleted_on":null,"deleted_by":null,"id":"57","home_branch_code":null,"foracid":null,"acct_name":"test8594","gl_sub_head_code":null,"bacid":null,"tran_date":null,"tran_id":null,"part_tran_srl_num":null,"tran_type":null,"tran_sub_type":null,"part_tran_type":null,"acid":null,"value_date":"2025-06-11","tran_amt":null,"tran_particular":null,"sol_id":null,"ref_num":null,"tran_crncy_code":null,"rpt_code":null,"acct_pattern":null,"adjustment_type":"other","mpr_id":42},{"created_on":"2025-06-05T17:31:13.000Z","created_by":null,"modified_on":"2025-06-05T17:31:13.000Z","modified_by":null,"deleted_on":null,"deleted_by":null,"id":"55","home_branch_code":null,"foracid":null,"acct_name":"testing 1030","gl_sub_head_code":null,"bacid":null,"tran_date":null,"tran_id":null,"part_tran_srl_num":null,"tran_type":null,"tran_sub_type":null,"part_tran_type":null,"acid":null,"value_date":"2025-08-27","tran_amt":null,"tran_particular":null,"sol_id":null,"ref_num":null,"tran_crncy_code":null,"rpt_code":null,"acct_pattern":null,"adjustment_type":"other","mpr_id":42},{"created_on":"2025-06-05T17:31:13.000Z","created_by":null,"modified_on":"2025-06-05T17:31:13.000Z","modified_by":null,"deleted_on":null,"deleted_by":null,"id":"56","home_branch_code":null,"foracid":null,"acct_name":"test4333","gl_sub_head_code":null,"bacid":null,"tran_date":null,"tran_id":null,"part_tran_srl_num":null,"tran_type":null,"tran_sub_type":null,"part_tran_type":null,"acid":null,"value_date":"2025-06-11","tran_amt":null,"tran_particular":null,"sol_id":null,"ref_num":null,"tran_crncy_code":null,"rpt_code":null,"acct_pattern":null,"adjustment_type":"other","mpr_id":42},{"created_on":"2025-06-05T17:25:05.000Z","created_by":null,"modified_on":"2025-06-05T17:25:05.000Z","modified_by":null,"deleted_on":null,"deleted_by":null,"id":"54","home_branch_code":null,"foracid":null,"acct_name":"test5352","gl_sub_head_code":null,"bacid":null,"tran_date":null,"tran_id":null,"part_tran_srl_num":null,"tran_type":null,"tran_sub_type":null,"part_tran_type":null,"acid":null,"value_date":"2025-06-11","tran_amt":null,"tran_particular":null,"sol_id":null,"ref_num":null,"tran_crncy_code":null,"rpt_code":null,"acct_pattern":null,"adjustment_type":"other","mpr_id":42},{"created_on":"2025-06-05T16:05:08.000Z","created_by":null,"modified_on":"2025-06-05T16:05:08.000Z","modified_by":null,"deleted_on":null,"deleted_by":null,"id":"52","home_branch_code":null,"foracid":null,"acct_name":"testing 1030","gl_sub_head_code":null,"bacid":null,"tran_date":null,"tran_id":null,"part_tran_srl_num":null,"tran_type":null,"tran_sub_type":null,"part_tran_type":null,"acid":null,"value_date":"2025-08-27","tran_amt":null,"tran_particular":null,"sol_id":null,"ref_num":null,"tran_crncy_code":null,"rpt_code":null,"acct_pattern":null,"adjustment_type":"other","mpr_id":42},{"created_on":"2025-06-05T16:04:31.000Z","created_by":null,"modified_on":"2025-06-05T16:04:31.000Z","modified_by":null,"deleted_on":null,"deleted_by":null,"id":"51","home_branch_code":null,"foracid":null,"acct_name":"testing 1030","gl_sub_head_code":null,"bacid":null,"tran_date":null,"tran_id":null,"part_tran_srl_num":null,"tran_type":null,"tran_sub_type":null,"part_tran_type":null,"acid":null,"value_date":"2025-08-27","tran_amt":null,"tran_particular":null,"sol_id":null,"ref_num":null,"tran_crncy_code":null,"rpt_code":null,"acct_pattern":null,"adjustment_type":"other","mpr_id":42},{"created_on":"2025-06-05T15:52:15.000Z","created_by":null,"modified_on":"2025-06-05T15:52:15.000Z","modified_by":null,"deleted_on":null,"deleted_by":null,"id":"50","home_branch_code":null,"foracid":null,"acct_name":"testing 1030","gl_sub_head_code":null,"bacid":null,"tran_date":null,"tran_id":null,"part_tran_srl_num":null,"tran_type":null,"tran_sub_type":null,"part_tran_type":null,"acid":null,"value_date":"2025-08-27","tran_amt":null,"tran_particular":null,"sol_id":null,"ref_num":null,"tran_crncy_code":null,"rpt_code":null,"acct_pattern":null,"adjustment_type":"other","mpr_id":42}],"total":12,"page":"1","limit":"10","totalPages":2}}