{"status":true,"response":{"data":[{"created_on":"2025-04-16T16:42:09.000Z","created_by":"170","modified_on":"2025-04-17T17:10:41.000Z","modified_by":"170","deleted_on":null,"deleted_by":null,"id":"56","uuid":"01963f7a-b971-729a-9264-5bfbea5c12dd","name":"test","description":"test","query":null,"path":null,"select_columns":null,"sort_columns":null,"filter_columns":null,"cache_ttl":null,"default_filter_columns":null,"meta":{"sections":[{"name":"General","reports":[],"description":""}]},"category_id":"3204","status":"draft","deletion_reason":null,"period":null,"category":{"created_on":"2025-03-19T07:15:05.000Z","created_by":"188","modified_on":"2025-03-19T07:15:05.000Z","modified_by":null,"deleted_on":null,"deleted_by":null,"id":"3204","uuid":"0195ad41-7d33-7294-baea-7746b18f6d79","slug":"report","name":"Report","description":"Report","meta":null},"report_roles":[{"created_on":"2025-04-16T16:42:09.000Z","created_by":"170","modified_on":"2025-04-16T16:42:09.000Z","modified_by":null,"deleted_on":null,"deleted_by":null,"id":"2","uuid":"01963f7a-b97a-74bf-8299-3ef2ef1d394f","report_id":"56","role_id":"21","meta":null},{"created_on":"2025-04-16T16:42:09.000Z","created_by":"170","modified_on":"2025-04-16T16:42:09.000Z","modified_by":null,"deleted_on":null,"deleted_by":null,"id":"1","uuid":"01963f7a-b97a-74bf-8299-388c55bb7fc9","report_id":"56","role_id":"23","meta":null}]},{"created_on":"2025-04-02T14:16:37.000Z","created_by":"214","modified_on":"2025-04-18T23:41:43.000Z","modified_by":"181","deleted_on":null,"deleted_by":null,"id":"49","uuid":"0195f6dc-7284-7688-8fc8-c79c20d0a7e7","name":"2025 Targets","description":"Report displaying 2025 Targets","query":null,"path":null,"select_columns":null,"sort_columns":null,"filter_columns":null,"cache_ttl":null,"default_filter_columns":null,"meta":{"sections":[{"name":"Target By Category","reports":[{"name":"2025 Global Targets by Category","type":"report","description":"Details for 2025 Global Targets by Category","metabase_report_id":"39","metabase_report_type":"question"}],"description":"Report displaying 2025 target by category"},{"name":"Target by Region/Division","reports":[{"name":"2025 FY Target By Region/Division","type":"report","description":"This displays the balance sheet and income statement target, MoM and the FY Cumulative","metabase_report_id":"38","metabase_report_type":"question"},{"name":"2025 Targets by MIS","type":"report","description":"Details for 2025 Targets by MIS","metabase_report_id":"41","metabase_report_type":"question"}],"description":"Report displaying 2025 target by region/division"},{"name":"Target By MIS","reports":[{"name":"2025 Targets by MIS","type":"report","description":"Details for 2025 Targets by MIS","metabase_report_id":"41","metabase_report_type":"question"}],"description":"Report displaying 2025 target by MIS"}]},"category_id":"3204","status":"published","deletion_reason":null,"period":null,"category":{"created_on":"2025-03-19T07:15:05.000Z","created_by":"188","modified_on":"2025-03-19T07:15:05.000Z","modified_by":null,"deleted_on":null,"deleted_by":null,"id":"3204","uuid":"0195ad41-7d33-7294-baea-7746b18f6d79","slug":"report","name":"Report","description":"Report","meta":null},"report_roles":[{"created_on":"2025-04-18T23:41:43.000Z","created_by":"181","modified_on":"2025-04-18T23:41:43.000Z","modified_by":null,"deleted_on":null,"deleted_by":null,"id":"3","uuid":"01964b47-9105-77e4-8a08-1e58c7cd15b9","report_id":"49","role_id":"24","meta":null}]},{"created_on":"2025-04-02T14:02:10.000Z","created_by":"214","modified_on":"2025-04-02T14:02:59.000Z","modified_by":"214","deleted_on":null,"deleted_by":null,"id":"48","uuid":"0195f6cf-3aa7-7658-9df7-fbe9c27814b4","name":"MIS Codes","description":"List of MIS Codes","query":null,"path":null,"select_columns":null,"sort_columns":null,"filter_columns":null,"cache_ttl":null,"default_filter_columns":null,"meta":{"sections":[{"name":"MIS Codes","reports":[{"name":"MIS Codes","type":"report","description":"Details for MIS Codes","metabase_report_id":"40","metabase_report_type":"question"}],"description":"List of MIS codes"}]},"category_id":"3204","status":"published","deletion_reason":null,"period":null,"category":{"created_on":"2025-03-19T07:15:05.000Z","created_by":"188","modified_on":"2025-03-19T07:15:05.000Z","modified_by":null,"deleted_on":null,"deleted_by":null,"id":"3204","uuid":"0195ad41-7d33-7294-baea-7746b18f6d79","slug":"report","name":"Report","description":"Report","meta":null},"report_roles":[]},{"created_on":"2025-04-02T13:46:46.000Z","created_by":"214","modified_on":"2025-04-16T21:35:26.000Z","modified_by":"170","deleted_on":null,"deleted_by":null,"id":"47","uuid":"0195f6c1-1fc9-72da-a59e-3737352f4346","name":"Income","description":"Report displaying bank income","query":null,"path":null,"select_columns":null,"sort_columns":null,"filter_columns":null,"cache_ttl":null,"default_filter_columns":null,"meta":{"sections":[{"name":"Global Income","reports":[{"name":"Global Income Report","type":"report","description":"Details for Global Income Report","metabase_report_id":"60","metabase_report_type":"question"}],"description":"Report displaying bank wide incomes"},{"name":"Income Transactions By GLLO","reports":[{"name":"Income Transactions by GL","type":"report","description":"Details for Income Transactions by GL","metabase_report_id":"61","metabase_report_type":"question"}],"description":"Report displaying income transactions by general ledger"},{"name":"Income By GL","reports":[{"name":"Income Report by GL","type":"report","description":"Details for Income Report by GL","metabase_report_id":"59","metabase_report_type":"question"},{"name":"Large Funds Movement Tracker - Account Officer View","type":"report","description":"Details for Large Funds Movement Tracker - Account Officer View","metabase_report_id":"52","metabase_report_type":"question"}],"description":"Report displaying income by GLL"}]},"category_id":"3204","status":"published","deletion_reason":null,"period":null,"category":{"created_on":"2025-03-19T07:15:05.000Z","created_by":"188","modified_on":"2025-03-19T07:15:05.000Z","modified_by":null,"deleted_on":null,"deleted_by":null,"id":"3204","uuid":"0195ad41-7d33-7294-baea-7746b18f6d79","slug":"report","name":"Report","description":"Report","meta":null},"report_roles":[]},{"created_on":"2025-04-02T13:46:32.000Z","created_by":"214","modified_on":"2025-04-06T15:17:24.000Z","modified_by":"181","deleted_on":null,"deleted_by":null,"id":"46","uuid":"0195f6c0-e960-77de-9997-894700a6f92c","name":"Expense","description":"Report displaying bank expenses","query":null,"path":null,"select_columns":null,"sort_columns":null,"filter_columns":null,"cache_ttl":null,"default_filter_columns":null,"meta":{"sections":[{"name":"Expense Transactions By GL","reports":[{"name":"Expense Transactions by GL","type":"report","description":"Details for Expense Transactions by GL","metabase_report_id":"58","metabase_report_type":"question"}],"description":"Report displaying expense transaction by GL"},{"name":"Globale Expense","reports":[{"name":"Global Expense Report","type":"report","description":"Details for Global Expense Report","metabase_report_id":"55","metabase_report_type":"question"}],"description":"Report displaying global expense"},{"name":"Expense By GLL","reports":[{"name":"Expense Report by GL","type":"report","description":"Details for Expense Report by GL","metabase_report_id":"57","metabase_report_type":"question"}],"description":"Report displaying expense by GL"}]},"category_id":"3204","status":"published","deletion_reason":null,"period":null,"category":{"created_on":"2025-03-19T07:15:05.000Z","created_by":"188","modified_on":"2025-03-19T07:15:05.000Z","modified_by":null,"deleted_on":null,"deleted_by":null,"id":"3204","uuid":"0195ad41-7d33-7294-baea-7746b18f6d79","slug":"report","name":"Report","description":"Report","meta":null},"report_roles":[]},{"created_on":"2025-04-02T13:46:09.000Z","created_by":"214","modified_on":"2025-04-02T13:57:32.000Z","modified_by":"214","deleted_on":null,"deleted_by":null,"id":"45","uuid":"0195f6c0-8ee1-739b-b4b9-19f49b46f4b0","name":"Account Officers","description":"Reporting displaying bank account officers","query":null,"path":null,"select_columns":null,"sort_columns":null,"filter_columns":null,"cache_ttl":null,"default_filter_columns":null,"meta":{"sections":[{"name":"Account Officers","reports":[{"name":"Account Officers","type":"report","description":"List of Account Officers","metabase_report_id":"44","metabase_report_type":"question"}],"description":"List of bank account officers"}]},"category_id":"3204","status":"published","deletion_reason":null,"period":null,"category":{"created_on":"2025-03-19T07:15:05.000Z","created_by":"188","modified_on":"2025-03-19T07:15:05.000Z","modified_by":null,"deleted_on":null,"deleted_by":null,"id":"3204","uuid":"0195ad41-7d33-7294-baea-7746b18f6d79","slug":"report","name":"Report","description":"Report","meta":null},"report_roles":[]},{"created_on":"2025-04-02T13:45:22.000Z","created_by":"214","modified_on":"2025-04-02T13:58:48.000Z","modified_by":"214","deleted_on":null,"deleted_by":null,"id":"44","uuid":"0195f6bf-d81a-75ea-b2c1-009e11f78499","name":"General Ledgers","description":"Report displaying bank general ledgers","query":null,"path":null,"select_columns":null,"sort_columns":null,"filter_columns":null,"cache_ttl":null,"default_filter_columns":null,"meta":{"sections":[{"name":"General Ledgers","reports":[{"name":"GLs","type":"report","description":"Details for GLs","metabase_report_id":"56","metabase_report_type":"question"}],"description":"List of bank GLs"}]},"category_id":"3204","status":"published","deletion_reason":null,"period":null,"category":{"created_on":"2025-03-19T07:15:05.000Z","created_by":"188","modified_on":"2025-03-19T07:15:05.000Z","modified_by":null,"deleted_on":null,"deleted_by":null,"id":"3204","uuid":"0195ad41-7d33-7294-baea-7746b18f6d79","slug":"report","name":"Report","description":"Report","meta":null},"report_roles":[]},{"created_on":"2025-04-02T13:44:58.000Z","created_by":"214","modified_on":"2025-04-02T14:00:46.000Z","modified_by":"214","deleted_on":null,"deleted_by":null,"id":"43","uuid":"0195f6bf-7ac2-7074-a088-7e3da8038fd8","name":"Bank Channels ","description":"Report displaying bank channels","query":null,"path":null,"select_columns":null,"sort_columns":null,"filter_columns":null,"cache_ttl":null,"default_filter_columns":null,"meta":{"sections":[{"name":"Bank Channels","reports":[],"description":"Reporting displaying bank channels"}]},"category_id":"3204","status":"published","deletion_reason":null,"period":null,"category":{"created_on":"2025-03-19T07:15:05.000Z","created_by":"188","modified_on":"2025-03-19T07:15:05.000Z","modified_by":null,"deleted_on":null,"deleted_by":null,"id":"3204","uuid":"0195ad41-7d33-7294-baea-7746b18f6d79","slug":"report","name":"Report","description":"Report","meta":null},"report_roles":[]},{"created_on":"2025-04-02T13:43:41.000Z","created_by":"214","modified_on":"2025-04-06T16:23:46.000Z","modified_by":"181","deleted_on":null,"deleted_by":null,"id":"42","uuid":"0195f6be-4d12-75a8-aecc-7ba892f90944","name":"Channel Profitability ","description":"Report displaying financial performance bank channel","query":null,"path":null,"select_columns":null,"sort_columns":null,"filter_columns":null,"cache_ttl":null,"default_filter_columns":null,"meta":{"sections":[{"name":"Global","reports":[{"name":"Global Expense Report","type":"report","description":"Details for Global Expense Report","metabase_report_id":"55","metabase_report_type":"question"}],"description":"Global SOMETHING\n"},{"name":"Income Transactions By GLLO","reports":[],"description":"SOME"},{"name":"Global (Copy)","reports":[{"name":"Global Expense Report","type":"report","description":"Details for Global Expense Report","metabase_report_id":"55","metabase_report_type":"question"}],"description":"Global SOMETHING\n"}]},"category_id":"3204","status":"published","deletion_reason":null,"period":null,"category":{"created_on":"2025-03-19T07:15:05.000Z","created_by":"188","modified_on":"2025-03-19T07:15:05.000Z","modified_by":null,"deleted_on":null,"deleted_by":null,"id":"3204","uuid":"0195ad41-7d33-7294-baea-7746b18f6d79","slug":"report","name":"Report","description":"Report","meta":null},"report_roles":[]},{"created_on":"2025-04-02T13:42:54.000Z","created_by":"214","modified_on":"2025-04-10T22:03:20.000Z","modified_by":"170","deleted_on":null,"deleted_by":null,"id":"41","uuid":"0195f6bd-9354-75db-b58f-ddc75d1e4208","name":"Product Profitability","description":"Report displaying  financial performance of bank products","query":null,"path":null,"select_columns":null,"sort_columns":null,"filter_columns":null,"cache_ttl":null,"default_filter_columns":null,"meta":{"sections":[{"name":"Income Transactions By GLLO","reports":[{"name":"2025 FY Targets","type":"report","description":"Details for 2025 FY Targets","metabase_report_id":"2","metabase_report_type":"dashboard"}],"description":"hello worlds"},{"name":"Product profitability report","reports":[{"name":"Product Profitability Report - Global","type":"report","description":"Details for Product Profitability Report - Global","metabase_report_id":"103","metabase_report_type":"question"}],"description":"Report displaying product profitability"}]},"category_id":"3204","status":"published","deletion_reason":null,"period":null,"category":{"created_on":"2025-03-19T07:15:05.000Z","created_by":"188","modified_on":"2025-03-19T07:15:05.000Z","modified_by":null,"deleted_on":null,"deleted_by":null,"id":"3204","uuid":"0195ad41-7d33-7294-baea-7746b18f6d79","slug":"report","name":"Report","description":"Report","meta":null},"report_roles":[]}],"meta":{"page":1,"limit":10,"total":16,"pages":2}}}