{"status":true,"response":{"total":223,"page":1,"limit":10,"totalPages":23,"data":[{"created_on":"2025-03-28T18:22:46.000Z","created_by":"188","modified_on":"2025-03-28T19:52:38.000Z","id":"303","staff_id":null,"manager_id":null,"first_name":"Morgan","last_name":"Zee","display_name":null,"description":null,"photo":null,"phone":null,"email":"Morgan@yopmail.com","status":"active","last_login_date":"2025-03-28T19:52:39.000Z"},{"created_on":"2025-03-28T09:45:19.000Z","created_by":"188","modified_on":"2025-04-02T14:18:46.000Z","id":"302","staff_id":null,"manager_id":null,"first_name":"Emmanuel","last_name":"Joe","display_name":null,"description":null,"photo":null,"phone":null,"email":"Emmanuel@yopmail.com","status":"active","last_login_date":"2025-04-02T14:18:47.000Z"},{"created_on":"2025-03-28T07:07:14.000Z","created_by":"188","modified_on":"2025-03-28T07:07:14.000Z","id":"301","staff_id":null,"manager_id":null,"first_name":"","last_name":"","display_name":null,"description":null,"photo":null,"phone":null,"email":"gray@yopmail.com","status":"pending","last_login_date":null},{"created_on":"2025-03-26T14:14:45.000Z","created_by":"188","modified_on":"2025-03-26T14:14:45.000Z","id":"300","staff_id":null,"manager_id":null,"first_name":"","last_name":"","display_name":null,"description":null,"photo":null,"phone":null,"email":"morgan@assurdly.com","status":"pending","last_login_date":null},{"created_on":"2025-03-25T16:05:51.000Z","created_by":"170","modified_on":"2025-03-28T09:25:39.000Z","id":"299","staff_id":null,"manager_id":null,"first_name":"Udeme","last_name":"Ben","display_name":null,"description":null,"photo":null,"phone":null,"email":"udeme+13@assurdly.com","status":"active","last_login_date":"2025-03-28T09:25:39.000Z"},{"created_on":"2025-03-25T06:20:16.000Z","created_by":"188","modified_on":"2025-03-25T06:49:18.000Z","id":"298","staff_id":null,"manager_id":null,"first_name":"Billy","last_name":"Roy","display_name":null,"description":null,"photo":null,"phone":null,"email":"Billy@yopmail.com","status":"active","last_login_date":"2025-03-25T06:49:18.000Z"},{"created_on":"2025-03-24T16:22:41.000Z","created_by":"172","modified_on":"2025-03-24T16:51:26.000Z","id":"297","staff_id":null,"manager_id":null,"first_name":"christo","last_name":"esiv","display_name":null,"description":null,"photo":null,"phone":null,"email":"christo@yopmail.com","status":"active","last_login_date":"2025-03-24T16:51:27.000Z"},{"created_on":"2025-03-24T14:58:44.000Z","created_by":"188","modified_on":"2025-03-24T15:07:01.000Z","id":"294","staff_id":null,"manager_id":null,"first_name":"jay","last_name":"jay","display_name":null,"description":null,"photo":null,"phone":null,"email":"jayjay@yopmail.com","status":"active","last_login_date":"2025-03-24T15:07:01.000Z"},{"created_on":"2025-03-24T12:28:52.000Z","created_by":"170","modified_on":"2025-04-02T17:20:27.000Z","id":"293","staff_id":null,"manager_id":null,"first_name":"omerebere","last_name":"Ejiaku","display_name":null,"description":null,"photo":null,"phone":null,"email":"Omerebere.Ejiaku@novabank.ng","status":"active","last_login_date":"2025-04-02T17:20:28.000Z"},{"created_on":"2025-03-24T12:27:53.000Z","created_by":"170","modified_on":"2025-03-28T13:06:01.000Z","id":"292","staff_id":null,"manager_id":null,"first_name":"Sele","last_name":"Gyang","display_name":null,"description":null,"photo":null,"phone":null,"email":"sele.gyang@novabank.ng","status":"active","last_login_date":"2025-03-28T13:06:01.000Z"}]}}