{"status":true,"response":{"total":18,"page":1,"limit":10,"totalPages":2,"data":[{"created_on":"2025-03-31T11:40:59.000Z","created_by":"272","modified_on":"2025-03-31T11:53:59.000Z","modified_by":"272","deleted_on":null,"deleted_by":null,"id":"25","uuid":"0195ec01-4053-71f8-883e-10b994a45f78","name":"Test User","description":"Testing","type":"user","meta":{},"user_count":"0","organization_count":"0","permissions":[{"module":"ISSUES","can_create":true,"can_delete":false,"can_list":false,"can_read":true,"can_update":false},{"module":"Admin","can_create":true,"can_delete":false,"can_list":false,"can_read":true,"can_update":false}]},{"created_on":"2025-03-19T14:46:45.000Z","created_by":"181","modified_on":"2025-03-19T14:56:46.000Z","modified_by":"181","deleted_on":null,"deleted_by":null,"id":"24","uuid":"0195aedf-0388-7149-b01b-6a4cc7d137eb","name":"listonly","description":"list permissions only","type":null,"meta":null,"user_count":"3","organization_count":"0","permissions":[{"module":"REPORTS","can_create":false,"can_delete":false,"can_list":true,"can_read":true,"can_update":false},{"module":"Admin","can_create":true,"can_delete":true,"can_list":true,"can_read":true,"can_update":true},{"module":"MPR","can_create":false,"can_delete":false,"can_list":true,"can_read":true,"can_update":false},{"module":"NOTIFICATION_TEMPLATES","can_create":true,"can_delete":true,"can_list":true,"can_read":true,"can_update":true},{"module":"ORGANIZATIONS","can_create":true,"can_delete":true,"can_list":true,"can_read":true,"can_update":true},{"module":"DEFINITIONS","can_create":true,"can_delete":true,"can_list":true,"can_read":true,"can_update":true},{"module":"SETTINGS","can_create":true,"can_delete":true,"can_list":true,"can_read":true,"can_update":true},{"module":"ROLES","can_create":false,"can_delete":false,"can_list":true,"can_read":false,"can_update":false},{"module":"PERMISSIONS","can_create":false,"can_delete":false,"can_list":true,"can_read":false,"can_update":false},{"module":"INVITES","can_create":true,"can_delete":true,"can_list":true,"can_read":true,"can_update":true},{"module":"USERS","can_create":false,"can_delete":false,"can_list":true,"can_read":false,"can_update":false},{"module":"CUSTOMERS","can_create":true,"can_delete":true,"can_list":true,"can_read":true,"can_update":true},{"module":"EVENTS","can_create":true,"can_delete":true,"can_list":true,"can_read":true,"can_update":true},{"module":"AUDIT_TRAILS","can_create":false,"can_delete":false,"can_list":true,"can_read":false,"can_update":false},{"module":"SETTINGS_MASTER","can_create":true,"can_delete":true,"can_list":true,"can_read":true,"can_update":true},{"module":"SESSIONS","can_create":true,"can_delete":true,"can_list":true,"can_read":true,"can_update":true},{"module":"ISSUES","can_create":true,"can_delete":true,"can_list":true,"can_read":true,"can_update":true},{"module":"ACCOUNTS","can_create":true,"can_delete":true,"can_list":true,"can_read":true,"can_update":true},{"module":"NOTIFICATIONS","can_create":true,"can_delete":true,"can_list":true,"can_read":true,"can_update":true},{"module":"PROFILE","can_create":true,"can_delete":true,"can_list":true,"can_read":true,"can_update":true}]},{"created_on":"2025-02-26T19:41:23.000Z","created_by":"181","modified_on":"2025-02-26T19:42:14.000Z","modified_by":"181","deleted_on":null,"deleted_by":null,"id":"23","uuid":"019543c7-3356-705c-acb3-8cdf1c3e8225","name":"newrolelise","description":"test","type":null,"meta":null,"user_count":"1","organization_count":"0","permissions":[{"module":"Admin","can_create":true,"can_delete":true,"can_list":true,"can_read":true,"can_update":true},{"module":"REPORTS","can_create":true,"can_delete":true,"can_list":true,"can_read":true,"can_update":true},{"module":"MPR","can_create":true,"can_delete":true,"can_list":true,"can_read":true,"can_update":true},{"module":"NOTIFICATION_TEMPLATES","can_create":true,"can_delete":true,"can_list":true,"can_read":true,"can_update":true},{"module":"ORGANIZATIONS","can_create":true,"can_delete":true,"can_list":true,"can_read":true,"can_update":true},{"module":"DEFINITIONS","can_create":true,"can_delete":true,"can_list":true,"can_read":true,"can_update":true},{"module":"SETTINGS","can_create":true,"can_delete":true,"can_list":true,"can_read":true,"can_update":true},{"module":"ROLES","can_create":true,"can_delete":true,"can_list":true,"can_read":true,"can_update":true},{"module":"PERMISSIONS","can_create":true,"can_delete":true,"can_list":true,"can_read":true,"can_update":true},{"module":"INVITES","can_create":true,"can_delete":true,"can_list":true,"can_read":true,"can_update":true},{"module":"USERS","can_create":true,"can_delete":true,"can_list":true,"can_read":true,"can_update":true},{"module":"CUSTOMERS","can_create":true,"can_delete":true,"can_list":true,"can_read":true,"can_update":true},{"module":"EVENTS","can_create":true,"can_delete":true,"can_list":true,"can_read":true,"can_update":true},{"module":"AUDIT_TRAILS","can_create":true,"can_delete":true,"can_list":true,"can_read":true,"can_update":true},{"module":"SESSIONS","can_create":true,"can_delete":true,"can_list":true,"can_read":true,"can_update":true},{"module":"ACCOUNTS","can_create":true,"can_delete":true,"can_list":true,"can_read":true,"can_update":true},{"module":"SETTINGS_MASTER","can_create":true,"can_delete":true,"can_list":true,"can_read":true,"can_update":true},{"module":"ISSUES","can_create":true,"can_delete":true,"can_list":true,"can_read":true,"can_update":true},{"module":"NOTIFICATIONS","can_create":true,"can_delete":true,"can_list":true,"can_read":true,"can_update":true},{"module":"PROFILE","can_create":true,"can_delete":true,"can_list":true,"can_read":true,"can_update":true}]},{"created_on":"2025-02-26T18:26:14.000Z","created_by":"170","modified_on":"2025-02-26T19:07:26.000Z","modified_by":"170","deleted_on":null,"deleted_by":null,"id":"22","uuid":"01954382-6763-77b3-aa31-b4a1d0cdb70f","name":"UAT Role","description":"The role of the first group of UAT testers.","type":null,"meta":null,"user_count":"25","organization_count":"0","permissions":[{"module":"CUSTOMER_ISSUES","can_create":true,"can_delete":false,"can_list":true,"can_read":true,"can_update":true},{"module":"CUSTOMER_ACCOUNTS","can_create":true,"can_delete":false,"can_list":true,"can_read":true,"can_update":true},{"module":"CUSTOMER_TRANSACTIONS","can_create":true,"can_delete":false,"can_list":true,"can_read":true,"can_update":true},{"module":"CUSTOMER_CHANNELS","can_create":true,"can_delete":false,"can_list":true,"can_read":true,"can_update":true},{"module":"CUSTOMER_COMMUNICATIONS","can_create":true,"can_delete":false,"can_list":true,"can_read":true,"can_update":true},{"module":"CUSTOMER_LOANS","can_create":false,"can_delete":false,"can_list":true,"can_read":true,"can_update":false},{"module":"CUSTOMER_INVESTMENTS","can_create":false,"can_delete":false,"can_list":true,"can_read":true,"can_update":false},{"module":"CUSTOMER_COMMENTS","can_create":true,"can_delete":false,"can_list":true,"can_read":true,"can_update":false},{"module":"Admin","can_create":false,"can_delete":false,"can_list":true,"can_read":true,"can_update":false},{"module":"REPORTS","can_create":false,"can_delete":false,"can_list":true,"can_read":true,"can_update":false},{"module":"MPR","can_create":false,"can_delete":false,"can_list":true,"can_read":true,"can_update":false},{"module":"NOTIFICATION_TEMPLATES","can_create":false,"can_delete":false,"can_list":true,"can_read":true,"can_update":false},{"module":"ORGANIZATIONS","can_create":false,"can_delete":false,"can_list":true,"can_read":true,"can_update":false},{"module":"DEFINITIONS","can_create":false,"can_delete":false,"can_list":true,"can_read":true,"can_update":false},{"module":"SETTINGS","can_create":false,"can_delete":false,"can_list":true,"can_read":true,"can_update":false},{"module":"ROLES","can_create":false,"can_delete":false,"can_list":true,"can_read":true,"can_update":false},{"module":"PERMISSIONS","can_create":false,"can_delete":false,"can_list":true,"can_read":true,"can_update":false},{"module":"INVITES","can_create":false,"can_delete":false,"can_list":true,"can_read":true,"can_update":false},{"module":"USERS","can_create":false,"can_delete":false,"can_list":true,"can_read":true,"can_update":false},{"module":"CUSTOMERS","can_create":true,"can_delete":true,"can_list":true,"can_read":true,"can_update":true},{"module":"EVENTS","can_create":false,"can_delete":false,"can_list":true,"can_read":true,"can_update":false},{"module":"AUDIT_TRAILS","can_create":false,"can_delete":false,"can_list":true,"can_read":true,"can_update":false},{"module":"SETTINGS_MASTER","can_create":false,"can_delete":false,"can_list":true,"can_read":true,"can_update":false},{"module":"SESSIONS","can_create":true,"can_delete":true,"can_list":true,"can_read":true,"can_update":true},{"module":"ISSUES","can_create":true,"can_delete":true,"can_list":true,"can_read":true,"can_update":true},{"module":"ACCOUNTS","can_create":true,"can_delete":true,"can_list":true,"can_read":true,"can_update":true},{"module":"NOTIFICATIONS","can_create":false,"can_delete":false,"can_list":true,"can_read":true,"can_update":false},{"module":"PROFILE","can_create":true,"can_delete":true,"can_list":true,"can_read":true,"can_update":true}]},{"created_on":"2025-02-26T13:51:47.000Z","created_by":"170","modified_on":"2025-02-26T13:51:47.000Z","modified_by":null,"deleted_on":null,"deleted_by":null,"id":"21","uuid":"01954287-23ea-71ce-8389-8e0b2aad8d7d","name":"General","description":"General Role","type":null,"meta":null,"user_count":"1","organization_count":"0","permissions":[{"module":"ORGANIZATIONS","can_create":true,"can_delete":true,"can_list":false,"can_read":true,"can_update":true},{"module":"Admin","can_create":true,"can_delete":true,"can_list":false,"can_read":true,"can_update":true},{"module":"REPORTS","can_create":true,"can_delete":true,"can_list":false,"can_read":true,"can_update":true},{"module":"INVITES","can_create":true,"can_delete":true,"can_list":false,"can_read":true,"can_update":true},{"module":"CUSTOMERS","can_create":true,"can_delete":true,"can_list":false,"can_read":true,"can_update":true},{"module":"USERS","can_create":true,"can_delete":true,"can_list":false,"can_read":true,"can_update":true},{"module":"EVENTS","can_create":true,"can_delete":true,"can_list":false,"can_read":true,"can_update":true},{"module":"ISSUES","can_create":true,"can_delete":true,"can_list":false,"can_read":true,"can_update":true},{"module":"ACCOUNTS","can_create":true,"can_delete":true,"can_list":false,"can_read":true,"can_update":true},{"module":"PROFILE","can_create":true,"can_delete":true,"can_list":false,"can_read":true,"can_update":true}]},{"created_on":"2025-02-25T14:30:21.000Z","created_by":"188","modified_on":"2025-02-25T14:31:51.000Z","modified_by":"188","deleted_on":null,"deleted_by":null,"id":"20","uuid":"01953d84-156a-7218-8908-fcf522cb0260","name":"Team Lead","description":"This are team leads","type":null,"meta":null,"user_count":"3","organization_count":"0","permissions":[{"module":"SESSIONS","can_create":true,"can_delete":true,"can_list":false,"can_read":true,"can_update":true},{"module":"ISSUES","can_create":true,"can_delete":true,"can_list":false,"can_read":true,"can_update":true},{"module":"ACCOUNTS","can_create":true,"can_delete":true,"can_list":false,"can_read":true,"can_update":true},{"module":"PROFILE","can_create":true,"can_delete":true,"can_list":false,"can_read":true,"can_update":true},{"module":"NOTIFICATIONS","can_create":true,"can_delete":true,"can_list":false,"can_read":true,"can_update":true}]},{"created_on":"2025-02-20T13:44:00.000Z","created_by":"188","modified_on":"2025-03-25T06:25:44.000Z","modified_by":"188","deleted_on":null,"deleted_by":null,"id":"17","uuid":"01952399-db75-750b-8301-972d4fa3a8c9","name":"Manager","description":"This are managers","type":null,"meta":null,"user_count":"15","organization_count":"0","permissions":[{"module":"REPORTS","can_create":false,"can_delete":false,"can_list":true,"can_read":true,"can_update":true},{"module":"MPR","can_create":true,"can_delete":true,"can_list":true,"can_read":true,"can_update":true},{"module":"DEFINITIONS","can_create":false,"can_delete":true,"can_list":true,"can_read":true,"can_update":false},{"module":"CUSTOMER_ACCOUNTS","can_create":false,"can_delete":false,"can_list":true,"can_read":false,"can_update":false},{"module":"CUSTOMER_COMMUNICATIONS","can_create":false,"can_delete":false,"can_list":true,"can_read":false,"can_update":false},{"module":"CUSTOMER_LOANS","can_create":false,"can_delete":false,"can_list":true,"can_read":false,"can_update":false},{"module":"CUSTOMER_ISSUES","can_create":true,"can_delete":false,"can_list":false,"can_read":false,"can_update":false},{"module":"CUSTOMERS","can_create":true,"can_delete":true,"can_list":true,"can_read":true,"can_update":true},{"module":"NOTIFICATION_TEMPLATES","can_create":false,"can_delete":true,"can_list":true,"can_read":true,"can_update":true},{"module":"SETTINGS_MASTER","can_create":true,"can_delete":true,"can_list":true,"can_read":true,"can_update":true},{"module":"SETTINGS","can_create":false,"can_delete":false,"can_list":true,"can_read":false,"can_update":true},{"module":"AUDIT_TRAILS","can_create":false,"can_delete":false,"can_list":true,"can_read":false,"can_update":false},{"module":"SESSIONS","can_create":false,"can_delete":false,"can_list":false,"can_read":false,"can_update":true},{"module":"Admin","can_create":true,"can_delete":true,"can_list":true,"can_read":true,"can_update":true},{"module":"PERMISSIONS","can_create":true,"can_delete":true,"can_list":true,"can_read":true,"can_update":true},{"module":"ORGANIZATIONS","can_create":false,"can_delete":false,"can_list":true,"can_read":false,"can_update":true},{"module":"ROLES","can_create":false,"can_delete":false,"can_list":true,"can_read":false,"can_update":false},{"module":"INVITES","can_create":true,"can_delete":true,"can_list":true,"can_read":true,"can_update":true},{"module":"USERS","can_create":false,"can_delete":false,"can_list":true,"can_read":false,"can_update":false},{"module":"ACCOUNTS","can_create":true,"can_delete":true,"can_list":true,"can_read":true,"can_update":true},{"module":"PROFILE","can_create":true,"can_delete":true,"can_list":true,"can_read":true,"can_update":true}]},{"created_on":"2025-02-12T16:22:05.000Z","created_by":"4","modified_on":"2025-02-18T06:17:00.000Z","modified_by":"4","deleted_on":null,"deleted_by":null,"id":"16","uuid":"0194faf7-b4b7-710f-b070-1d565a580bb2","name":"Administrator","description":"Invite Access","type":null,"meta":{},"user_count":"6","organization_count":"0","permissions":[{"module":"ROLES","can_create":false,"can_delete":false,"can_list":false,"can_read":true,"can_update":false},{"module":"PROFILE","can_create":true,"can_delete":true,"can_list":false,"can_read":true,"can_update":true},{"module":"INVITES","can_create":true,"can_delete":true,"can_list":false,"can_read":true,"can_update":true}]},{"created_on":"2025-02-10T17:33:30.000Z","created_by":null,"modified_on":"2025-02-10T17:33:30.000Z","modified_by":null,"deleted_on":null,"deleted_by":null,"id":"15","uuid":"0194f0ec-5ffa-75b9-bbb9-83b14a825c96","name":"Staff","description":"Staff role","type":"user","meta":null,"user_count":"19","organization_count":"0","permissions":[{"module":"BUDGET","can_create":true,"can_delete":true,"can_list":true,"can_read":true,"can_update":true},{"module":"COMMENT","can_create":true,"can_delete":true,"can_list":true,"can_read":true,"can_update":true},{"module":"CUSTOMER_COMMENTS","can_create":true,"can_delete":true,"can_list":true,"can_read":true,"can_update":true},{"module":"CUSTOMER_INVESTMENTS","can_create":true,"can_delete":true,"can_list":true,"can_read":true,"can_update":true},{"module":"CUSTOMER_LOANS","can_create":true,"can_delete":true,"can_list":true,"can_read":true,"can_update":true},{"module":"CUSTOMER_COMMUNICATIONS","can_create":true,"can_delete":true,"can_list":true,"can_read":true,"can_update":true},{"module":"CUSTOMER_CHANNELS","can_create":true,"can_delete":true,"can_list":true,"can_read":true,"can_update":true},{"module":"CUSTOMER_TRANSACTIONS","can_create":true,"can_delete":true,"can_list":true,"can_read":true,"can_update":true},{"module":"CUSTOMER_ACCOUNTS","can_create":true,"can_delete":true,"can_list":true,"can_read":true,"can_update":true},{"module":"CUSTOMER_ISSUES","can_create":true,"can_delete":true,"can_list":true,"can_read":true,"can_update":true},{"module":"PROFILE","can_create":true,"can_delete":true,"can_list":true,"can_read":true,"can_update":true},{"module":"ACCOUNTS","can_create":true,"can_delete":true,"can_list":true,"can_read":true,"can_update":true},{"module":"ISSUES","can_create":true,"can_delete":true,"can_list":true,"can_read":true,"can_update":true},{"module":"AUDIT_TRAILS","can_create":true,"can_delete":true,"can_list":true,"can_read":true,"can_update":true},{"module":"EVENTS","can_create":true,"can_delete":true,"can_list":true,"can_read":true,"can_update":true},{"module":"CUSTOMERS","can_create":true,"can_delete":true,"can_list":true,"can_read":true,"can_update":true}]},{"created_on":"2025-02-10T17:33:19.000Z","created_by":null,"modified_on":"2025-02-10T17:33:19.000Z","modified_by":null,"deleted_on":null,"deleted_by":null,"id":"14","uuid":"0194f0ec-33a7-7450-a91d-1cc62e9e4ca5","name":"Super Admin","description":"Super Admin role","type":"user","meta":null,"user_count":"31","organization_count":"0","permissions":[{"module":"BUDGET","can_create":true,"can_delete":true,"can_list":true,"can_read":true,"can_update":true},{"module":"COMMENT","can_create":true,"can_delete":true,"can_list":true,"can_read":true,"can_update":true},{"module":"BUDGETING","can_create":true,"can_delete":true,"can_list":true,"can_read":true,"can_update":true},{"module":"WORKFLOW","can_create":true,"can_delete":true,"can_list":true,"can_read":true,"can_update":true},{"module":"CUSTOMER_COMMENTS","can_create":true,"can_delete":true,"can_list":true,"can_read":true,"can_update":true},{"module":"CUSTOMER_INVESTMENTS","can_create":true,"can_delete":true,"can_list":true,"can_read":true,"can_update":true},{"module":"CUSTOMER_LOANS","can_create":true,"can_delete":true,"can_list":true,"can_read":true,"can_update":true},{"module":"CUSTOMER_COMMUNICATIONS","can_create":true,"can_delete":true,"can_list":true,"can_read":true,"can_update":true},{"module":"CUSTOMER_CHANNELS","can_create":true,"can_delete":true,"can_list":true,"can_read":true,"can_update":true},{"module":"CUSTOMER_TRANSACTIONS","can_create":true,"can_delete":true,"can_list":true,"can_read":true,"can_update":true},{"module":"CUSTOMER_ACCOUNTS","can_create":true,"can_delete":true,"can_list":true,"can_read":true,"can_update":true},{"module":"CUSTOMER_ISSUES","can_create":true,"can_delete":true,"can_list":true,"can_read":true,"can_update":true},{"module":"PROFILE","can_create":true,"can_delete":true,"can_list":true,"can_read":true,"can_update":true},{"module":"NOTIFICATIONS","can_create":true,"can_delete":true,"can_list":true,"can_read":true,"can_update":true},{"module":"ACCOUNTS","can_create":true,"can_delete":true,"can_list":true,"can_read":true,"can_update":true},{"module":"ISSUES","can_create":true,"can_delete":true,"can_list":true,"can_read":true,"can_update":true},{"module":"SESSIONS","can_create":true,"can_delete":true,"can_list":true,"can_read":true,"can_update":true},{"module":"SETTINGS_MASTER","can_create":true,"can_delete":true,"can_list":true,"can_read":true,"can_update":true},{"module":"AUDIT_TRAILS","can_create":true,"can_delete":true,"can_list":true,"can_read":true,"can_update":true},{"module":"EVENTS","can_create":true,"can_delete":true,"can_list":true,"can_read":true,"can_update":true},{"module":"CUSTOMERS","can_create":true,"can_delete":true,"can_list":true,"can_read":true,"can_update":true},{"module":"USERS","can_create":true,"can_delete":true,"can_list":true,"can_read":true,"can_update":true},{"module":"INVITES","can_create":true,"can_delete":true,"can_list":true,"can_read":true,"can_update":true},{"module":"PERMISSIONS","can_create":true,"can_delete":true,"can_list":true,"can_read":true,"can_update":true},{"module":"ROLES","can_create":true,"can_delete":true,"can_list":true,"can_read":true,"can_update":true},{"module":"SETTINGS","can_create":true,"can_delete":true,"can_list":true,"can_read":true,"can_update":true},{"module":"DEFINITIONS","can_create":true,"can_delete":true,"can_list":true,"can_read":true,"can_update":true},{"module":"ORGANIZATIONS","can_create":true,"can_delete":true,"can_list":true,"can_read":true,"can_update":true},{"module":"NOTIFICATION_TEMPLATES","can_create":true,"can_delete":true,"can_list":true,"can_read":true,"can_update":true},{"module":"MPR","can_create":true,"can_delete":true,"can_list":true,"can_read":true,"can_update":true},{"module":"REPORTS","can_create":true,"can_delete":true,"can_list":true,"can_read":true,"can_update":true},{"module":"Admin","can_create":true,"can_delete":true,"can_list":true,"can_read":true,"can_update":true}]}]}}