{"status":true,"response":{"total":28,"page":1,"limit":10,"totalPages":3,"data":[{"created_on":"2025-02-26T17:27:26.000Z","created_by":"4","modified_on":"2025-02-26T17:27:26.000Z","modified_by":null,"deleted_on":null,"deleted_by":null,"id":"11616","event_id":"13324","entity_type":"REPORTS","entity_id":null,"description":"Favour Elijah created REPORTS","ip_address":"10.0.0.2","location":"Lagos","meta":null,"event":{"created_on":"2025-02-26T17:27:14.000Z","created_by":"4","modified_on":"2025-02-26T17:27:14.000Z","modified_by":null,"deleted_on":null,"deleted_by":null,"id":"13324","name":"CREATE_REPORTS","description":"Favour Elijah accessed REPORTS to create","type":"CREATE_REPORTS"},"creator":{"first_name":"Favour","last_name":"Elijah","email":"QA@yopmail.com","status":"inactive","id":"4","display_name":null}},{"created_on":"2025-02-26T15:36:32.000Z","created_by":"4","modified_on":"2025-02-26T15:36:32.000Z","modified_by":null,"deleted_on":null,"deleted_by":null,"id":"11599","event_id":"13288","entity_type":"NOTIFICATION_TEMPLATES","entity_id":"31","description":"Favour Elijah updated notification template","ip_address":"10.0.0.2","location":"Lagos","meta":{"keys":["email_template"],"before":{"email_template":"sending SMS for BANK_STATEMENT_PDF"},"after":{"email_template":"<!DOCTYPE html>\n<html>\n<head>\n  <meta charset=\"UTF-8\">\n  <title>Bank Statement</title>\n  <style>\n    body {\n      font-family: Arial, Helvetica, sans-serif;\n      margin: 0;\n      padding: 0;\n      color: #333;\n      font-size: 12px;\n      line-height: 1.5;\n    }\n    .container {\n      width: 100%;\n      padding: 10px;\n    }\n    .header {\n      display: flex;\n      justify-content: space-between;\n      align-items: flex-start;\n      margin-bottom: 20px;\n      padding-bottom: 10px;\n      border-bottom: 2px solid #0056b3;\n    }\n    .logo {\n      max-width: 120px;\n      max-height: 60px;\n    }\n    .bank-info {\n      text-align: right;\n    }\n    .statement-title {\n      text-align: center;\n      font-size: 18px;\n      font-weight: bold;\n      margin: 15px 0;\n      color: #0056b3;\n    }\n    .customer-info, .statement-summary {\n      margin-bottom: 20px;\n    }\n    .info-section {\n      display: flex;\n      justify-content: space-between;\n    }\n    .info-box {\n      width: 48%;\n      padding: 10px;\n      background-color: #f5f5f5;\n      border-radius: 5px;\n    }\n    .summary-box {\n      margin-top: 10px;\n      padding: 10px;\n      background-color: #f5f5f5;\n      border-radius: 5px;\n    }\n    .summary-item {\n      display: flex;\n      justify-content: space-between;\n      padding: 3px 0;\n    }\n    .summary-label {\n      font-weight: bold;\n    }\n    .footer {\n      margin-top: 20px;\n      padding-top: 10px;\n      border-top: 1px solid #ddd;\n      text-align: center;\n      font-size: 10px;\n      color: #666;\n    }\n    .no-transactions {\n      text-align: center;\n      padding: 20px;\n      background-color: #f5f5f5;\n      border-radius: 5px;\n      font-style: italic;\n    }\n  </style>\n</head>\n<body>\n  <div class=\"container\">\n    <div class=\"header\">\n      <div>\n        <img src=\"{{bank_logo}}\" alt=\"{{organization_name}} Logo\" class=\"logo\">\n      </div>\n      <div class=\"bank-info\">\n        <h3 style=\"margin: 0; color: #0056b3;\">{{organization_name}}</h3>\n        <p style=\"margin: 5px 0;\">{{organization_address}}</p>\n        <p style=\"margin: 5px 0;\">Phone: {{organization_contact}}</p>\n        <p style=\"margin: 5px 0;\">Email: {{organization_email}}</p>\n        <p style=\"margin: 5px 0;\">Website: {{organization_website}}</p>\n      </div>\n    </div>\n\n    <div class=\"statement-title\">ACCOUNT STATEMENT</div>\n\n    <div class=\"info-section\">\n      <div class=\"info-box\">\n        <h4 style=\"margin-top: 0; color: #0056b3;\">CUSTOMER INFORMATION</h4>\n        <p><strong>Name:</strong> {{customer_name}}</p>\n        <p><strong>Address:</strong> {{customer_address}}</p>\n      </div>\n      <div class=\"info-box\">\n        <h4 style=\"margin-top: 0; color: #0056b3;\">STATEMENT INFORMATION</h4>\n        <p><strong>Generated on:</strong> {{statement_date}}</p>\n      </div>\n    </div>\n\n    <div class=\"summary-box\">\n      <h4 style=\"margin-top: 0; color: #0056b3;\">ACCOUNT SUMMARY</h4>\n      <div class=\"summary-item\">\n        <span class=\"summary-label\">Opening Balance:</span>\n        <span>{{opening_balance}}</span>\n      </div>\n      <div class=\"summary-item\">\n        <span class=\"summary-label\">Total Debits:</span>\n        <span>{{total_debits}}</span>\n      </div>\n      <div class=\"summary-item\">\n        <span class=\"summary-label\">Total Credits:</span>\n        <span>{{total_credits}}</span>\n      </div>\n      <div class=\"summary-item\" style=\"border-top: 1px solid #ddd; padding-top: 5px; font-weight: bold;\">\n        <span class=\"summary-label\">Closing Balance:</span>\n        <span>{{closing_balance}}</span>\n      </div>\n    </div>\n\n    <h4 style=\"margin: 20px 0 10px; color: #0056b3;\">TRANSACTION DETAILS</h4>\n    \n    {{transaction_table}}\n\n    <div class=\"footer\">\n      <p>This is a computer-generated statement and does not require a signature.</p>\n      <p>If you have any questions regarding this statement, please contact our customer service.</p>\n      <p>&copy; {{organization_name}}. All rights reserved.</p>\n    </div>\n  </div>\n</body>\n</html>"}},"event":{"created_on":"2025-02-26T15:36:32.000Z","created_by":"4","modified_on":"2025-02-26T15:36:32.000Z","modified_by":null,"deleted_on":null,"deleted_by":null,"id":"13288","name":"Notification Template Updated","description":"Favour Elijah accessed NOTIFICATION_TEMPLATES to update","type":"UPDATE_NOTIFICATION_TEMPLATES"},"creator":{"first_name":"Favour","last_name":"Elijah","email":"QA@yopmail.com","status":"inactive","id":"4","display_name":null}},{"created_on":"2025-02-26T15:35:14.000Z","created_by":"4","modified_on":"2025-02-26T15:35:14.000Z","modified_by":null,"deleted_on":null,"deleted_by":null,"id":"11598","event_id":"13287","entity_type":"NOTIFICATION_TEMPLATES","entity_id":"30","description":"Favour Elijah updated notification template","ip_address":"10.0.0.2","location":"Lagos","meta":{"keys":["email_template"],"before":{"email_template":"sending SMS for REPORT_PDF"},"after":{"email_template":"<!DOCTYPE html>\n<html>\n<head>\n  <meta charset=\"utf-8\">\n  <title>{{report_title}}</title>\n  <style>\n    body {\n      font-family: Arial, sans-serif;\n      margin: 0;\n      padding: 20px;\n      color: #333;\n      font-size: 12px;\n    }\n    .header {\n      text-align: center;\n      margin-bottom: 20px;\n      padding-bottom: 10px;\n      border-bottom: 2px solid #0056b3;\n    }\n    .logo {\n      max-width: 150px;\n      margin-bottom: 10px;\n    }\n    h1 {\n      color: #0056b3;\n      margin: 0;\n      font-size: 22px;\n    }\n    .report-info {\n      margin-bottom: 20px;\n    }\n    .description {\n      font-style: italic;\n      color: #666;\n      margin-bottom: 10px;\n    }\n    .date {\n      font-size: 12px;\n      color: #666;\n      margin-bottom: 15px;\n    }\n    \n    /* The CSS for tables is now included directly in the table_data placeholder \n       from the compileTemplateWithReportData method */\n    \n    .footer {\n      margin-top: 20px;\n      text-align: center;\n      font-size: 10px;\n      color: #666;\n      border-top: 1px solid #ddd;\n      padding-top: 10px;\n    }\n  </style>\n</head>\n<body>\n  <div class=\"header\">\n    <!-- Optional: Add your company logo -->\n    <!-- <img src=\"data:image/png;base64,YOUR_BASE64_LOGO\" class=\"logo\" alt=\"Company Logo\"> -->\n    <h1>{{report_title}}</h1>\n  </div>\n  \n  <div class=\"report-info\">\n    <div class=\"description\">{{report_description}}</div>\n    <div class=\"date\">Generated on: {{generated_date}}</div>\n  </div>\n  \n  <!-- The table_data placeholder will be replaced with the actual report data table -->\n  {{table_data}}\n  \n  <div class=\"footer\">\n    <p>This report was automatically generated by the NovaBank InfoPool system.</p>\n    <p>© NovaBank Group. All rights reserved.</p>\n  </div>\n</body>\n</html>"}},"event":{"created_on":"2025-02-26T15:35:14.000Z","created_by":"4","modified_on":"2025-02-26T15:35:14.000Z","modified_by":null,"deleted_on":null,"deleted_by":null,"id":"13287","name":"Notification Template Updated","description":"Favour Elijah accessed NOTIFICATION_TEMPLATES to update","type":"UPDATE_NOTIFICATION_TEMPLATES"},"creator":{"first_name":"Favour","last_name":"Elijah","email":"QA@yopmail.com","status":"inactive","id":"4","display_name":null}},{"created_on":"2025-02-26T14:57:37.000Z","created_by":"4","modified_on":"2025-02-26T14:57:37.000Z","modified_by":null,"deleted_on":null,"deleted_by":null,"id":"11595","event_id":"13277","entity_type":"DEFINITIONS","entity_id":null,"description":"Favour Elijah created a definition","ip_address":"10.0.0.2","location":"Lagos","meta":null,"event":{"created_on":"2025-02-26T14:57:37.000Z","created_by":"4","modified_on":"2025-02-26T14:57:37.000Z","modified_by":null,"deleted_on":null,"deleted_by":null,"id":"13277","name":"Definition Created","description":"Favour Elijah accessed DEFINITIONS to create","type":"CREATE_DEFINITIONS"},"creator":{"first_name":"Favour","last_name":"Elijah","email":"QA@yopmail.com","status":"inactive","id":"4","display_name":null}},{"created_on":"2025-02-26T14:55:38.000Z","created_by":"4","modified_on":"2025-02-26T14:55:38.000Z","modified_by":null,"deleted_on":null,"deleted_by":null,"id":"11594","event_id":"13276","entity_type":"DEFINITIONS","entity_id":null,"description":"Favour Elijah created a definition","ip_address":"10.0.0.2","location":"Lagos","meta":null,"event":{"created_on":"2025-02-26T14:55:38.000Z","created_by":"4","modified_on":"2025-02-26T14:55:38.000Z","modified_by":null,"deleted_on":null,"deleted_by":null,"id":"13276","name":"Definition Created","description":"Favour Elijah accessed DEFINITIONS to create","type":"CREATE_DEFINITIONS"},"creator":{"first_name":"Favour","last_name":"Elijah","email":"QA@yopmail.com","status":"inactive","id":"4","display_name":null}},{"created_on":"2025-02-25T20:36:51.000Z","created_by":"4","modified_on":"2025-02-25T20:36:51.000Z","modified_by":null,"deleted_on":null,"deleted_by":null,"id":"11555","event_id":"13231","entity_type":"INVITES","entity_id":null,"description":"Favour Elijah created INVITES","ip_address":"10.0.0.2","location":"Lagos","meta":null,"event":{"created_on":"2025-02-25T20:36:51.000Z","created_by":"4","modified_on":"2025-02-25T20:36:51.000Z","modified_by":null,"deleted_on":null,"deleted_by":null,"id":"13231","name":"CREATE_INVITES","description":"Favour Elijah accessed INVITES to CREATE","type":"CREATE_INVITES"},"creator":{"first_name":"Favour","last_name":"Elijah","email":"QA@yopmail.com","status":"inactive","id":"4","display_name":null}},{"created_on":"2025-02-25T15:24:40.000Z","created_by":"4","modified_on":"2025-02-25T15:24:40.000Z","modified_by":null,"deleted_on":null,"deleted_by":null,"id":"11538","event_id":"13188","entity_type":"ROLES","entity_id":"17","description":"Favour Elijah modified ROLES","ip_address":"10.0.0.2","location":"Lagos","meta":{"keys":["name","description","permissions"],"before":{"name":"Manager","description":"This are managers"},"after":{"name":"Manager","description":"This are managers","permissions":[{"permission_id":20,"abilities":{"can_create":true,"can_read":true,"can_update":true,"can_delete":true}},{"permission_id":19,"abilities":{"can_create":false,"can_read":false,"can_update":false,"can_delete":false}},{"permission_id":18,"abilities":{"can_create":true,"can_read":true,"can_update":true,"can_delete":true}},{"permission_id":17,"abilities":{"can_create":false,"can_read":false,"can_update":false,"can_delete":false}},{"permission_id":16,"abilities":{"can_create":false,"can_read":false,"can_update":false,"can_delete":false}},{"permission_id":15,"abilities":{"can_create":false,"can_read":false,"can_update":false,"can_delete":false}},{"permission_id":14,"abilities":{"can_create":false,"can_read":false,"can_update":false,"can_delete":false}},{"permission_id":13,"abilities":{"can_create":false,"can_read":false,"can_update":false,"can_delete":false}},{"permission_id":12,"abilities":{"can_create":false,"can_read":false,"can_update":false,"can_delete":false}},{"permission_id":11,"abilities":{"can_create":true,"can_read":true,"can_update":true,"can_delete":true}},{"permission_id":10,"abilities":{"can_create":true,"can_read":true,"can_update":false,"can_delete":false}},{"permission_id":9,"abilities":{"can_create":false,"can_read":false,"can_update":false,"can_delete":false}},{"permission_id":8,"abilities":{"can_create":false,"can_read":true,"can_update":false,"can_delete":false}},{"permission_id":7,"abilities":{"can_create":false,"can_read":false,"can_update":false,"can_delete":false}},{"permission_id":6,"abilities":{"can_create":false,"can_read":false,"can_update":false,"can_delete":false}},{"permission_id":5,"abilities":{"can_create":false,"can_read":true,"can_update":false,"can_delete":false}},{"permission_id":4,"abilities":{"can_create":false,"can_read":false,"can_update":false,"can_delete":false}},{"permission_id":3,"abilities":{"can_create":false,"can_read":false,"can_update":false,"can_delete":false}},{"permission_id":2,"abilities":{"can_create":false,"can_read":false,"can_update":false,"can_delete":false}},{"permission_id":1,"abilities":{"can_create":false,"can_read":false,"can_update":false,"can_delete":false}}]}},"event":{"created_on":"2025-02-25T15:24:40.000Z","created_by":"4","modified_on":"2025-02-25T15:24:40.000Z","modified_by":null,"deleted_on":null,"deleted_by":null,"id":"13188","name":"update_ROLES","description":"Favour Elijah accessed ROLES to update","type":"update_ROLES"},"creator":{"first_name":"Favour","last_name":"Elijah","email":"QA@yopmail.com","status":"inactive","id":"4","display_name":null}},{"created_on":"2025-02-25T15:23:43.000Z","created_by":"4","modified_on":"2025-02-25T15:23:43.000Z","modified_by":null,"deleted_on":null,"deleted_by":null,"id":"11537","event_id":"13187","entity_type":"PERMISSIONS","entity_id":null,"description":"Favour Elijah read PERMISSIONS","ip_address":"10.0.0.2","location":"Lagos","meta":null,"event":{"created_on":"2025-02-25T15:23:43.000Z","created_by":"4","modified_on":"2025-02-25T15:23:43.000Z","modified_by":null,"deleted_on":null,"deleted_by":null,"id":"13187","name":"READ_PERMISSIONS","description":"Favour Elijah accessed PERMISSIONS to READ","type":"READ_PERMISSIONS"},"creator":{"first_name":"Favour","last_name":"Elijah","email":"QA@yopmail.com","status":"inactive","id":"4","display_name":null}},{"created_on":"2025-02-25T15:23:29.000Z","created_by":"4","modified_on":"2025-02-25T15:23:29.000Z","modified_by":null,"deleted_on":null,"deleted_by":null,"id":"11536","event_id":"13186","entity_type":"PERMISSIONS","entity_id":null,"description":"Favour Elijah read PERMISSIONS","ip_address":"10.0.0.2","location":"Lagos","meta":null,"event":{"created_on":"2025-02-25T15:23:29.000Z","created_by":"4","modified_on":"2025-02-25T15:23:29.000Z","modified_by":null,"deleted_on":null,"deleted_by":null,"id":"13186","name":"READ_PERMISSIONS","description":"Favour Elijah accessed PERMISSIONS to READ","type":"READ_PERMISSIONS"},"creator":{"first_name":"Favour","last_name":"Elijah","email":"QA@yopmail.com","status":"inactive","id":"4","display_name":null}},{"created_on":"2025-02-25T14:45:54.000Z","created_by":"4","modified_on":"2025-02-25T14:45:54.000Z","modified_by":null,"deleted_on":null,"deleted_by":null,"id":"11509","event_id":"13123","entity_type":"ORGANIZATIONS","entity_id":null,"description":"Favour Elijah created ORGANIZATIONS","ip_address":"10.0.0.2","location":"Lagos","meta":null,"event":{"created_on":"2025-02-25T14:45:54.000Z","created_by":"4","modified_on":"2025-02-25T14:45:54.000Z","modified_by":null,"deleted_on":null,"deleted_by":null,"id":"13123","name":"CREATE_ORGANIZATIONS","description":"Favour Elijah accessed ORGANIZATIONS to CREATE","type":"CREATE_ORGANIZATIONS"},"creator":{"first_name":"Favour","last_name":"Elijah","email":"QA@yopmail.com","status":"inactive","id":"4","display_name":null}}]}}