{"status":true,"response":{"total":36,"page":1,"limit":10,"totalPages":4,"data":[{"module":"Administration","created_on":"2025-05-28T09:23:43.707Z","created_by":null,"modified_on":"2025-06-05T20:44:04.000Z","modified_by":null,"deleted_on":null,"deleted_by":null,"id":54,"name":"STATIC_UPLOADS","description":"Static uploads permission","meta":null},{"module":"Budget","created_on":"2025-05-25T04:55:29.842Z","created_by":null,"modified_on":"2025-06-05T20:44:04.000Z","modified_by":null,"deleted_on":null,"deleted_by":null,"id":53,"name":"COMMENT","description":"Comment permission","meta":null},{"module":"Customer 360","created_on":"2025-05-25T04:55:29.834Z","created_by":null,"modified_on":"2025-06-05T20:44:04.000Z","modified_by":null,"deleted_on":null,"deleted_by":null,"id":52,"name":"CUSTOMER_COMMENTS","description":"Customer comments permission","meta":null},{"module":"Customer 360","created_on":"2025-05-25T04:55:29.819Z","created_by":null,"modified_on":"2025-06-05T20:44:04.000Z","modified_by":null,"deleted_on":null,"deleted_by":null,"id":51,"name":"CUSTOMER_INVESTMENTS","description":"Customer investments permission","meta":null},{"module":"Customer 360","created_on":"2025-05-25T04:55:29.789Z","created_by":null,"modified_on":"2025-06-05T20:44:04.000Z","modified_by":null,"deleted_on":null,"deleted_by":null,"id":50,"name":"CUSTOMER_LOANS","description":"Customer loans permission","meta":null},{"module":"Customer 360","created_on":"2025-05-25T04:55:29.779Z","created_by":null,"modified_on":"2025-06-05T20:44:04.000Z","modified_by":null,"deleted_on":null,"deleted_by":null,"id":49,"name":"CUSTOMER_COMMUNICATIONS","description":"Customer communications permission","meta":null},{"module":"Customer 360","created_on":"2025-05-25T04:55:29.767Z","created_by":null,"modified_on":"2025-06-05T20:44:04.000Z","modified_by":null,"deleted_on":null,"deleted_by":null,"id":48,"name":"CUSTOMER_CHANNELS","description":"Customer channels permission","meta":null},{"module":"Customer 360","created_on":"2025-05-25T04:55:29.756Z","created_by":null,"modified_on":"2025-06-05T20:44:04.000Z","modified_by":null,"deleted_on":null,"deleted_by":null,"id":47,"name":"CUSTOMER_TRANSACTIONS","description":"Customer transactions permission","meta":null},{"module":"Customer 360","created_on":"2025-05-25T04:55:29.747Z","created_by":null,"modified_on":"2025-06-05T20:44:04.000Z","modified_by":null,"deleted_on":null,"deleted_by":null,"id":46,"name":"CUSTOMER_ACCOUNTS","description":"Customer accounts permission","meta":null},{"module":"Customer 360","created_on":"2025-05-25T04:55:29.735Z","created_by":null,"modified_on":"2025-06-05T20:44:04.000Z","modified_by":null,"deleted_on":null,"deleted_by":null,"id":45,"name":"CUSTOMER_ISSUES","description":"Customer issues permission","meta":null}]}}