{"status":true,"response":{"data":[{"id":"392","comment":"commenting on your account","created_on":"2025-06-18T18:50:16.000Z","edited_on":null,"created_by":"272","issue_id":null,"customer_id":"5178","created":{"id":"272","first_name":"Ayo","last_name":"Jide"},"can_edit":true,"can_delete":true,"replies":[]},{"id":"391","comment":"HEY","created_on":"2025-06-18T18:50:15.000Z","edited_on":null,"created_by":"272","issue_id":559,"customer_id":"5178","created":{"id":"272","first_name":"Ayo","last_name":"Jide"},"can_edit":true,"can_delete":true,"replies":[]},{"id":"390","comment":"hey favorite","created_on":"2025-06-15T20:11:00.000Z","edited_on":"2025-06-15T20:11:01.000Z","created_by":"272","issue_id":null,"customer_id":"5178","created":{"id":"272","first_name":"Ayo","last_name":"Jide"},"can_edit":true,"can_delete":true,"replies":[]},{"id":"388","comment":"hey favorite","created_on":"2025-06-13T17:13:47.000Z","edited_on":"2025-06-13T17:13:48.000Z","created_by":"272","issue_id":null,"customer_id":"5178","created":{"id":"272","first_name":"Ayo","last_name":"Jide"},"can_edit":true,"can_delete":true,"replies":[]},{"id":"386","comment":"hey favorite","created_on":"2025-06-08T23:08:41.000Z","edited_on":"2025-06-08T23:08:42.000Z","created_by":"272","issue_id":null,"customer_id":"5178","created":{"id":"272","first_name":"Ayo","last_name":"Jide"},"can_edit":true,"can_delete":true,"replies":[]},{"id":"384","comment":"hey favorite","created_on":"2025-06-08T23:07:31.000Z","edited_on":"2025-06-08T23:07:38.000Z","created_by":"272","issue_id":null,"customer_id":"5178","created":{"id":"272","first_name":"Ayo","last_name":"Jide"},"can_edit":true,"can_delete":true,"replies":[]},{"id":"382","comment":"hey favorite","created_on":"2025-06-08T23:02:13.000Z","edited_on":"2025-06-08T23:02:14.000Z","created_by":"272","issue_id":null,"customer_id":"5178","created":{"id":"272","first_name":"Ayo","last_name":"Jide"},"can_edit":true,"can_delete":true,"replies":[]},{"id":"380","comment":"hey favorite","created_on":"2025-06-08T22:53:25.000Z","edited_on":"2025-06-08T22:53:27.000Z","created_by":"272","issue_id":null,"customer_id":"5178","created":{"id":"272","first_name":"Ayo","last_name":"Jide"},"can_edit":true,"can_delete":true,"replies":[]},{"id":"378","comment":"hey favorite","created_on":"2025-06-08T22:38:43.000Z","edited_on":"2025-06-08T22:38:44.000Z","created_by":"272","issue_id":null,"customer_id":"5178","created":{"id":"272","first_name":"Ayo","last_name":"Jide"},"can_edit":true,"can_delete":true,"replies":[]},{"id":"376","comment":"hey favorite","created_on":"2025-06-08T22:38:00.000Z","edited_on":"2025-06-08T22:38:01.000Z","created_by":"272","issue_id":null,"customer_id":"5178","created":{"id":"272","first_name":"Ayo","last_name":"Jide"},"can_edit":true,"can_delete":true,"replies":[]}],"total":102,"page":1,"limit":10,"totalPages":11}}