{"status":true,"response":{"data":[{"created_on":"2025-06-05T22:52:44.000Z","created_by":null,"modified_on":"2025-06-05T22:52:44.000Z","modified_by":null,"deleted_on":null,"deleted_by":null,"id":"76","home_branch_code":null,"foracid":null,"acct_name":"test5926","gl_sub_head_code":null,"bacid":null,"tran_date":null,"tran_id":null,"part_tran_srl_num":null,"tran_type":null,"tran_sub_type":null,"part_tran_type":null,"acid":null,"value_date":"2025-06-11","tran_amt":null,"tran_particular":null,"sol_id":null,"ref_num":null,"tran_crncy_code":null,"rpt_code":null,"acct_pattern":null,"adjustment_type":"other","mpr_id":42},{"created_on":"2025-06-05T22:25:15.000Z","created_by":null,"modified_on":"2025-06-05T22:25:15.000Z","modified_by":null,"deleted_on":null,"deleted_by":null,"id":"74","home_branch_code":null,"foracid":null,"acct_name":"test8526","gl_sub_head_code":null,"bacid":null,"tran_date":null,"tran_id":null,"part_tran_srl_num":null,"tran_type":null,"tran_sub_type":null,"part_tran_type":null,"acid":null,"value_date":"2025-06-11","tran_amt":null,"tran_particular":null,"sol_id":null,"ref_num":null,"tran_crncy_code":null,"rpt_code":null,"acct_pattern":null,"adjustment_type":"other","mpr_id":42},{"created_on":"2025-06-05T22:19:15.000Z","created_by":null,"modified_on":"2025-06-05T22:19:15.000Z","modified_by":null,"deleted_on":null,"deleted_by":null,"id":"72","home_branch_code":null,"foracid":null,"acct_name":"test2711","gl_sub_head_code":null,"bacid":null,"tran_date":null,"tran_id":null,"part_tran_srl_num":null,"tran_type":null,"tran_sub_type":null,"part_tran_type":null,"acid":null,"value_date":"2025-06-11","tran_amt":null,"tran_particular":null,"sol_id":null,"ref_num":null,"tran_crncy_code":null,"rpt_code":null,"acct_pattern":null,"adjustment_type":"other","mpr_id":42},{"created_on":"2025-06-05T22:19:14.000Z","created_by":null,"modified_on":"2025-06-05T22:19:14.000Z","modified_by":null,"deleted_on":null,"deleted_by":null,"id":"70","home_branch_code":null,"foracid":null,"acct_name":"test2490","gl_sub_head_code":null,"bacid":null,"tran_date":null,"tran_id":null,"part_tran_srl_num":null,"tran_type":null,"tran_sub_type":null,"part_tran_type":null,"acid":null,"value_date":"2025-06-11","tran_amt":null,"tran_particular":null,"sol_id":null,"ref_num":null,"tran_crncy_code":null,"rpt_code":null,"acct_pattern":null,"adjustment_type":"other","mpr_id":42},{"created_on":"2025-06-05T19:11:56.000Z","created_by":null,"modified_on":"2025-06-05T19:11:56.000Z","modified_by":null,"deleted_on":null,"deleted_by":null,"id":"68","home_branch_code":null,"foracid":null,"acct_name":"test8561","gl_sub_head_code":null,"bacid":null,"tran_date":null,"tran_id":null,"part_tran_srl_num":null,"tran_type":null,"tran_sub_type":null,"part_tran_type":null,"acid":null,"value_date":"2025-06-11","tran_amt":null,"tran_particular":null,"sol_id":null,"ref_num":null,"tran_crncy_code":null,"rpt_code":null,"acct_pattern":null,"adjustment_type":"other","mpr_id":42},{"created_on":"2025-06-05T19:07:19.000Z","created_by":null,"modified_on":"2025-06-05T19:07:19.000Z","modified_by":null,"deleted_on":null,"deleted_by":null,"id":"66","home_branch_code":null,"foracid":null,"acct_name":"test1384","gl_sub_head_code":null,"bacid":null,"tran_date":null,"tran_id":null,"part_tran_srl_num":null,"tran_type":null,"tran_sub_type":null,"part_tran_type":null,"acid":null,"value_date":"2025-06-11","tran_amt":null,"tran_particular":null,"sol_id":null,"ref_num":null,"tran_crncy_code":null,"rpt_code":null,"acct_pattern":null,"adjustment_type":"other","mpr_id":42},{"created_on":"2025-06-05T19:06:55.000Z","created_by":null,"modified_on":"2025-06-05T19:06:55.000Z","modified_by":null,"deleted_on":null,"deleted_by":null,"id":"65","home_branch_code":null,"foracid":null,"acct_name":"test6650","gl_sub_head_code":null,"bacid":null,"tran_date":null,"tran_id":null,"part_tran_srl_num":null,"tran_type":null,"tran_sub_type":null,"part_tran_type":null,"acid":null,"value_date":"2025-06-11","tran_amt":null,"tran_particular":null,"sol_id":null,"ref_num":null,"tran_crncy_code":null,"rpt_code":null,"acct_pattern":null,"adjustment_type":"other","mpr_id":42},{"created_on":"2025-06-05T19:05:16.000Z","created_by":null,"modified_on":"2025-06-05T19:05:16.000Z","modified_by":null,"deleted_on":null,"deleted_by":null,"id":"61","home_branch_code":null,"foracid":null,"acct_name":"test721","gl_sub_head_code":null,"bacid":null,"tran_date":null,"tran_id":null,"part_tran_srl_num":null,"tran_type":null,"tran_sub_type":null,"part_tran_type":null,"acid":null,"value_date":"2025-06-11","tran_amt":null,"tran_particular":null,"sol_id":null,"ref_num":null,"tran_crncy_code":null,"rpt_code":null,"acct_pattern":null,"adjustment_type":"other","mpr_id":42},{"created_on":"2025-06-05T19:05:16.000Z","created_by":null,"modified_on":"2025-06-05T19:05:16.000Z","modified_by":null,"deleted_on":null,"deleted_by":null,"id":"60","home_branch_code":null,"foracid":null,"acct_name":"testing 1030","gl_sub_head_code":null,"bacid":null,"tran_date":null,"tran_id":null,"part_tran_srl_num":null,"tran_type":null,"tran_sub_type":null,"part_tran_type":null,"acid":null,"value_date":"2025-08-27","tran_amt":null,"tran_particular":null,"sol_id":null,"ref_num":null,"tran_crncy_code":null,"rpt_code":null,"acct_pattern":null,"adjustment_type":"other","mpr_id":42},{"created_on":"2025-06-05T19:04:07.000Z","created_by":null,"modified_on":"2025-06-05T19:04:07.000Z","modified_by":null,"deleted_on":null,"deleted_by":null,"id":"58","home_branch_code":null,"foracid":null,"acct_name":"testing 1030","gl_sub_head_code":null,"bacid":null,"tran_date":null,"tran_id":null,"part_tran_srl_num":null,"tran_type":null,"tran_sub_type":null,"part_tran_type":null,"acid":null,"value_date":"2025-08-27","tran_amt":null,"tran_particular":null,"sol_id":null,"ref_num":null,"tran_crncy_code":null,"rpt_code":null,"acct_pattern":null,"adjustment_type":"other","mpr_id":42}],"total":19,"page":"1","limit":"10","totalPages":2}}