{"status":true,"response":{"total":214,"page":1,"limit":10,"totalPages":22,"data":[{"created_on":"2025-03-21T06:46:31.000Z","created_by":"188","modified_on":"2025-03-21T06:46:31.000Z","id":"289","staff_id":null,"manager_id":null,"first_name":"","last_name":"","display_name":null,"description":null,"photo":null,"phone":null,"email":"jaden1@yopmail.com","status":"pending","last_login_date":null},{"created_on":"2025-03-20T19:14:41.000Z","created_by":"170","modified_on":"2025-03-21T05:51:01.000Z","id":"288","staff_id":null,"manager_id":null,"first_name":"","last_name":"","display_name":null,"description":null,"photo":null,"phone":null,"email":"Bede.Alugbue@novabank.ng","status":"pending","last_login_date":null},{"created_on":"2025-03-20T17:34:36.000Z","created_by":"170","modified_on":"2025-03-21T05:53:20.000Z","id":"286","staff_id":null,"manager_id":null,"first_name":"Udeme","last_name":"","display_name":null,"description":null,"photo":null,"phone":null,"email":"udeme+12@assurdly.com","status":"pending","last_login_date":null},{"created_on":"2025-03-19T17:58:55.000Z","created_by":"181","modified_on":"2025-03-19T20:18:01.000Z","id":"285","staff_id":null,"manager_id":null,"first_name":"Destinysage","last_name":"Caesarsage","display_name":null,"description":null,"photo":null,"phone":null,"email":"destinyerhabor2+deeev@gmail.com","status":"active","last_login_date":"2025-03-19T20:18:01.000Z"},{"created_on":"2025-03-19T15:04:02.000Z","created_by":"181","modified_on":"2025-03-19T15:08:23.000Z","id":"284","staff_id":null,"manager_id":null,"first_name":"Caesar","last_name":"Caesar","display_name":null,"description":null,"photo":null,"phone":null,"email":"destinyerhabor2+deve@gmail.com","status":"active","last_login_date":"2025-03-19T15:08:24.000Z"},{"created_on":"2025-03-19T11:53:53.000Z","created_by":"188","modified_on":"2025-03-21T05:37:54.000Z","id":"277","staff_id":null,"manager_id":null,"first_name":"Jaden","last_name":"Roy","display_name":null,"description":null,"photo":null,"phone":null,"email":"jaden@yopmail.com","status":"active","last_login_date":"2025-03-19T18:02:59.000Z"},{"created_on":"2025-03-19T08:55:18.000Z","created_by":"170","modified_on":"2025-03-19T16:16:54.000Z","id":"276","staff_id":null,"manager_id":null,"first_name":"Adedamola","last_name":"Olorunfemi","display_name":null,"description":null,"photo":null,"phone":null,"email":"Adedamola.Olorunfemi@novabank.ng","status":"active","last_login_date":"2025-03-19T16:16:54.000Z"},{"created_on":"2025-03-16T22:33:01.000Z","created_by":"172","modified_on":"2025-03-21T05:51:28.000Z","id":"275","staff_id":null,"manager_id":null,"first_name":"","last_name":"","display_name":null,"description":null,"photo":null,"phone":null,"email":"kris@yopmail.com","status":"pending","last_login_date":null},{"created_on":"2025-03-07T15:52:46.000Z","created_by":"188","modified_on":"2025-03-07T15:52:46.000Z","id":"273","staff_id":null,"manager_id":null,"first_name":"","last_name":"","display_name":null,"description":null,"photo":null,"phone":null,"email":"test_superadmin_staging_02@yopmail.com","status":"pending","last_login_date":null},{"created_on":"2025-03-06T07:30:57.000Z","created_by":"214","modified_on":"2025-03-06T07:34:47.000Z","id":"271","staff_id":null,"manager_id":null,"first_name":"Adewunmi","last_name":"Akinsanya","display_name":null,"description":null,"photo":null,"phone":null,"email":"adewunmiakinsanya@gmail.com","status":"active","last_login_date":"2025-03-06T07:34:48.000Z"}]}}