{"status":true,"response":{"total":46,"page":1,"limit":10,"totalPages":5,"data":[{"created_on":"2025-03-19T18:45:01.000Z","modified_on":"2025-03-21T06:13:16.000Z","id":"3206","slug":"issue-status","name":"Issue Status","description":"Issue Status","meta":null,"parent":{"slug":"root"},"creator":{"first_name":"Ayo","last_name":"Jide","email":"test_superadmin_staging_01@yopmail.com","status":"inactive","id":"272","display_name":null},"sub_definition_count":5},{"created_on":"2025-03-17T08:27:47.000Z","modified_on":"2025-03-19T13:42:52.000Z","id":"3202","slug":"issue-status","name":"Issue Status","description":"Issue Status","meta":null,"parent":{"slug":"root"},"creator":{"first_name":"Ayo","last_name":"Jide","email":"test_superadmin_staging_01@yopmail.com","status":"inactive","id":"272","display_name":null},"sub_definition_count":5},{"created_on":"2025-03-17T08:00:11.000Z","modified_on":"2025-03-17T08:00:11.000Z","id":"3201","slug":"issue-status","name":"Issue Status","description":"Issue Status","meta":null,"parent":{"slug":"root"},"creator":{"first_name":"Ayo","last_name":"Jide","email":"test_superadmin_staging_01@yopmail.com","status":"inactive","id":"272","display_name":null},"sub_definition_count":5},{"created_on":"2025-03-17T07:52:59.000Z","modified_on":"2025-03-17T07:52:59.000Z","id":"3200","slug":"issue-status","name":"Issue Status","description":"Issue Status","meta":null,"parent":{"slug":"root"},"creator":{"first_name":"Ayo","last_name":"Jide","email":"test_superadmin_staging_01@yopmail.com","status":"inactive","id":"272","display_name":null},"sub_definition_count":5},{"created_on":"2025-03-16T20:24:38.000Z","modified_on":"2025-03-19T13:43:02.000Z","id":"3199","slug":"issue-status","name":"Issue Status","description":"Issue Status","meta":null,"parent":{"slug":"root"},"creator":{"first_name":"Ayo","last_name":"Jide","email":"test_superadmin_staging_01@yopmail.com","status":"inactive","id":"272","display_name":null},"sub_definition_count":5},{"created_on":"2025-03-12T18:45:08.000Z","modified_on":"2025-03-12T18:45:08.000Z","id":"3198","slug":"issue-status","name":"Issue Status","description":"Issue Status","meta":null,"parent":{"slug":"root"},"creator":{"first_name":"Ayo","last_name":"Jide","email":"test_superadmin_staging_01@yopmail.com","status":"inactive","id":"272","display_name":null},"sub_definition_count":5},{"created_on":"2025-03-09T15:10:49.000Z","modified_on":"2025-03-21T06:13:25.000Z","id":"3197","slug":"issue-status","name":"Issue Status","description":"Issue Status","meta":null,"parent":{"slug":"root"},"creator":{"first_name":"Ayo","last_name":"Jide","email":"test_superadmin_staging_01@yopmail.com","status":"inactive","id":"272","display_name":null},"sub_definition_count":5},{"created_on":"2025-03-09T15:04:24.000Z","modified_on":"2025-03-09T15:04:24.000Z","id":"3196","slug":"issue-status","name":"Issue Status","description":"Issue Status","meta":null,"parent":{"slug":"root"},"creator":{"first_name":"Ayo","last_name":"Jide","email":"test_superadmin_staging_01@yopmail.com","status":"inactive","id":"272","display_name":null},"sub_definition_count":5},{"created_on":"2025-03-09T13:17:14.000Z","modified_on":"2025-03-09T13:17:14.000Z","id":"3195","slug":"issue-status","name":"Issue Status","description":"Issue Status","meta":null,"parent":{"slug":"root"},"creator":{"first_name":"Ayo","last_name":"Jide","email":"test_superadmin_staging_01@yopmail.com","status":"inactive","id":"272","display_name":null},"sub_definition_count":5},{"created_on":"2025-02-26T14:55:38.000Z","modified_on":"2025-02-26T14:55:38.000Z","id":"3190","slug":"report-categories","name":"Report Categories","description":"Report Categories","meta":null,"parent":{"slug":"root"},"creator":{"first_name":"Favour","last_name":"Elijah","email":"QA@yopmail.com","status":"inactive","id":"4","display_name":null},"sub_definition_count":3}]}}