{"status":true,"response":{"data":[{"created_on":"2025-06-13T18:57:54.000Z","created_by":null,"modified_on":"2025-06-13T18:57:54.000Z","modified_by":null,"deleted_on":null,"deleted_by":null,"id":"125","home_branch_code":null,"foracid":null,"acct_name":"test1555","gl_sub_head_code":null,"bacid":null,"tran_date":null,"tran_id":null,"part_tran_srl_num":null,"tran_type":null,"tran_sub_type":null,"part_tran_type":null,"acid":null,"value_date":"2025-06-19","tran_amt":null,"tran_particular":null,"sol_id":null,"ref_num":null,"tran_crncy_code":null,"rpt_code":null,"acct_pattern":null,"adjustment_type":"other","mpr_id":42},{"created_on":"2025-06-11T21:57:59.000Z","created_by":null,"modified_on":"2025-06-11T21:57:59.000Z","modified_by":null,"deleted_on":null,"deleted_by":null,"id":"123","home_branch_code":null,"foracid":null,"acct_name":"test6390","gl_sub_head_code":null,"bacid":null,"tran_date":null,"tran_id":null,"part_tran_srl_num":null,"tran_type":null,"tran_sub_type":null,"part_tran_type":null,"acid":null,"value_date":"2025-06-17","tran_amt":null,"tran_particular":null,"sol_id":null,"ref_num":null,"tran_crncy_code":null,"rpt_code":null,"acct_pattern":null,"adjustment_type":"other","mpr_id":42},{"created_on":"2025-06-08T23:08:58.000Z","created_by":null,"modified_on":"2025-06-08T23:08:58.000Z","modified_by":null,"deleted_on":null,"deleted_by":null,"id":"122","home_branch_code":null,"foracid":null,"acct_name":"test163","gl_sub_head_code":null,"bacid":null,"tran_date":null,"tran_id":null,"part_tran_srl_num":null,"tran_type":null,"tran_sub_type":null,"part_tran_type":null,"acid":null,"value_date":"2025-06-14","tran_amt":null,"tran_particular":null,"sol_id":null,"ref_num":null,"tran_crncy_code":null,"rpt_code":null,"acct_pattern":null,"adjustment_type":"other","mpr_id":42},{"created_on":"2025-06-08T22:40:06.000Z","created_by":null,"modified_on":"2025-06-08T22:40:06.000Z","modified_by":null,"deleted_on":null,"deleted_by":null,"id":"120","home_branch_code":null,"foracid":null,"acct_name":"test953","gl_sub_head_code":null,"bacid":null,"tran_date":null,"tran_id":null,"part_tran_srl_num":null,"tran_type":null,"tran_sub_type":null,"part_tran_type":null,"acid":null,"value_date":"2025-06-14","tran_amt":null,"tran_particular":null,"sol_id":null,"ref_num":null,"tran_crncy_code":null,"rpt_code":null,"acct_pattern":null,"adjustment_type":"other","mpr_id":42},{"created_on":"2025-06-08T22:33:30.000Z","created_by":null,"modified_on":"2025-06-08T22:33:30.000Z","modified_by":null,"deleted_on":null,"deleted_by":null,"id":"118","home_branch_code":null,"foracid":null,"acct_name":"test9714","gl_sub_head_code":null,"bacid":null,"tran_date":null,"tran_id":null,"part_tran_srl_num":null,"tran_type":null,"tran_sub_type":null,"part_tran_type":null,"acid":null,"value_date":"2025-06-14","tran_amt":null,"tran_particular":null,"sol_id":null,"ref_num":null,"tran_crncy_code":null,"rpt_code":null,"acct_pattern":null,"adjustment_type":"other","mpr_id":42},{"created_on":"2025-06-08T21:44:38.000Z","created_by":null,"modified_on":"2025-06-08T21:44:38.000Z","modified_by":null,"deleted_on":null,"deleted_by":null,"id":"116","home_branch_code":null,"foracid":null,"acct_name":"test4873","gl_sub_head_code":null,"bacid":null,"tran_date":null,"tran_id":null,"part_tran_srl_num":null,"tran_type":null,"tran_sub_type":null,"part_tran_type":null,"acid":null,"value_date":"2025-06-14","tran_amt":null,"tran_particular":null,"sol_id":null,"ref_num":null,"tran_crncy_code":null,"rpt_code":null,"acct_pattern":null,"adjustment_type":"other","mpr_id":42},{"created_on":"2025-06-08T21:23:26.000Z","created_by":null,"modified_on":"2025-06-08T21:23:26.000Z","modified_by":null,"deleted_on":null,"deleted_by":null,"id":"114","home_branch_code":null,"foracid":null,"acct_name":"test2684","gl_sub_head_code":null,"bacid":null,"tran_date":null,"tran_id":null,"part_tran_srl_num":null,"tran_type":null,"tran_sub_type":null,"part_tran_type":null,"acid":null,"value_date":"2025-06-14","tran_amt":null,"tran_particular":null,"sol_id":null,"ref_num":null,"tran_crncy_code":null,"rpt_code":null,"acct_pattern":null,"adjustment_type":"other","mpr_id":42},{"created_on":"2025-06-08T21:20:25.000Z","created_by":null,"modified_on":"2025-06-08T21:20:25.000Z","modified_by":null,"deleted_on":null,"deleted_by":null,"id":"112","home_branch_code":null,"foracid":null,"acct_name":"test8388","gl_sub_head_code":null,"bacid":null,"tran_date":null,"tran_id":null,"part_tran_srl_num":null,"tran_type":null,"tran_sub_type":null,"part_tran_type":null,"acid":null,"value_date":"2025-06-14","tran_amt":null,"tran_particular":null,"sol_id":null,"ref_num":null,"tran_crncy_code":null,"rpt_code":null,"acct_pattern":null,"adjustment_type":"other","mpr_id":42},{"created_on":"2025-06-08T21:17:26.000Z","created_by":null,"modified_on":"2025-06-08T21:17:26.000Z","modified_by":null,"deleted_on":null,"deleted_by":null,"id":"110","home_branch_code":null,"foracid":null,"acct_name":"test9898","gl_sub_head_code":null,"bacid":null,"tran_date":null,"tran_id":null,"part_tran_srl_num":null,"tran_type":null,"tran_sub_type":null,"part_tran_type":null,"acid":null,"value_date":"2025-06-14","tran_amt":null,"tran_particular":null,"sol_id":null,"ref_num":null,"tran_crncy_code":null,"rpt_code":null,"acct_pattern":null,"adjustment_type":"other","mpr_id":42},{"created_on":"2025-06-08T21:11:05.000Z","created_by":null,"modified_on":"2025-06-08T21:11:05.000Z","modified_by":null,"deleted_on":null,"deleted_by":null,"id":"108","home_branch_code":null,"foracid":null,"acct_name":"test7974","gl_sub_head_code":null,"bacid":null,"tran_date":null,"tran_id":null,"part_tran_srl_num":null,"tran_type":null,"tran_sub_type":null,"part_tran_type":null,"acid":null,"value_date":"2025-06-14","tran_amt":null,"tran_particular":null,"sol_id":null,"ref_num":null,"tran_crncy_code":null,"rpt_code":null,"acct_pattern":null,"adjustment_type":"other","mpr_id":42}],"total":44,"page":"1","limit":"10","totalPages":5}}