{"status":true,"response":{"data":[{"account_id":"NB5000029","account_number":"1001012469","account_name":"NKECHI BELLO-NB5000029","account_short_name":"BELLO-NB50","customer_id":"4790","scheme_code":"1001","account_open_date":"2019-11-26T00:00:00.000Z","active_status":"","account_close_date":"1901-01-01T00:00:00.000Z","ledger_balance":"0.0000","currency_code":"NGN","bank_id":"01","sol_id":"001","deleted_flag":"N","account_ownership":"C","closure_remarks":null,"entity_creation_flag":"Y","account_prefix":"10","account_num":" 01012469","bacid":null,"employee_id":null,"gl_sub_head_code":"20002","debit_balance_limit":"9999999999999.9900","account_report_code":"1001","freeze_code":"","freeze_reason_code":null,"account_close_flag":"N","unclear_balance":"0.0000","last_transaction_date":"2023-09-29T00:00:00.000Z","mode_of_operation_code":"011","scheme_type":"ODA","iban_number":null,"native_language_name":null,"phone_number":null,"last_modified_date":"2025-01-08T00:00:00.000Z","cif_id":"C00001083"},{"account_id":"NB5000038","account_number":"1005010274","account_name":"NKECHI BELLO-NB5000038","account_short_name":"BELLO-NB50","customer_id":"4790","scheme_code":"1005","account_open_date":"2021-07-13T00:00:00.000Z","active_status":"","account_close_date":"1901-01-01T00:00:00.000Z","ledger_balance":"0.0000","currency_code":"USD","bank_id":"01","sol_id":"001","deleted_flag":"N","account_ownership":"C","closure_remarks":null,"entity_creation_flag":"Y","account_prefix":"10","account_num":" 05010274","bacid":null,"employee_id":null,"gl_sub_head_code":"20002","debit_balance_limit":"9999999999999.9900","account_report_code":"1005","freeze_code":"","freeze_reason_code":null,"account_close_flag":"N","unclear_balance":"0.0000","last_transaction_date":"2023-02-01T00:00:00.000Z","mode_of_operation_code":"011","scheme_type":"ODA","iban_number":null,"native_language_name":null,"phone_number":null,"last_modified_date":"2023-04-03T00:00:00.000Z","cif_id":"C00001083"},{"account_id":"NB5000166","account_number":"6001020113","account_name":"NKECHI BELLO-NB5000166","account_short_name":"BELLO-NB50","customer_id":"4790","scheme_code":"6001","account_open_date":"2020-03-03T00:00:00.000Z","active_status":"","account_close_date":"1901-01-01T00:00:00.000Z","ledger_balance":"0.0100","currency_code":"NGN","bank_id":"01","sol_id":"001","deleted_flag":"N","account_ownership":"C","closure_remarks":null,"entity_creation_flag":"Y","account_prefix":"60","account_num":" 01020113","bacid":null,"employee_id":null,"gl_sub_head_code":"50003","debit_balance_limit":"9999999999999.9900","account_report_code":"6001","freeze_code":"","freeze_reason_code":null,"account_close_flag":"N","unclear_balance":"0.0000","last_transaction_date":"2023-02-01T00:00:00.000Z","mode_of_operation_code":"011","scheme_type":"ODA","iban_number":null,"native_language_name":null,"phone_number":null,"last_modified_date":"2023-02-02T00:00:00.000Z","cif_id":"C00001083"},{"account_id":"NB5000776","account_number":"1301010684","account_name":"NKECHI BELLO-NB5000776","account_short_name":"BELLO-NB50","customer_id":"4790","scheme_code":"1301","account_open_date":"2020-02-25T00:00:00.000Z","active_status":"","account_close_date":"1901-01-01T00:00:00.000Z","ledger_balance":"4683.2500","currency_code":"USD","bank_id":"01","sol_id":"001","deleted_flag":"N","account_ownership":"C","closure_remarks":null,"entity_creation_flag":"Y","account_prefix":"13","account_num":" 01010684","bacid":null,"employee_id":null,"gl_sub_head_code":"20003","debit_balance_limit":"9999999999999.9900","account_report_code":"1301","freeze_code":"","freeze_reason_code":null,"account_close_flag":"N","unclear_balance":"0.0000","last_transaction_date":"2023-02-01T00:00:00.000Z","mode_of_operation_code":"011","scheme_type":"ODA","iban_number":null,"native_language_name":null,"phone_number":null,"last_modified_date":"2023-02-02T00:00:00.000Z","cif_id":"C00001083"},{"account_id":"NB5000814","account_number":"5020010123","account_name":"NKECHI BELLO-NB5000814","account_short_name":"BELLO-NB50","customer_id":"4790","scheme_code":"5020","account_open_date":"2020-05-13T00:00:00.000Z","active_status":"","account_close_date":"1901-01-01T00:00:00.000Z","ledger_balance":"0.0000","currency_code":"USD","bank_id":"01","sol_id":"001","deleted_flag":"N","account_ownership":"C","closure_remarks":null,"entity_creation_flag":"Y","account_prefix":"50","account_num":" 20010123","bacid":null,"employee_id":null,"gl_sub_head_code":"25004","debit_balance_limit":"9999999999999.9900","account_report_code":"5020","freeze_code":"","freeze_reason_code":null,"account_close_flag":"N","unclear_balance":"0.0000","last_transaction_date":"2022-10-11T00:00:00.000Z","mode_of_operation_code":"011","scheme_type":"ODA","iban_number":null,"native_language_name":null,"phone_number":null,"last_modified_date":"2024-12-30T00:00:00.000Z","cif_id":"C00001083"},{"account_id":"NB5000899","account_number":"1010010197","account_name":"NKECHI BELLO-NB5000899","account_short_name":"BELLO-NB50","customer_id":"4790","scheme_code":"1010","account_open_date":"2020-06-02T00:00:00.000Z","active_status":"","account_close_date":"1901-01-01T00:00:00.000Z","ledger_balance":"100228708.2000","currency_code":"NGN","bank_id":"01","sol_id":"001","deleted_flag":"N","account_ownership":"C","closure_remarks":null,"entity_creation_flag":"Y","account_prefix":"10","account_num":" 10010197","bacid":null,"employee_id":null,"gl_sub_head_code":"24002","debit_balance_limit":"9999999999999.9900","account_report_code":"1010","freeze_code":"","freeze_reason_code":null,"account_close_flag":"N","unclear_balance":"0.0000","last_transaction_date":"2023-06-09T00:00:00.000Z","mode_of_operation_code":"011","scheme_type":"ODA","iban_number":null,"native_language_name":null,"phone_number":null,"last_modified_date":"2023-02-02T00:00:00.000Z","cif_id":"C00001083"},{"account_id":"NB5002170","account_number":"6001010415","account_name":"NKECHI BELLO-NB5002170","account_short_name":"BELLO-NB50","customer_id":"4790","scheme_code":"6001","account_open_date":"2020-03-02T00:00:00.000Z","active_status":"","account_close_date":"1901-01-01T00:00:00.000Z","ledger_balance":"0.0000","currency_code":"NGN","bank_id":"01","sol_id":"001","deleted_flag":"N","account_ownership":"C","closure_remarks":null,"entity_creation_flag":"Y","account_prefix":"60","account_num":" 01010415","bacid":null,"employee_id":null,"gl_sub_head_code":"50003","debit_balance_limit":"9999999999999.9900","account_report_code":"6001","freeze_code":"","freeze_reason_code":null,"account_close_flag":"N","unclear_balance":"0.0000","last_transaction_date":"1901-01-01T00:00:00.000Z","mode_of_operation_code":"011","scheme_type":"ODA","iban_number":null,"native_language_name":null,"phone_number":null,"last_modified_date":"2023-02-02T00:00:00.000Z","cif_id":"C00001083"},{"account_id":"NB5002434","account_number":"2002010610","account_name":"NKECHI BELLO-NB5002434","account_short_name":"BELLO-NB50","customer_id":"4790","scheme_code":"2002","account_open_date":"2020-05-28T00:00:00.000Z","active_status":"","account_close_date":"1901-01-01T00:00:00.000Z","ledger_balance":"0.0000","currency_code":"NGN","bank_id":"01","sol_id":"001","deleted_flag":"N","account_ownership":"C","closure_remarks":null,"entity_creation_flag":"Y","account_prefix":"20","account_num":" 02010610","bacid":null,"employee_id":null,"gl_sub_head_code":"25002","debit_balance_limit":"9999999999999.9900","account_report_code":"2002","freeze_code":"","freeze_reason_code":null,"account_close_flag":"N","unclear_balance":"0.0000","last_transaction_date":"2021-03-31T00:00:00.000Z","mode_of_operation_code":"011","scheme_type":"ODA","iban_number":null,"native_language_name":null,"phone_number":null,"last_modified_date":"2023-02-02T00:00:00.000Z","cif_id":"C00001083"},{"account_id":"NB5002322","account_number":"5015010114","account_name":"NKECHI BELLO-NB5002322","account_short_name":"BELLO-NB50","customer_id":"4790","scheme_code":"5015","account_open_date":"2020-01-01T00:00:00.000Z","active_status":"","account_close_date":"1901-01-01T00:00:00.000Z","ledger_balance":"0.0000","currency_code":"USD","bank_id":"01","sol_id":"001","deleted_flag":"N","account_ownership":"C","closure_remarks":null,"entity_creation_flag":"Y","account_prefix":"50","account_num":" 15010114","bacid":null,"employee_id":null,"gl_sub_head_code":"23001","debit_balance_limit":"0.0000","account_report_code":"5015","freeze_code":"","freeze_reason_code":null,"account_close_flag":"N","unclear_balance":"0.0000","last_transaction_date":"2022-07-13T00:00:00.000Z","mode_of_operation_code":"011","scheme_type":"CAA","iban_number":null,"native_language_name":null,"phone_number":null,"last_modified_date":"2023-02-02T00:00:00.000Z","cif_id":"C00001083"},{"account_id":"NB5005392","account_number":"1600100316","account_name":"NKECHI BELLO-NB5005392","account_short_name":"BELLO-NB50","customer_id":"4790","scheme_code":"16001","account_open_date":"2023-03-30T00:00:00.000Z","active_status":"","account_close_date":"2023-09-29T00:00:00.000Z","ledger_balance":"0.0000","currency_code":"NGN","bank_id":"01","sol_id":"001","deleted_flag":"N","account_ownership":"C","closure_remarks":null,"entity_creation_flag":"Y","account_prefix":"16","account_num":" 00100316","bacid":null,"employee_id":null,"gl_sub_head_code":"15002","debit_balance_limit":"0.0000","account_report_code":"16001","freeze_code":"","freeze_reason_code":null,"account_close_flag":"Y","unclear_balance":"0.0000","last_transaction_date":"2023-09-29T00:00:00.000Z","mode_of_operation_code":null,"scheme_type":"LAA","iban_number":null,"native_language_name":null,"phone_number":null,"last_modified_date":"2023-09-29T00:00:00.000Z","cif_id":"C00001083"}],"total":57,"page":1,"limit":10,"totalPages":6}}