{"status":true,"response":{"data":[{"transaction_id":"M00001627","part_transaction_serial_number":"   1","transaction_date":"2024-12-30T00:00:00.000Z","transaction_type":"T","reference_number":null,"svs_transaction_id":null,"customer_id":"4790","transaction_sub_type":"BI","part_transaction_type":"D","account_id":"NB5013509","value_date":"2024-12-30T00:00:00.000Z","transaction_amount":"110912.2600","transaction_particular":"Loan Disbursement Debit For 1600304677","entry_user_id":"FA247","entry_date":"2024-12-30T00:00:00.000Z","currency_code":null,"transaction_remarks":null,"bank_id":"01","gl_sub_head_code":"15005","transaction_currency_code":"USD","solution_id":"001","foreign_transaction_amount":"0.0000","rate_code":null,"rate":"1.0000000000","navigation_flag":"","reference_amount":"110912.2600","branch_code":null,"posted_flag":"Y","print_advice_indicator":"","posted_date":"2024-12-30T00:00:00.000Z","module_id":"LA","last_changed_user_id":"UU050","last_changed_time":"2024-12-30T00:00:00.000Z","record_created_user_id":"UU050","record_created_time":"2024-12-30T00:00:00.000Z","transaction_sequence_count":2,"user_defined_module_key":null,"reversal_date":null,"reversal_status":"","used_sanction_limit":0,"used_pool_amount":0,"account_balance":0,"load_date":"2025-01-04T13:34:57.000Z","account":{"account_id":"NB5013509","account_number":"1600304677","account_name":"NKECHI BELLO-NB5013509","account_short_name":"BELLO-NB50","customer_id":"4790","scheme_code":"16003","account_open_date":"2024-12-30T00:00:00.000Z","active_status":"","account_close_date":"1901-01-01T00:00:00.000Z","ledger_balance":"-110912.2600","currency_code":"USD","bank_id":"01","sol_id":"001","deleted_flag":"N","account_ownership":"C","closure_remarks":null,"entity_creation_flag":"Y","account_prefix":"16","account_num":" 00304677","bacid":null,"employee_id":null,"gl_sub_head_code":"15005","debit_balance_limit":"0.0000","account_report_code":"16003","freeze_code":"","freeze_reason_code":null,"account_close_flag":"N","unclear_balance":"0.0000","last_transaction_date":"1901-01-01T00:00:00.000Z","mode_of_operation_code":null,"scheme_type":"LAA","iban_number":null,"native_language_name":null,"phone_number":null,"last_modified_date":"2024-12-30T00:00:00.000Z","cif_id":"C00001083"}},{"transaction_id":"M00001627","part_transaction_serial_number":"   2","transaction_date":"2024-12-30T00:00:00.000Z","transaction_type":"T","reference_number":null,"svs_transaction_id":null,"customer_id":"4790","transaction_sub_type":"BI","part_transaction_type":"C","account_id":"NB5000814","value_date":"2024-12-30T00:00:00.000Z","transaction_amount":"110912.2600","transaction_particular":"Loan Disbursement Credit For 1600304677","entry_user_id":"FA247","entry_date":"2024-12-30T00:00:00.000Z","currency_code":null,"transaction_remarks":null,"bank_id":"01","gl_sub_head_code":"25004","transaction_currency_code":"USD","solution_id":"001","foreign_transaction_amount":"0.0000","rate_code":null,"rate":"1.0000000000","navigation_flag":"","reference_amount":"110912.2600","branch_code":null,"posted_flag":"Y","print_advice_indicator":"","posted_date":"2024-12-30T00:00:00.000Z","module_id":"LA","last_changed_user_id":"UU050","last_changed_time":"2024-12-30T00:00:00.000Z","record_created_user_id":"UU050","record_created_time":"2024-12-30T00:00:00.000Z","transaction_sequence_count":2,"user_defined_module_key":null,"reversal_date":null,"reversal_status":"","used_sanction_limit":0,"used_pool_amount":0,"account_balance":0,"load_date":"2025-01-04T13:34:58.000Z","account":{"account_id":"NB5000814","account_number":"5020010123","account_name":"NKECHI BELLO-NB5000814","account_short_name":"BELLO-NB50","customer_id":"4790","scheme_code":"5020","account_open_date":"2020-05-13T00:00:00.000Z","active_status":"","account_close_date":"1901-01-01T00:00:00.000Z","ledger_balance":"0.0000","currency_code":"USD","bank_id":"01","sol_id":"001","deleted_flag":"N","account_ownership":"C","closure_remarks":null,"entity_creation_flag":"Y","account_prefix":"50","account_num":" 20010123","bacid":null,"employee_id":null,"gl_sub_head_code":"25004","debit_balance_limit":"9999999999999.9900","account_report_code":"5020","freeze_code":"","freeze_reason_code":null,"account_close_flag":"N","unclear_balance":"0.0000","last_transaction_date":"2022-10-11T00:00:00.000Z","mode_of_operation_code":"011","scheme_type":"ODA","iban_number":null,"native_language_name":null,"phone_number":null,"last_modified_date":"2024-12-30T00:00:00.000Z","cif_id":"C00001083"}},{"transaction_id":"M00001632","part_transaction_serial_number":"   1","transaction_date":"2024-12-30T00:00:00.000Z","transaction_type":"T","reference_number":null,"svs_transaction_id":null,"customer_id":"4790","transaction_sub_type":"BI","part_transaction_type":"D","account_id":"NB5013508","value_date":"2024-12-30T00:00:00.000Z","transaction_amount":"120811.1700","transaction_particular":"Loan Disbursement Debit For 1600304660","entry_user_id":"FA247","entry_date":"2024-12-30T00:00:00.000Z","currency_code":null,"transaction_remarks":null,"bank_id":"01","gl_sub_head_code":"15005","transaction_currency_code":"USD","solution_id":"001","foreign_transaction_amount":"0.0000","rate_code":null,"rate":"1.0000000000","navigation_flag":"","reference_amount":"120811.1700","branch_code":null,"posted_flag":"Y","print_advice_indicator":"","posted_date":"2024-12-30T00:00:00.000Z","module_id":"LA","last_changed_user_id":"UU050","last_changed_time":"2024-12-30T00:00:00.000Z","record_created_user_id":"UU050","record_created_time":"2024-12-30T00:00:00.000Z","transaction_sequence_count":2,"user_defined_module_key":null,"reversal_date":null,"reversal_status":"","used_sanction_limit":0,"used_pool_amount":0,"account_balance":0,"load_date":"2025-01-04T13:34:59.000Z","account":{"account_id":"NB5013508","account_number":"1600304660","account_name":"NKECHI BELLO-NB5013508","account_short_name":"BELLO-NB50","customer_id":"4790","scheme_code":"16003","account_open_date":"2024-12-30T00:00:00.000Z","active_status":"","account_close_date":"1901-01-01T00:00:00.000Z","ledger_balance":"-120811.1700","currency_code":"USD","bank_id":"01","sol_id":"001","deleted_flag":"N","account_ownership":"C","closure_remarks":null,"entity_creation_flag":"Y","account_prefix":"16","account_num":" 00304660","bacid":null,"employee_id":null,"gl_sub_head_code":"15005","debit_balance_limit":"0.0000","account_report_code":"16003","freeze_code":"","freeze_reason_code":null,"account_close_flag":"N","unclear_balance":"0.0000","last_transaction_date":"1901-01-01T00:00:00.000Z","mode_of_operation_code":null,"scheme_type":"LAA","iban_number":null,"native_language_name":null,"phone_number":null,"last_modified_date":"2024-12-30T00:00:00.000Z","cif_id":"C00001083"}},{"transaction_id":"M00001632","part_transaction_serial_number":"   2","transaction_date":"2024-12-30T00:00:00.000Z","transaction_type":"T","reference_number":null,"svs_transaction_id":null,"customer_id":"4790","transaction_sub_type":"BI","part_transaction_type":"C","account_id":"NB5000814","value_date":"2024-12-30T00:00:00.000Z","transaction_amount":"120811.1700","transaction_particular":"Loan Disbursement Credit For 1600304660","entry_user_id":"FA247","entry_date":"2024-12-30T00:00:00.000Z","currency_code":null,"transaction_remarks":null,"bank_id":"01","gl_sub_head_code":"25004","transaction_currency_code":"USD","solution_id":"001","foreign_transaction_amount":"0.0000","rate_code":null,"rate":"1.0000000000","navigation_flag":"","reference_amount":"120811.1700","branch_code":null,"posted_flag":"Y","print_advice_indicator":"","posted_date":"2024-12-30T00:00:00.000Z","module_id":"LA","last_changed_user_id":"UU050","last_changed_time":"2024-12-30T00:00:00.000Z","record_created_user_id":"UU050","record_created_time":"2024-12-30T00:00:00.000Z","transaction_sequence_count":2,"user_defined_module_key":null,"reversal_date":null,"reversal_status":"","used_sanction_limit":0,"used_pool_amount":0,"account_balance":0,"load_date":"2025-01-04T13:34:59.000Z","account":{"account_id":"NB5000814","account_number":"5020010123","account_name":"NKECHI BELLO-NB5000814","account_short_name":"BELLO-NB50","customer_id":"4790","scheme_code":"5020","account_open_date":"2020-05-13T00:00:00.000Z","active_status":"","account_close_date":"1901-01-01T00:00:00.000Z","ledger_balance":"0.0000","currency_code":"USD","bank_id":"01","sol_id":"001","deleted_flag":"N","account_ownership":"C","closure_remarks":null,"entity_creation_flag":"Y","account_prefix":"50","account_num":" 20010123","bacid":null,"employee_id":null,"gl_sub_head_code":"25004","debit_balance_limit":"9999999999999.9900","account_report_code":"5020","freeze_code":"","freeze_reason_code":null,"account_close_flag":"N","unclear_balance":"0.0000","last_transaction_date":"2022-10-11T00:00:00.000Z","mode_of_operation_code":"011","scheme_type":"ODA","iban_number":null,"native_language_name":null,"phone_number":null,"last_modified_date":"2024-12-30T00:00:00.000Z","cif_id":"C00001083"}},{"transaction_id":"M00001634","part_transaction_serial_number":"   1","transaction_date":"2024-12-30T00:00:00.000Z","transaction_type":"T","reference_number":null,"svs_transaction_id":null,"customer_id":"4790","transaction_sub_type":"BI","part_transaction_type":"D","account_id":"NB5013507","value_date":"2024-12-30T00:00:00.000Z","transaction_amount":"121266.8700","transaction_particular":"Loan Disbursement Debit For 1600304653","entry_user_id":"FA247","entry_date":"2024-12-30T00:00:00.000Z","currency_code":null,"transaction_remarks":null,"bank_id":"01","gl_sub_head_code":"15005","transaction_currency_code":"USD","solution_id":"001","foreign_transaction_amount":"0.0000","rate_code":null,"rate":"1.0000000000","navigation_flag":"","reference_amount":"121266.8700","branch_code":null,"posted_flag":"Y","print_advice_indicator":"","posted_date":"2024-12-30T00:00:00.000Z","module_id":"LA","last_changed_user_id":"UU050","last_changed_time":"2024-12-30T00:00:00.000Z","record_created_user_id":"UU050","record_created_time":"2024-12-30T00:00:00.000Z","transaction_sequence_count":2,"user_defined_module_key":null,"reversal_date":null,"reversal_status":"","used_sanction_limit":0,"used_pool_amount":0,"account_balance":0,"load_date":"2025-01-04T13:35:00.000Z","account":{"account_id":"NB5013507","account_number":"1600304653","account_name":"NKECHI BELLO-NB5013507","account_short_name":"BELLO-NB50","customer_id":"4790","scheme_code":"16003","account_open_date":"2024-12-30T00:00:00.000Z","active_status":"","account_close_date":"1901-01-01T00:00:00.000Z","ledger_balance":"-121266.8700","currency_code":"USD","bank_id":"01","sol_id":"001","deleted_flag":"N","account_ownership":"C","closure_remarks":null,"entity_creation_flag":"Y","account_prefix":"16","account_num":" 00304653","bacid":null,"employee_id":null,"gl_sub_head_code":"15005","debit_balance_limit":"0.0000","account_report_code":"16003","freeze_code":"","freeze_reason_code":null,"account_close_flag":"N","unclear_balance":"0.0000","last_transaction_date":"1901-01-01T00:00:00.000Z","mode_of_operation_code":null,"scheme_type":"LAA","iban_number":null,"native_language_name":null,"phone_number":null,"last_modified_date":"2024-12-30T00:00:00.000Z","cif_id":"C00001083"}},{"transaction_id":"M00001634","part_transaction_serial_number":"   2","transaction_date":"2024-12-30T00:00:00.000Z","transaction_type":"T","reference_number":null,"svs_transaction_id":null,"customer_id":"4790","transaction_sub_type":"BI","part_transaction_type":"C","account_id":"NB5000814","value_date":"2024-12-30T00:00:00.000Z","transaction_amount":"121266.8700","transaction_particular":"Loan Disbursement Credit For 1600304653","entry_user_id":"FA247","entry_date":"2024-12-30T00:00:00.000Z","currency_code":null,"transaction_remarks":null,"bank_id":"01","gl_sub_head_code":"25004","transaction_currency_code":"USD","solution_id":"001","foreign_transaction_amount":"0.0000","rate_code":null,"rate":"1.0000000000","navigation_flag":"","reference_amount":"121266.8700","branch_code":null,"posted_flag":"Y","print_advice_indicator":"","posted_date":"2024-12-30T00:00:00.000Z","module_id":"LA","last_changed_user_id":"UU050","last_changed_time":"2024-12-30T00:00:00.000Z","record_created_user_id":"UU050","record_created_time":"2024-12-30T00:00:00.000Z","transaction_sequence_count":2,"user_defined_module_key":null,"reversal_date":null,"reversal_status":"","used_sanction_limit":0,"used_pool_amount":0,"account_balance":0,"load_date":"2025-01-04T13:35:00.000Z","account":{"account_id":"NB5000814","account_number":"5020010123","account_name":"NKECHI BELLO-NB5000814","account_short_name":"BELLO-NB50","customer_id":"4790","scheme_code":"5020","account_open_date":"2020-05-13T00:00:00.000Z","active_status":"","account_close_date":"1901-01-01T00:00:00.000Z","ledger_balance":"0.0000","currency_code":"USD","bank_id":"01","sol_id":"001","deleted_flag":"N","account_ownership":"C","closure_remarks":null,"entity_creation_flag":"Y","account_prefix":"50","account_num":" 20010123","bacid":null,"employee_id":null,"gl_sub_head_code":"25004","debit_balance_limit":"9999999999999.9900","account_report_code":"5020","freeze_code":"","freeze_reason_code":null,"account_close_flag":"N","unclear_balance":"0.0000","last_transaction_date":"2022-10-11T00:00:00.000Z","mode_of_operation_code":"011","scheme_type":"ODA","iban_number":null,"native_language_name":null,"phone_number":null,"last_modified_date":"2024-12-30T00:00:00.000Z","cif_id":"C00001083"}},{"transaction_id":"M00001637","part_transaction_serial_number":"   1","transaction_date":"2024-12-30T00:00:00.000Z","transaction_type":"T","reference_number":null,"svs_transaction_id":null,"customer_id":"4790","transaction_sub_type":"BI","part_transaction_type":"D","account_id":"NB5013510","value_date":"2024-12-30T00:00:00.000Z","transaction_amount":"109711.8900","transaction_particular":"Loan Disbursement Debit For 1600304684","entry_user_id":"FA247","entry_date":"2024-12-30T00:00:00.000Z","currency_code":null,"transaction_remarks":null,"bank_id":"01","gl_sub_head_code":"15005","transaction_currency_code":"USD","solution_id":"001","foreign_transaction_amount":"0.0000","rate_code":null,"rate":"1.0000000000","navigation_flag":"","reference_amount":"109711.8900","branch_code":null,"posted_flag":"Y","print_advice_indicator":"","posted_date":"2024-12-30T00:00:00.000Z","module_id":"LA","last_changed_user_id":"UU050","last_changed_time":"2024-12-30T00:00:00.000Z","record_created_user_id":"UU050","record_created_time":"2024-12-30T00:00:00.000Z","transaction_sequence_count":2,"user_defined_module_key":null,"reversal_date":null,"reversal_status":"","used_sanction_limit":0,"used_pool_amount":0,"account_balance":0,"load_date":"2025-01-04T13:35:02.000Z","account":{"account_id":"NB5013510","account_number":"1600304684","account_name":"NKECHI BELLO-NB5013510","account_short_name":"BELLO-NB50","customer_id":"4790","scheme_code":"16003","account_open_date":"2024-12-30T00:00:00.000Z","active_status":"","account_close_date":"1901-01-01T00:00:00.000Z","ledger_balance":"-109711.8900","currency_code":"USD","bank_id":"01","sol_id":"001","deleted_flag":"N","account_ownership":"C","closure_remarks":null,"entity_creation_flag":"Y","account_prefix":"16","account_num":" 00304684","bacid":null,"employee_id":null,"gl_sub_head_code":"15005","debit_balance_limit":"0.0000","account_report_code":"16003","freeze_code":"","freeze_reason_code":null,"account_close_flag":"N","unclear_balance":"0.0000","last_transaction_date":"1901-01-01T00:00:00.000Z","mode_of_operation_code":null,"scheme_type":"LAA","iban_number":null,"native_language_name":null,"phone_number":null,"last_modified_date":"2024-12-30T00:00:00.000Z","cif_id":"C00001083"}},{"transaction_id":"M00001637","part_transaction_serial_number":"   2","transaction_date":"2024-12-30T00:00:00.000Z","transaction_type":"T","reference_number":null,"svs_transaction_id":null,"customer_id":"4790","transaction_sub_type":"BI","part_transaction_type":"C","account_id":"NB5000814","value_date":"2024-12-30T00:00:00.000Z","transaction_amount":"109711.8900","transaction_particular":"Loan Disbursement Credit For 1600304684","entry_user_id":"FA247","entry_date":"2024-12-30T00:00:00.000Z","currency_code":null,"transaction_remarks":null,"bank_id":"01","gl_sub_head_code":"25004","transaction_currency_code":"USD","solution_id":"001","foreign_transaction_amount":"0.0000","rate_code":null,"rate":"1.0000000000","navigation_flag":"","reference_amount":"109711.8900","branch_code":null,"posted_flag":"Y","print_advice_indicator":"","posted_date":"2024-12-30T00:00:00.000Z","module_id":"LA","last_changed_user_id":"UU050","last_changed_time":"2024-12-30T00:00:00.000Z","record_created_user_id":"UU050","record_created_time":"2024-12-30T00:00:00.000Z","transaction_sequence_count":2,"user_defined_module_key":null,"reversal_date":null,"reversal_status":"","used_sanction_limit":0,"used_pool_amount":0,"account_balance":0,"load_date":"2025-01-04T13:35:02.000Z","account":{"account_id":"NB5000814","account_number":"5020010123","account_name":"NKECHI BELLO-NB5000814","account_short_name":"BELLO-NB50","customer_id":"4790","scheme_code":"5020","account_open_date":"2020-05-13T00:00:00.000Z","active_status":"","account_close_date":"1901-01-01T00:00:00.000Z","ledger_balance":"0.0000","currency_code":"USD","bank_id":"01","sol_id":"001","deleted_flag":"N","account_ownership":"C","closure_remarks":null,"entity_creation_flag":"Y","account_prefix":"50","account_num":" 20010123","bacid":null,"employee_id":null,"gl_sub_head_code":"25004","debit_balance_limit":"9999999999999.9900","account_report_code":"5020","freeze_code":"","freeze_reason_code":null,"account_close_flag":"N","unclear_balance":"0.0000","last_transaction_date":"2022-10-11T00:00:00.000Z","mode_of_operation_code":"011","scheme_type":"ODA","iban_number":null,"native_language_name":null,"phone_number":null,"last_modified_date":"2024-12-30T00:00:00.000Z","cif_id":"C00001083"}},{"transaction_id":"M00001641","part_transaction_serial_number":"   1","transaction_date":"2024-12-30T00:00:00.000Z","transaction_type":"T","reference_number":null,"svs_transaction_id":null,"customer_id":"4790","transaction_sub_type":"BI","part_transaction_type":"D","account_id":"NB5013506","value_date":"2024-12-30T00:00:00.000Z","transaction_amount":"122610.0900","transaction_particular":"Loan Disbursement Debit For 1600304646","entry_user_id":"FA247","entry_date":"2024-12-30T00:00:00.000Z","currency_code":null,"transaction_remarks":null,"bank_id":"01","gl_sub_head_code":"15005","transaction_currency_code":"USD","solution_id":"001","foreign_transaction_amount":"0.0000","rate_code":null,"rate":"1.0000000000","navigation_flag":"","reference_amount":"122610.0900","branch_code":null,"posted_flag":"Y","print_advice_indicator":"","posted_date":"2024-12-30T00:00:00.000Z","module_id":"LA","last_changed_user_id":"UU050","last_changed_time":"2024-12-30T00:00:00.000Z","record_created_user_id":"UU050","record_created_time":"2024-12-30T00:00:00.000Z","transaction_sequence_count":2,"user_defined_module_key":null,"reversal_date":null,"reversal_status":"","used_sanction_limit":0,"used_pool_amount":0,"account_balance":0,"load_date":"2025-01-04T13:35:03.000Z","account":{"account_id":"NB5013506","account_number":"1600304646","account_name":"NKECHI BELLO-NB5013506","account_short_name":"BELLO-NB50","customer_id":"4790","scheme_code":"16003","account_open_date":"2024-12-30T00:00:00.000Z","active_status":"","account_close_date":"1901-01-01T00:00:00.000Z","ledger_balance":"-122610.0900","currency_code":"USD","bank_id":"01","sol_id":"001","deleted_flag":"N","account_ownership":"C","closure_remarks":null,"entity_creation_flag":"Y","account_prefix":"16","account_num":" 00304646","bacid":null,"employee_id":null,"gl_sub_head_code":"15005","debit_balance_limit":"0.0000","account_report_code":"16003","freeze_code":"","freeze_reason_code":null,"account_close_flag":"N","unclear_balance":"0.0000","last_transaction_date":"1901-01-01T00:00:00.000Z","mode_of_operation_code":null,"scheme_type":"LAA","iban_number":null,"native_language_name":null,"phone_number":null,"last_modified_date":"2024-12-30T00:00:00.000Z","cif_id":"C00001083"}},{"transaction_id":"M00001641","part_transaction_serial_number":"   2","transaction_date":"2024-12-30T00:00:00.000Z","transaction_type":"T","reference_number":null,"svs_transaction_id":null,"customer_id":"4790","transaction_sub_type":"BI","part_transaction_type":"C","account_id":"NB5000814","value_date":"2024-12-30T00:00:00.000Z","transaction_amount":"122610.0900","transaction_particular":"Loan Disbursement Credit For 1600304646","entry_user_id":"FA247","entry_date":"2024-12-30T00:00:00.000Z","currency_code":null,"transaction_remarks":null,"bank_id":"01","gl_sub_head_code":"25004","transaction_currency_code":"USD","solution_id":"001","foreign_transaction_amount":"0.0000","rate_code":null,"rate":"1.0000000000","navigation_flag":"","reference_amount":"122610.0900","branch_code":null,"posted_flag":"Y","print_advice_indicator":"","posted_date":"2024-12-30T00:00:00.000Z","module_id":"LA","last_changed_user_id":"UU050","last_changed_time":"2024-12-30T00:00:00.000Z","record_created_user_id":"UU050","record_created_time":"2024-12-30T00:00:00.000Z","transaction_sequence_count":2,"user_defined_module_key":null,"reversal_date":null,"reversal_status":"","used_sanction_limit":0,"used_pool_amount":0,"account_balance":0,"load_date":"2025-01-04T13:35:03.000Z","account":{"account_id":"NB5000814","account_number":"5020010123","account_name":"NKECHI BELLO-NB5000814","account_short_name":"BELLO-NB50","customer_id":"4790","scheme_code":"5020","account_open_date":"2020-05-13T00:00:00.000Z","active_status":"","account_close_date":"1901-01-01T00:00:00.000Z","ledger_balance":"0.0000","currency_code":"USD","bank_id":"01","sol_id":"001","deleted_flag":"N","account_ownership":"C","closure_remarks":null,"entity_creation_flag":"Y","account_prefix":"50","account_num":" 20010123","bacid":null,"employee_id":null,"gl_sub_head_code":"25004","debit_balance_limit":"9999999999999.9900","account_report_code":"5020","freeze_code":"","freeze_reason_code":null,"account_close_flag":"N","unclear_balance":"0.0000","last_transaction_date":"2022-10-11T00:00:00.000Z","mode_of_operation_code":"011","scheme_type":"ODA","iban_number":null,"native_language_name":null,"phone_number":null,"last_modified_date":"2024-12-30T00:00:00.000Z","cif_id":"C00001083"}}],"total":753,"page":1,"limit":10,"totalPages":76}}