{"status":true,"response":{"total":22,"page":1,"limit":10,"totalPages":3,"data":[{"created_on":"2025-05-28T08:58:59.000Z","created_by":"299","modified_on":"2025-05-29T09:55:42.000Z","modified_by":"272","deleted_on":null,"deleted_by":null,"id":"32","uuid":"0197161d-c6f6-7569-b3a8-a6f8bc7c2d2a","name":"Regression ","description":"Role Regression","type":null,"meta":null,"user_count":"3","organization_count":"0","permissions":[{"module":"PROFILE","can_create":true,"can_delete":true,"can_list":true,"can_read":true,"can_update":true},{"module":"REPORTS","can_create":true,"can_delete":true,"can_list":true,"can_read":true,"can_update":true},{"module":"REPORT_SECTIONS","can_create":true,"can_delete":true,"can_list":true,"can_read":true,"can_update":true},{"module":"REPORT_SECTION_OBJECTS","can_create":true,"can_delete":true,"can_list":true,"can_read":true,"can_update":true},{"module":"BUDGET_PERIODS","can_create":true,"can_delete":true,"can_list":true,"can_read":true,"can_update":true},{"module":"BUDGET_ITEMS","can_create":true,"can_delete":true,"can_list":true,"can_read":true,"can_update":true},{"module":"BUDGETS","can_create":true,"can_delete":true,"can_list":true,"can_read":true,"can_update":true},{"module":"WORKFLOW_APPROVALS","can_create":true,"can_delete":true,"can_list":true,"can_read":true,"can_update":true},{"module":"MPR_CORPORATE_ADJUSTMENTS","can_create":true,"can_delete":true,"can_list":true,"can_read":true,"can_update":true},{"module":"MPR","can_create":true,"can_delete":true,"can_list":true,"can_read":true,"can_update":true},{"module":"NOTIFICATION_TEMPLATES","can_create":true,"can_delete":true,"can_list":true,"can_read":true,"can_update":true},{"module":"ORGANIZATIONS","can_create":true,"can_delete":true,"can_list":true,"can_read":true,"can_update":true},{"module":"DEFINITIONS","can_create":true,"can_delete":true,"can_list":true,"can_read":true,"can_update":true},{"module":"SETTINGS","can_create":true,"can_delete":true,"can_list":true,"can_read":true,"can_update":true},{"module":"ROLES","can_create":true,"can_delete":true,"can_list":true,"can_read":true,"can_update":true},{"module":"PERMISSIONS","can_create":true,"can_delete":true,"can_list":true,"can_read":true,"can_update":true},{"module":"INVITES","can_create":true,"can_delete":true,"can_list":true,"can_read":true,"can_update":true},{"module":"USERS","can_create":true,"can_delete":true,"can_list":true,"can_read":true,"can_update":true},{"module":"SETTINGS_MASTER","can_create":true,"can_delete":true,"can_list":true,"can_read":true,"can_update":true},{"module":"SESSIONS","can_create":true,"can_delete":true,"can_list":true,"can_read":true,"can_update":true},{"module":"NOTIFICATIONS","can_create":true,"can_delete":true,"can_list":true,"can_read":true,"can_update":true},{"module":"WORKFLOWS","can_create":true,"can_delete":true,"can_list":true,"can_read":true,"can_update":true},{"module":"WORKFLOW_ITEMS","can_create":true,"can_delete":true,"can_list":true,"can_read":true,"can_update":true},{"module":"AUDIT_TRAILS","can_create":true,"can_delete":true,"can_list":true,"can_read":true,"can_update":true},{"module":"CUSTOMERS","can_create":false,"can_delete":true,"can_list":true,"can_read":true,"can_update":false},{"module":"CUSTOMER_ISSUES","can_create":true,"can_delete":true,"can_list":true,"can_read":true,"can_update":true},{"module":"CUSTOMER_CHANNELS","can_create":true,"can_delete":true,"can_list":true,"can_read":true,"can_update":true},{"module":"CUSTOMER_COMMUNICATIONS","can_create":true,"can_delete":true,"can_list":true,"can_read":true,"can_update":true},{"module":"CUSTOMER_LOANS","can_create":false,"can_delete":true,"can_list":true,"can_read":true,"can_update":false},{"module":"CUSTOMER_INVESTMENTS","can_create":false,"can_delete":true,"can_list":true,"can_read":true,"can_update":false},{"module":"CUSTOMER_COMMENTS","can_create":false,"can_delete":true,"can_list":true,"can_read":true,"can_update":false},{"module":"COMMENT","can_create":true,"can_delete":true,"can_list":true,"can_read":true,"can_update":true}]},{"created_on":"2025-05-27T12:28:06.000Z","created_by":"272","modified_on":"2025-05-27T12:28:06.000Z","modified_by":null,"deleted_on":null,"deleted_by":null,"id":"31","uuid":"019711b6-df63-728c-a887-360cac28bb49","name":"Tester","description":"","type":null,"meta":null,"user_count":"0","organization_count":"0","permissions":[]},{"created_on":"2025-05-27T12:25:35.000Z","created_by":"272","modified_on":"2025-05-27T12:25:35.000Z","modified_by":null,"deleted_on":null,"deleted_by":null,"id":"30","uuid":"019711b4-91c6-7341-b6b7-aabd2e46d1ce","name":"due diligence","description":"","type":null,"meta":null,"user_count":"0","organization_count":"0","permissions":[]},{"created_on":"2025-04-29T14:09:50.000Z","created_by":"272","modified_on":"2025-04-29T14:09:50.000Z","modified_by":null,"deleted_on":null,"deleted_by":null,"id":"26","uuid":"019681e1-f13b-73b8-9c82-d8e0b12c9a78","name":"Adhoc","description":"Adhoc staff","type":null,"meta":null,"user_count":"1","organization_count":"0","permissions":[{"module":"Admin","can_create":false,"can_delete":false,"can_list":false,"can_read":true,"can_update":false},{"module":"REPORTS","can_create":false,"can_delete":false,"can_list":false,"can_read":true,"can_update":false},{"module":"NOTIFICATION_TEMPLATES","can_create":false,"can_delete":false,"can_list":false,"can_read":true,"can_update":false},{"module":"ORGANIZATIONS","can_create":false,"can_delete":false,"can_list":false,"can_read":true,"can_update":false},{"module":"DEFINITIONS","can_create":false,"can_delete":false,"can_list":false,"can_read":true,"can_update":false},{"module":"SETTINGS","can_create":false,"can_delete":false,"can_list":false,"can_read":true,"can_update":false},{"module":"ROLES","can_create":false,"can_delete":false,"can_list":false,"can_read":true,"can_update":false},{"module":"PERMISSIONS","can_create":false,"can_delete":false,"can_list":false,"can_read":true,"can_update":false},{"module":"INVITES","can_create":false,"can_delete":false,"can_list":false,"can_read":true,"can_update":false},{"module":"USERS","can_create":false,"can_delete":false,"can_list":true,"can_read":true,"can_update":false},{"module":"SETTINGS_MASTER","can_create":false,"can_delete":false,"can_list":false,"can_read":true,"can_update":false},{"module":"SESSIONS","can_create":false,"can_delete":false,"can_list":false,"can_read":true,"can_update":false},{"module":"NOTIFICATIONS","can_create":false,"can_delete":false,"can_list":false,"can_read":true,"can_update":false},{"module":"PROFILE","can_create":false,"can_delete":false,"can_list":false,"can_read":true,"can_update":false}]},{"created_on":"2025-03-31T11:40:59.000Z","created_by":"272","modified_on":"2025-03-31T11:53:59.000Z","modified_by":"272","deleted_on":null,"deleted_by":null,"id":"25","uuid":"0195ec01-4053-71f8-883e-10b994a45f78","name":"Test User","description":"Testing","type":"user","meta":{},"user_count":"1","organization_count":"0","permissions":[{"module":"Admin","can_create":true,"can_delete":false,"can_list":false,"can_read":true,"can_update":false}]},{"created_on":"2025-03-19T14:46:45.000Z","created_by":"181","modified_on":"2025-03-19T14:56:46.000Z","modified_by":"181","deleted_on":null,"deleted_by":null,"id":"24","uuid":"0195aedf-0388-7149-b01b-6a4cc7d137eb","name":"listonly","description":"list permissions only","type":null,"meta":null,"user_count":"3","organization_count":"0","permissions":[{"module":"REPORTS","can_create":false,"can_delete":false,"can_list":true,"can_read":true,"can_update":false},{"module":"Admin","can_create":true,"can_delete":true,"can_list":true,"can_read":true,"can_update":true},{"module":"NOTIFICATION_TEMPLATES","can_create":true,"can_delete":true,"can_list":true,"can_read":true,"can_update":true},{"module":"ORGANIZATIONS","can_create":true,"can_delete":true,"can_list":true,"can_read":true,"can_update":true},{"module":"DEFINITIONS","can_create":true,"can_delete":true,"can_list":true,"can_read":true,"can_update":true},{"module":"SETTINGS","can_create":true,"can_delete":true,"can_list":true,"can_read":true,"can_update":true},{"module":"ROLES","can_create":false,"can_delete":false,"can_list":true,"can_read":false,"can_update":false},{"module":"PERMISSIONS","can_create":false,"can_delete":false,"can_list":true,"can_read":false,"can_update":false},{"module":"INVITES","can_create":true,"can_delete":true,"can_list":true,"can_read":true,"can_update":true},{"module":"USERS","can_create":false,"can_delete":false,"can_list":true,"can_read":false,"can_update":false},{"module":"SETTINGS_MASTER","can_create":true,"can_delete":true,"can_list":true,"can_read":true,"can_update":true},{"module":"SESSIONS","can_create":true,"can_delete":true,"can_list":true,"can_read":true,"can_update":true},{"module":"NOTIFICATIONS","can_create":true,"can_delete":true,"can_list":true,"can_read":true,"can_update":true},{"module":"PROFILE","can_create":true,"can_delete":true,"can_list":true,"can_read":true,"can_update":true}]},{"created_on":"2025-02-26T19:41:23.000Z","created_by":"181","modified_on":"2025-02-26T19:42:14.000Z","modified_by":"181","deleted_on":null,"deleted_by":null,"id":"23","uuid":"019543c7-3356-705c-acb3-8cdf1c3e8225","name":"newrolelise","description":"test","type":null,"meta":null,"user_count":"1","organization_count":"0","permissions":[{"module":"Admin","can_create":true,"can_delete":true,"can_list":true,"can_read":true,"can_update":true},{"module":"REPORTS","can_create":true,"can_delete":true,"can_list":true,"can_read":true,"can_update":true},{"module":"NOTIFICATION_TEMPLATES","can_create":true,"can_delete":true,"can_list":true,"can_read":true,"can_update":true},{"module":"ORGANIZATIONS","can_create":true,"can_delete":true,"can_list":true,"can_read":true,"can_update":true},{"module":"DEFINITIONS","can_create":true,"can_delete":true,"can_list":true,"can_read":true,"can_update":true},{"module":"SETTINGS","can_create":true,"can_delete":true,"can_list":true,"can_read":true,"can_update":true},{"module":"ROLES","can_create":true,"can_delete":true,"can_list":true,"can_read":true,"can_update":true},{"module":"PERMISSIONS","can_create":true,"can_delete":true,"can_list":true,"can_read":true,"can_update":true},{"module":"INVITES","can_create":true,"can_delete":true,"can_list":true,"can_read":true,"can_update":true},{"module":"USERS","can_create":true,"can_delete":true,"can_list":true,"can_read":true,"can_update":true},{"module":"SESSIONS","can_create":true,"can_delete":true,"can_list":true,"can_read":true,"can_update":true},{"module":"SETTINGS_MASTER","can_create":true,"can_delete":true,"can_list":true,"can_read":true,"can_update":true},{"module":"NOTIFICATIONS","can_create":true,"can_delete":true,"can_list":true,"can_read":true,"can_update":true},{"module":"PROFILE","can_create":true,"can_delete":true,"can_list":true,"can_read":true,"can_update":true}]},{"created_on":"2025-02-26T18:26:14.000Z","created_by":"170","modified_on":"2025-05-07T12:59:20.000Z","modified_by":"299","deleted_on":null,"deleted_by":null,"id":"22","uuid":"01954382-6763-77b3-aa31-b4a1d0cdb70f","name":"UAT Role","description":"The role of the first group of UAT testers.","type":null,"meta":null,"user_count":"30","organization_count":"0","permissions":[{"module":"Admin","can_create":false,"can_delete":false,"can_list":true,"can_read":true,"can_update":false},{"module":"REPORTS","can_create":false,"can_delete":false,"can_list":true,"can_read":true,"can_update":false},{"module":"NOTIFICATION_TEMPLATES","can_create":false,"can_delete":false,"can_list":true,"can_read":true,"can_update":false},{"module":"ORGANIZATIONS","can_create":false,"can_delete":false,"can_list":true,"can_read":true,"can_update":false},{"module":"DEFINITIONS","can_create":false,"can_delete":false,"can_list":true,"can_read":true,"can_update":false},{"module":"SETTINGS","can_create":false,"can_delete":false,"can_list":true,"can_read":true,"can_update":false},{"module":"ROLES","can_create":false,"can_delete":false,"can_list":true,"can_read":true,"can_update":false},{"module":"PERMISSIONS","can_create":false,"can_delete":false,"can_list":true,"can_read":true,"can_update":false},{"module":"INVITES","can_create":false,"can_delete":false,"can_list":true,"can_read":true,"can_update":false},{"module":"USERS","can_create":false,"can_delete":false,"can_list":true,"can_read":true,"can_update":false},{"module":"SETTINGS_MASTER","can_create":false,"can_delete":false,"can_list":true,"can_read":true,"can_update":false},{"module":"SESSIONS","can_create":true,"can_delete":true,"can_list":true,"can_read":true,"can_update":true},{"module":"NOTIFICATIONS","can_create":false,"can_delete":false,"can_list":true,"can_read":true,"can_update":false},{"module":"PROFILE","can_create":true,"can_delete":true,"can_list":true,"can_read":true,"can_update":true}]},{"created_on":"2025-02-26T13:51:47.000Z","created_by":"170","modified_on":"2025-02-26T13:51:47.000Z","modified_by":null,"deleted_on":null,"deleted_by":null,"id":"21","uuid":"01954287-23ea-71ce-8389-8e0b2aad8d7d","name":"General","description":"General Role","type":null,"meta":null,"user_count":"1","organization_count":"0","permissions":[{"module":"ORGANIZATIONS","can_create":true,"can_delete":true,"can_list":false,"can_read":true,"can_update":true},{"module":"Admin","can_create":true,"can_delete":true,"can_list":false,"can_read":true,"can_update":true},{"module":"REPORTS","can_create":true,"can_delete":true,"can_list":false,"can_read":true,"can_update":true},{"module":"INVITES","can_create":true,"can_delete":true,"can_list":false,"can_read":true,"can_update":true},{"module":"USERS","can_create":true,"can_delete":true,"can_list":false,"can_read":true,"can_update":true},{"module":"PROFILE","can_create":true,"can_delete":true,"can_list":false,"can_read":true,"can_update":true}]},{"created_on":"2025-02-25T14:30:21.000Z","created_by":"188","modified_on":"2025-02-25T14:31:51.000Z","modified_by":"188","deleted_on":null,"deleted_by":null,"id":"20","uuid":"01953d84-156a-7218-8908-fcf522cb0260","name":"Team Lead","description":"This are team leads","type":null,"meta":null,"user_count":"3","organization_count":"0","permissions":[{"module":"SESSIONS","can_create":true,"can_delete":true,"can_list":false,"can_read":true,"can_update":true},{"module":"PROFILE","can_create":true,"can_delete":true,"can_list":false,"can_read":true,"can_update":true},{"module":"NOTIFICATIONS","can_create":true,"can_delete":true,"can_list":false,"can_read":true,"can_update":true}]}]}}