{"status":true,"response":{"total":20,"page":1,"limit":10,"totalPages":2,"data":[{"module":"General","created_on":"2025-02-13T13:41:46.661Z","created_by":null,"modified_on":"2025-02-13T13:41:46.661Z","modified_by":null,"deleted_on":null,"deleted_by":null,"id":20,"name":"PROFILE","description":"Profile permission","meta":null},{"module":"Administration","created_on":"2025-02-13T13:41:46.141Z","created_by":null,"modified_on":"2025-02-13T13:41:46.141Z","modified_by":null,"deleted_on":null,"deleted_by":null,"id":19,"name":"NOTIFICATIONS","description":"Notifications permission","meta":null},{"module":"General","created_on":"2025-02-10T17:33:18.349Z","created_by":"1","modified_on":"2025-02-10T17:33:18.349Z","modified_by":null,"deleted_on":null,"deleted_by":null,"id":18,"name":"ACCOUNTS","description":"Accounts permission","meta":null},{"module":"General","created_on":"2025-02-10T17:33:17.847Z","created_by":"1","modified_on":"2025-02-10T17:33:17.847Z","modified_by":null,"deleted_on":null,"deleted_by":null,"id":17,"name":"ISSUES","description":"Issues permission","meta":null},{"module":"Administration","created_on":"2025-02-10T17:33:17.362Z","created_by":"1","modified_on":"2025-02-10T17:33:17.362Z","modified_by":null,"deleted_on":null,"deleted_by":null,"id":16,"name":"SESSIONS","description":"Sessions permission","meta":null},{"module":"Administration","created_on":"2025-02-10T17:33:16.872Z","created_by":"1","modified_on":"2025-02-10T17:33:16.872Z","modified_by":null,"deleted_on":null,"deleted_by":null,"id":15,"name":"SETTINGS_MASTER","description":"Settings master permission","meta":null},{"module":"General","created_on":"2025-02-05T21:31:00.558Z","created_by":"1","modified_on":"2025-02-05T21:31:00.558Z","modified_by":null,"deleted_on":null,"deleted_by":null,"id":14,"name":"AUDIT_TRAILS","description":"Audit trails permission","meta":null},{"module":"General","created_on":"2025-02-05T21:31:00.557Z","created_by":"1","modified_on":"2025-02-05T21:31:00.557Z","modified_by":null,"deleted_on":null,"deleted_by":null,"id":13,"name":"EVENTS","description":"Events permission","meta":null},{"module":"General","created_on":"2025-02-05T21:31:00.554Z","created_by":"1","modified_on":"2025-02-05T21:31:00.554Z","modified_by":null,"deleted_on":null,"deleted_by":null,"id":12,"name":"CUSTOMERS","description":"Customers permission","meta":null},{"module":"Administration","created_on":"2025-02-05T21:31:00.552Z","created_by":"1","modified_on":"2025-02-05T21:31:00.552Z","modified_by":null,"deleted_on":null,"deleted_by":null,"id":11,"name":"USERS","description":"Users permission","meta":null}]}}