{"status":true,"response":{"total":208,"page":1,"limit":10,"totalPages":21,"data":[{"created_on":"2025-03-07T15:52:46.000Z","created_by":"188","modified_on":"2025-03-07T15:52:46.000Z","id":"273","staff_id":null,"manager_id":null,"first_name":"","last_name":"","display_name":null,"description":null,"photo":null,"phone":null,"email":"test_superadmin_staging_02@yopmail.com","status":"pending","last_login_date":null},{"created_on":"2025-03-06T07:30:57.000Z","created_by":"214","modified_on":"2025-03-06T07:34:47.000Z","id":"271","staff_id":null,"manager_id":null,"first_name":"Adewunmi","last_name":"Akinsanya","display_name":null,"description":null,"photo":null,"phone":null,"email":"adewunmiakinsanya@gmail.com","status":"active","last_login_date":"2025-03-06T07:34:48.000Z"},{"created_on":"2025-03-05T10:23:44.000Z","created_by":"188","modified_on":"2025-03-11T16:05:05.000Z","id":"270","staff_id":null,"manager_id":null,"first_name":"Favour","last_name":"tester","display_name":null,"description":null,"photo":null,"phone":null,"email":"QAinfopool@yopmail.com","status":"active","last_login_date":"2025-03-11T16:05:05.000Z"},{"created_on":"2025-03-04T14:20:21.000Z","created_by":"214","modified_on":"2025-03-04T14:20:21.000Z","id":"269","staff_id":null,"manager_id":null,"first_name":"","last_name":"","display_name":null,"description":null,"photo":null,"phone":null,"email":"pelumi@lendsqr.com","status":"pending","last_login_date":null},{"created_on":"2025-03-04T08:28:03.000Z","created_by":"181","modified_on":"2025-03-04T08:28:03.000Z","id":"268","staff_id":null,"manager_id":null,"first_name":"","last_name":"","display_name":null,"description":null,"photo":null,"phone":null,"email":"destinyerhabor6+de3v@gmail.com","status":"pending","last_login_date":null},{"created_on":"2025-03-03T10:47:13.000Z","created_by":"181","modified_on":"2025-03-03T10:47:13.000Z","id":"267","staff_id":null,"manager_id":null,"first_name":"","last_name":"","display_name":null,"description":null,"photo":null,"phone":null,"email":"destinyerhabor6+deiv@gmail.com","status":"pending","last_login_date":null},{"created_on":"2025-03-03T10:10:39.000Z","created_by":"188","modified_on":"2025-03-07T15:22:32.000Z","id":"265","staff_id":null,"manager_id":null,"first_name":"Favour","last_name":"tester","display_name":null,"description":null,"photo":null,"phone":"+2349033362900","email":"favour.admin@yopmail.com","status":"active","last_login_date":"2025-03-07T15:22:33.000Z"},{"created_on":"2025-03-03T10:10:08.000Z","created_by":"188","modified_on":"2025-03-07T15:13:42.000Z","id":"264","staff_id":null,"manager_id":null,"first_name":"Udeme","last_name":"tester","display_name":null,"description":null,"photo":null,"phone":null,"email":"Udeme.admin@yopmail.com","status":"active","last_login_date":"2025-03-07T15:13:43.000Z"},{"created_on":"2025-03-02T20:55:47.000Z","created_by":"197","modified_on":"2025-03-02T20:55:47.000Z","id":"262","staff_id":null,"manager_id":null,"first_name":"","last_name":"","display_name":null,"description":null,"photo":null,"phone":null,"email":"bankinfopool@mailinator.com","status":"pending","last_login_date":null},{"created_on":"2025-03-02T07:57:32.000Z","created_by":"188","modified_on":"2025-03-02T07:57:32.000Z","id":"261","staff_id":null,"manager_id":null,"first_name":"","last_name":"","display_name":null,"description":null,"photo":null,"phone":null,"email":"infopool@yopmail.com","status":"pending","last_login_date":null}]}}