{"status":true,"response":{"total":40,"page":1,"limit":10,"totalPages":4,"data":[{"created_on":"2025-03-09T15:10:49.000Z","modified_on":"2025-03-09T15:10:49.000Z","id":"3197","slug":"issue-status","name":"Issue Status","description":"Issue Status","meta":null,"parent":{"slug":"root"},"creator":{"id":"272","first_name":"Super","last_name":"Admin","display_name":null,"email":"test_superadmin_staging_01@yopmail.com"},"sub_definition_count":5},{"created_on":"2025-03-09T15:04:24.000Z","modified_on":"2025-03-09T15:04:24.000Z","id":"3196","slug":"issue-status","name":"Issue Status","description":"Issue Status","meta":null,"parent":{"slug":"root"},"creator":{"id":"272","first_name":"Super","last_name":"Admin","display_name":null,"email":"test_superadmin_staging_01@yopmail.com"},"sub_definition_count":5},{"created_on":"2025-03-09T13:17:14.000Z","modified_on":"2025-03-09T13:17:14.000Z","id":"3195","slug":"issue-status","name":"Issue Status","description":"Issue Status","meta":null,"parent":{"slug":"root"},"creator":{"id":"272","first_name":"Super","last_name":"Admin","display_name":null,"email":"test_superadmin_staging_01@yopmail.com"},"sub_definition_count":5},{"created_on":"2025-02-26T14:55:38.000Z","modified_on":"2025-02-26T14:55:38.000Z","id":"3190","slug":"report-categories","name":"Report Categories","description":"Report Categories","meta":null,"parent":{"slug":"root"},"creator":{"id":"4","first_name":"Favour","last_name":"Elijah","display_name":null,"email":"QA@yopmail.com"},"sub_definition_count":1},{"created_on":"2025-02-26T09:33:01.000Z","modified_on":"2025-02-26T09:33:01.000Z","id":"3186","slug":"try","name":"try","description":"try","meta":null,"parent":{"slug":"root"},"creator":{"id":"172","first_name":"Chris","last_name":"Esiv","display_name":null,"email":"chris@yopmail.com"},"sub_definition_count":1},{"created_on":"2025-02-25T05:40:47.000Z","modified_on":"2025-02-26T09:19:03.000Z","id":"3183","slug":"issue-status","name":"Issue Status","description":"Issue Status","meta":null,"parent":{"slug":"root"},"creator":{"id":"198","first_name":"Favour","last_name":"tester","display_name":null,"email":"favourdesent@yopmail.com"},"sub_definition_count":5},{"created_on":"2025-02-25T04:28:06.000Z","modified_on":"2025-02-25T04:28:06.000Z","id":"3181","slug":"issue-status","name":"Issue Status","description":"Issue Status","meta":null,"parent":{"slug":"root"},"creator":{"id":"4","first_name":"Favour","last_name":"Elijah","display_name":null,"email":"QA@yopmail.com"},"sub_definition_count":5},{"created_on":"2025-02-25T03:43:49.000Z","modified_on":"2025-02-25T03:43:49.000Z","id":"3177","slug":"issue-priority","name":"Issue Priority","description":"Issue Priority","meta":null,"parent":{"slug":"root"},"creator":{"id":"4","first_name":"Favour","last_name":"Elijah","display_name":null,"email":"QA@yopmail.com"},"sub_definition_count":4},{"created_on":"2025-02-22T22:34:58.000Z","modified_on":"2025-02-22T22:55:08.000Z","id":"3173","slug":"gender","name":"Gender","description":"This is a gender","meta":null,"parent":{"slug":"root"},"creator":{"id":"188","first_name":"favour","last_name":"Assurdly","display_name":null,"email":"favour@assurdly.com"},"sub_definition_count":3},{"created_on":"2025-02-19T16:14:47.000Z","modified_on":"2025-02-21T09:25:47.000Z","id":"3156","slug":"issue-category","name":"Issue Category","description":"Define the different types of issues that can be raised on the system","meta":null,"parent":{"slug":"root"},"creator":null,"sub_definition_count":4}]}}