{"status":true,"response":{"total":32,"page":1,"limit":10,"totalPages":4,"data":[{"created_on":"2025-03-03T10:40:57.000Z","created_by":null,"modified_on":"2025-03-03T10:40:57.000Z","modified_by":null,"deleted_on":null,"deleted_by":null,"id":"33","slug":"onboarding_token_expiry","uuid":"01955b98-38fd-779b-9483-34688b5690c1","category_id":"2995","name":"Onboarding token Expiry","description":"Onboarding Token Expiry Period in days","value_type":"integer","default_value":"7","minimum_value":null,"maximum_value":null,"custom_validation":null,"meta":null,"category":{"created_on":"2025-02-10T17:32:59.000Z","created_by":"1","modified_on":"2025-02-19T22:26:39.000Z","modified_by":null,"deleted_on":null,"deleted_by":null,"id":"2995","uuid":"0194f0eb-e569-76de-8ba6-b91e25cb09e1","slug":"system-settings-category","name":"System Settings","description":"System Settings","meta":null},"value":{"created_on":"2025-03-04T13:17:59.000Z","created_by":"170","modified_by":null,"settings_master_id":"33","value":"20"}},{"created_on":"2025-02-26T18:35:56.000Z","created_by":null,"modified_on":"2025-02-26T18:35:56.000Z","modified_by":null,"deleted_on":null,"deleted_by":null,"id":"32","slug":"instagram_url","uuid":"0195438b-47cf-703a-acd7-002637a72f76","category_id":"2986","name":"Instagram URL","description":"Instagram profile URL","value_type":"text","default_value":"https://www.example.com","minimum_value":null,"maximum_value":null,"custom_validation":null,"meta":null,"category":{"created_on":"2025-02-05T21:31:00.000Z","created_by":"1","modified_on":"2025-03-04T15:08:04.000Z","modified_by":null,"deleted_on":null,"deleted_by":null,"id":"2986","uuid":"0194d806-0406-77ac-9971-074576f3d723","slug":"organization-settings","name":"Organization Settings","description":"All settings related to organization","meta":null},"value":null},{"created_on":"2025-02-26T18:09:42.000Z","created_by":null,"modified_on":"2025-02-26T18:09:42.000Z","modified_by":null,"deleted_on":null,"deleted_by":null,"id":"31","slug":"web_app_url","uuid":"01954373-463e-7280-abc6-2e8b38e44411","category_id":"2986","name":"Web App URL","description":"Web App URL","value_type":"text","default_value":"https://staging.infopool.ng","minimum_value":null,"maximum_value":null,"custom_validation":null,"meta":null,"category":{"created_on":"2025-02-05T21:31:00.000Z","created_by":"1","modified_on":"2025-03-04T15:08:04.000Z","modified_by":null,"deleted_on":null,"deleted_by":null,"id":"2986","uuid":"0194d806-0406-77ac-9971-074576f3d723","slug":"organization-settings","name":"Organization Settings","description":"All settings related to organization","meta":null},"value":null},{"created_on":"2025-02-17T10:34:24.000Z","created_by":null,"modified_on":"2025-02-17T10:34:24.000Z","modified_by":null,"deleted_on":null,"deleted_by":null,"id":"30","slug":"country","uuid":"01951379-30f9-71ab-91a4-ff4bdfac4e0a","category_id":"2986","name":"Country","description":"Country of the organisation","value_type":"text","default_value":"https://www.example.com","minimum_value":null,"maximum_value":null,"custom_validation":null,"meta":null,"category":{"created_on":"2025-02-05T21:31:00.000Z","created_by":"1","modified_on":"2025-03-04T15:08:04.000Z","modified_by":null,"deleted_on":null,"deleted_by":null,"id":"2986","uuid":"0194d806-0406-77ac-9971-074576f3d723","slug":"organization-settings","name":"Organization Settings","description":"All settings related to organization","meta":null},"value":{"created_on":"2025-02-26T17:59:04.000Z","created_by":"198","modified_by":null,"settings_master_id":"30","value":"Nigeria"}},{"created_on":"2025-02-10T17:33:15.000Z","created_by":null,"modified_on":"2025-02-10T17:33:15.000Z","modified_by":null,"deleted_on":null,"deleted_by":null,"id":"29","slug":"login_session_expiry","uuid":"0194f0eb-eb57-74fc-82fd-bb8cd3694fdf","category_id":"2995","name":"Login Session Expiry","description":"Login Session Expiry Period in minutes","value_type":"integer","default_value":"15","minimum_value":null,"maximum_value":null,"custom_validation":null,"meta":null,"category":{"created_on":"2025-02-10T17:32:59.000Z","created_by":"1","modified_on":"2025-02-19T22:26:39.000Z","modified_by":null,"deleted_on":null,"deleted_by":null,"id":"2995","uuid":"0194f0eb-e569-76de-8ba6-b91e25cb09e1","slug":"system-settings-category","name":"System Settings","description":"System Settings","meta":null},"value":{"created_on":"2025-03-16T18:26:15.000Z","created_by":"270","modified_by":null,"settings_master_id":"29","value":"60"}},{"created_on":"2025-02-10T17:33:14.000Z","created_by":null,"modified_on":"2025-03-16T20:24:38.000Z","modified_by":"272","deleted_on":null,"deleted_by":null,"id":"27","slug":"password_complexity","uuid":"0194f0eb-eb57-74fc-82fd-b28753badd1c","category_id":"2995","name":"Password complexity","description":"Password complexity Settings","value_type":"json","default_value":"{\"minLength\":8,\"minLowercase\":1,\"minUppercase\":1,\"minNumbers\":1,\"minSymbols\":1}","minimum_value":null,"maximum_value":null,"custom_validation":"{        \"$schema\": \"http://json-schema.org/draft-07/schema#\",        \"title\": \"Generated schema for Root\",        \"type\": \"object\",        \"properties\": {            \"minLength\": {                \"type\": \"number\"            },            \"minLowercase\": {                \"type\": \"number\"            },            \"minUppercase\": {                \"type\": \"number\"            },            \"minNumbers\": {                \"type\": \"number\"            },            \"minSymbols\": {                \"type\": \"number\"            }        },        \"required\": [            \"minLength\",            \"minLowercase\",            \"minUppercase\",            \"minNumbers\",            \"minSymbols\"        ]    }","meta":null,"category":{"created_on":"2025-02-10T17:32:59.000Z","created_by":"1","modified_on":"2025-02-19T22:26:39.000Z","modified_by":null,"deleted_on":null,"deleted_by":null,"id":"2995","uuid":"0194f0eb-e569-76de-8ba6-b91e25cb09e1","slug":"system-settings-category","name":"System Settings","description":"System Settings","meta":null},"value":{"created_on":"2025-03-15T18:41:53.000Z","created_by":"172","modified_by":null,"settings_master_id":"27","value":"{\"minLength\":8,\"minLowercase\":1,\"minUppercase\":1,\"minNumbers\":1,\"minSymbols\":1}"}},{"created_on":"2025-02-10T17:33:14.000Z","created_by":null,"modified_on":"2025-02-10T17:33:14.000Z","modified_by":null,"deleted_on":null,"deleted_by":null,"id":"28","slug":"otp_expiry","uuid":"0194f0eb-eb57-74fc-82fd-b4373c38dc74","category_id":"2995","name":"OTP Expiry","description":"OTP Expiry Period in minutes","value_type":"integer","default_value":"10","minimum_value":null,"maximum_value":null,"custom_validation":null,"meta":null,"category":{"created_on":"2025-02-10T17:32:59.000Z","created_by":"1","modified_on":"2025-02-19T22:26:39.000Z","modified_by":null,"deleted_on":null,"deleted_by":null,"id":"2995","uuid":"0194f0eb-e569-76de-8ba6-b91e25cb09e1","slug":"system-settings-category","name":"System Settings","description":"System Settings","meta":null},"value":{"created_on":"2025-03-06T12:05:25.000Z","created_by":"188","modified_by":null,"settings_master_id":"28","value":"25"}},{"created_on":"2025-02-10T17:33:13.000Z","created_by":null,"modified_on":"2025-02-10T17:33:13.000Z","modified_by":null,"deleted_on":null,"deleted_by":null,"id":"25","slug":"authentication_provider","uuid":"0194f0eb-eb57-74fc-82fd-abdbd0317330","category_id":"2995","name":"Authentication Provider","description":"Authentication Provider","value_type":"text","default_value":null,"minimum_value":null,"maximum_value":null,"custom_validation":null,"meta":null,"category":{"created_on":"2025-02-10T17:32:59.000Z","created_by":"1","modified_on":"2025-02-19T22:26:39.000Z","modified_by":null,"deleted_on":null,"deleted_by":null,"id":"2995","uuid":"0194f0eb-e569-76de-8ba6-b91e25cb09e1","slug":"system-settings-category","name":"System Settings","description":"System Settings","meta":null},"value":null},{"created_on":"2025-02-10T17:33:13.000Z","created_by":null,"modified_on":"2025-02-10T17:33:13.000Z","modified_by":null,"deleted_on":null,"deleted_by":null,"id":"26","slug":"enable_password_login","uuid":"0194f0eb-eb57-74fc-82fd-afba91bebfd0","category_id":"2995","name":"Enable Password Login","description":"Authentication Provider","value_type":"boolean","default_value":"true","minimum_value":null,"maximum_value":null,"custom_validation":null,"meta":null,"category":{"created_on":"2025-02-10T17:32:59.000Z","created_by":"1","modified_on":"2025-02-19T22:26:39.000Z","modified_by":null,"deleted_on":null,"deleted_by":null,"id":"2995","uuid":"0194f0eb-e569-76de-8ba6-b91e25cb09e1","slug":"system-settings-category","name":"System Settings","description":"System Settings","meta":null},"value":null},{"created_on":"2025-02-10T17:33:12.000Z","created_by":null,"modified_on":"2025-02-10T17:33:12.000Z","modified_by":null,"deleted_on":null,"deleted_by":null,"id":"23","slug":"email_provider","uuid":"0194f0eb-eb57-74fc-82fd-a15aead264e4","category_id":"2995","name":"Email Provider","description":"Email Provider","value_type":"list","default_value":"NOVA","minimum_value":null,"maximum_value":null,"custom_validation":"NOVA","meta":null,"category":{"created_on":"2025-02-10T17:32:59.000Z","created_by":"1","modified_on":"2025-02-19T22:26:39.000Z","modified_by":null,"deleted_on":null,"deleted_by":null,"id":"2995","uuid":"0194f0eb-e569-76de-8ba6-b91e25cb09e1","slug":"system-settings-category","name":"System Settings","description":"System Settings","meta":null},"value":null}]}}