{"status":true,"response":{"total":41,"page":1,"limit":10,"totalPages":5,"data":[{"created_on":"2025-03-12T18:45:08.000Z","modified_on":"2025-03-12T18:45:08.000Z","id":"3198","slug":"issue-status","name":"Issue Status","description":"Issue Status","meta":null,"parent":{"slug":"root"},"creator":{"first_name":"Super","last_name":"Admin","email":"test_superadmin_staging_01@yopmail.com","id":"272","display_name":null},"sub_definition_count":5},{"created_on":"2025-03-09T15:10:49.000Z","modified_on":"2025-03-09T15:10:49.000Z","id":"3197","slug":"issue-status","name":"Issue Status","description":"Issue Status","meta":null,"parent":{"slug":"root"},"creator":{"first_name":"Super","last_name":"Admin","email":"test_superadmin_staging_01@yopmail.com","id":"272","display_name":null},"sub_definition_count":5},{"created_on":"2025-03-09T15:04:24.000Z","modified_on":"2025-03-09T15:04:24.000Z","id":"3196","slug":"issue-status","name":"Issue Status","description":"Issue Status","meta":null,"parent":{"slug":"root"},"creator":{"first_name":"Super","last_name":"Admin","email":"test_superadmin_staging_01@yopmail.com","id":"272","display_name":null},"sub_definition_count":5},{"created_on":"2025-03-09T13:17:14.000Z","modified_on":"2025-03-09T13:17:14.000Z","id":"3195","slug":"issue-status","name":"Issue Status","description":"Issue Status","meta":null,"parent":{"slug":"root"},"creator":{"first_name":"Super","last_name":"Admin","email":"test_superadmin_staging_01@yopmail.com","id":"272","display_name":null},"sub_definition_count":5},{"created_on":"2025-02-26T14:55:38.000Z","modified_on":"2025-02-26T14:55:38.000Z","id":"3190","slug":"report-categories","name":"Report Categories","description":"Report Categories","meta":null,"parent":{"slug":"root"},"creator":{"first_name":"Favour","last_name":"Elijah","email":"QA@yopmail.com","id":"4","display_name":null},"sub_definition_count":1},{"created_on":"2025-02-26T09:33:01.000Z","modified_on":"2025-02-26T09:33:01.000Z","id":"3186","slug":"try","name":"try","description":"try","meta":null,"parent":{"slug":"root"},"creator":{"first_name":"Chris","last_name":"Esiv","email":"chris@yopmail.com","id":"172","display_name":null},"sub_definition_count":1},{"created_on":"2025-02-25T05:40:47.000Z","modified_on":"2025-02-26T09:19:03.000Z","id":"3183","slug":"issue-status","name":"Issue Status","description":"Issue Status","meta":null,"parent":{"slug":"root"},"creator":{"first_name":"Favour","last_name":"tester","email":"favourdesent@yopmail.com","id":"198","display_name":null},"sub_definition_count":5},{"created_on":"2025-02-25T04:28:06.000Z","modified_on":"2025-02-25T04:28:06.000Z","id":"3181","slug":"issue-status","name":"Issue Status","description":"Issue Status","meta":null,"parent":{"slug":"root"},"creator":{"first_name":"Favour","last_name":"Elijah","email":"QA@yopmail.com","id":"4","display_name":null},"sub_definition_count":5},{"created_on":"2025-02-25T03:43:49.000Z","modified_on":"2025-02-25T03:43:49.000Z","id":"3177","slug":"issue-priority","name":"Issue Priority","description":"Issue Priority","meta":null,"parent":{"slug":"root"},"creator":{"first_name":"Favour","last_name":"Elijah","email":"QA@yopmail.com","id":"4","display_name":null},"sub_definition_count":4},{"created_on":"2025-02-22T22:34:58.000Z","modified_on":"2025-02-22T22:55:08.000Z","id":"3173","slug":"gender","name":"Gender","description":"This is a gender","meta":null,"parent":{"slug":"root"},"creator":{"first_name":"favour","last_name":"Assurdly","email":"favour@assurdly.com","id":"188","display_name":null},"sub_definition_count":3}]}}