{"status":true,"response":{"total":240,"page":1,"limit":10,"totalPages":24,"data":[{"created_on":"2025-06-03T15:11:01.000Z","created_by":"272","modified_on":"2025-06-03T15:11:01.000Z","id":"320","staff_id":"5678","manager_id":null,"first_name":"","last_name":"","display_name":null,"description":null,"photo":null,"phone":null,"email":"abimbola+15@novabank.ng","status":"pending","last_login_date":null},{"created_on":"2025-06-03T15:08:55.000Z","created_by":"272","modified_on":"2025-06-03T15:08:55.000Z","id":"319","staff_id":"345","manager_id":null,"first_name":"","last_name":"","display_name":null,"description":null,"photo":null,"phone":null,"email":"abimbola+12@novabank.ng","status":"pending","last_login_date":null},{"created_on":"2025-06-01T15:39:17.000Z","created_by":"272","modified_on":"2025-06-02T17:56:06.000Z","id":"318","staff_id":null,"manager_id":null,"first_name":"","last_name":"","display_name":null,"description":null,"photo":null,"phone":null,"email":"test+1@example.com","status":"pending","last_login_date":null},{"created_on":"2025-05-26T08:22:20.000Z","created_by":"272","modified_on":"2025-06-03T15:03:39.000Z","id":"317","staff_id":null,"manager_id":null,"first_name":"","last_name":"","display_name":null,"description":null,"photo":null,"phone":null,"email":"abimbola+10@novabank.ng","status":"pending","last_login_date":null},{"created_on":"2025-05-21T18:20:34.000Z","created_by":"299","modified_on":"2025-05-24T18:19:34.000Z","id":"316","staff_id":null,"manager_id":null,"first_name":"","last_name":"","display_name":null,"description":null,"photo":null,"phone":null,"email":"udeme+15@assurdly.com","status":"pending","last_login_date":null},{"created_on":"2025-05-20T21:12:59.000Z","created_by":"181","modified_on":"2025-06-02T17:55:47.000Z","id":"315","staff_id":"12223","manager_id":null,"first_name":"","last_name":"","display_name":null,"description":null,"photo":null,"phone":null,"email":"destinyerhabor+test@gmail.com","status":"pending","last_login_date":null},{"created_on":"2025-05-18T20:49:04.000Z","created_by":"253","modified_on":"2025-05-18T20:49:04.000Z","id":"314","staff_id":null,"manager_id":null,"first_name":"","last_name":"","display_name":null,"description":null,"photo":null,"phone":null,"email":"adedeji@olowe.com","status":"pending","last_login_date":null},{"created_on":"2025-05-07T12:57:18.000Z","created_by":"299","modified_on":"2025-05-27T14:10:56.000Z","id":"313","staff_id":"007","manager_id":null,"first_name":"Udeme","last_name":"UAT","display_name":null,"description":null,"photo":null,"phone":null,"email":"udeme+14@assurdly.com","status":"active","last_login_date":"2025-05-16T12:00:17.000Z"},{"created_on":"2025-04-28T11:07:31.000Z","created_by":"188","modified_on":"2025-05-19T14:49:22.000Z","id":"312","staff_id":null,"manager_id":null,"first_name":"","last_name":"","display_name":null,"description":null,"photo":null,"phone":null,"email":"jasmin@yopmail.com","status":"pending","last_login_date":null},{"created_on":"2025-04-28T11:03:08.000Z","created_by":"188","modified_on":"2025-05-19T14:52:09.000Z","id":"311","staff_id":null,"manager_id":null,"first_name":"","last_name":"","display_name":null,"description":null,"photo":null,"phone":null,"email":"favour+UAT@yopmail.com","status":"pending","last_login_date":null}]}}