{"status":true,"response":{"data":[{"id":"348","comment":"HEY","created_on":"2025-06-08T21:43:14.000Z","edited_on":null,"created_by":"272","issue_id":497,"customer_id":"5178","created":{"id":"272","first_name":"Ayo","last_name":"Jide"},"can_edit":true,"can_delete":true,"replies":[]},{"id":"349","comment":"commenting on your account","created_on":"2025-06-08T21:43:14.000Z","edited_on":null,"created_by":"272","issue_id":null,"customer_id":"5178","created":{"id":"272","first_name":"Ayo","last_name":"Jide"},"can_edit":true,"can_delete":true,"replies":[]},{"id":"347","comment":"commenting on your account","created_on":"2025-06-08T21:40:13.000Z","edited_on":null,"created_by":"272","issue_id":null,"customer_id":"5178","created":{"id":"272","first_name":"Ayo","last_name":"Jide"},"can_edit":true,"can_delete":true,"replies":[]},{"id":"345","comment":"commenting on your account","created_on":"2025-06-08T21:37:10.000Z","edited_on":null,"created_by":"272","issue_id":null,"customer_id":"5178","created":{"id":"272","first_name":"Ayo","last_name":"Jide"},"can_edit":true,"can_delete":true,"replies":[]},{"id":"343","comment":"commenting on your account","created_on":"2025-06-08T21:36:19.000Z","edited_on":null,"created_by":"272","issue_id":null,"customer_id":"5178","created":{"id":"272","first_name":"Ayo","last_name":"Jide"},"can_edit":true,"can_delete":true,"replies":[]},{"id":"342","comment":"commenting on your account","created_on":"2025-06-08T21:34:27.000Z","edited_on":null,"created_by":"272","issue_id":null,"customer_id":"5178","created":{"id":"272","first_name":"Ayo","last_name":"Jide"},"can_edit":true,"can_delete":true,"replies":[]},{"id":"340","comment":"commenting on your account","created_on":"2025-06-08T21:31:08.000Z","edited_on":null,"created_by":"272","issue_id":null,"customer_id":"5178","created":{"id":"272","first_name":"Ayo","last_name":"Jide"},"can_edit":true,"can_delete":true,"replies":[]},{"id":"339","comment":"HEY","created_on":"2025-06-08T21:31:07.000Z","edited_on":null,"created_by":"272","issue_id":489,"customer_id":"5178","created":{"id":"272","first_name":"Ayo","last_name":"Jide"},"can_edit":true,"can_delete":true,"replies":[]},{"id":"337","comment":"commenting on your account","created_on":"2025-06-08T21:28:23.000Z","edited_on":null,"created_by":"272","issue_id":null,"customer_id":"5178","created":{"id":"272","first_name":"Ayo","last_name":"Jide"},"can_edit":true,"can_delete":true,"replies":[]},{"id":"336","comment":"HEY","created_on":"2025-06-08T21:28:19.000Z","edited_on":null,"created_by":"272","issue_id":487,"customer_id":"5178","created":{"id":"272","first_name":"Ayo","last_name":"Jide"},"can_edit":true,"can_delete":true,"replies":[]}],"total":78,"page":1,"limit":10,"totalPages":8}}