{"status":true,"response":{"data":[{"id":"403","comment":"commenting on your account","created_on":"2025-06-29T20:11:43.000Z","edited_on":null,"created_by":"272","issue_id":null,"customer_id":"5178","created":{"id":"272","first_name":"Ayo","last_name":"Jide"},"can_edit":true,"can_delete":true,"replies":[]},{"id":"402","comment":"HEY","created_on":"2025-06-29T20:11:42.000Z","edited_on":null,"created_by":"272","issue_id":574,"customer_id":"5178","created":{"id":"272","first_name":"Ayo","last_name":"Jide"},"can_edit":true,"can_delete":true,"replies":[]},{"id":"401","comment":"hey favorite","created_on":"2025-06-27T18:58:22.000Z","edited_on":"2025-06-27T18:58:23.000Z","created_by":"272","issue_id":null,"customer_id":"5178","created":{"id":"272","first_name":"Ayo","last_name":"Jide"},"can_edit":true,"can_delete":true,"replies":[]},{"id":"399","comment":"hey favorite","created_on":"2025-06-25T18:51:00.000Z","edited_on":"2025-06-25T18:51:01.000Z","created_by":"272","issue_id":null,"customer_id":"5178","created":{"id":"272","first_name":"Ayo","last_name":"Jide"},"can_edit":true,"can_delete":true,"replies":[]},{"id":"396","comment":"hey favorite","created_on":"2025-06-22T20:11:14.000Z","edited_on":"2025-06-22T20:11:15.000Z","created_by":"272","issue_id":null,"customer_id":"5178","created":{"id":"272","first_name":"Ayo","last_name":"Jide"},"can_edit":true,"can_delete":true,"replies":[]},{"id":"394","comment":"hey favorite","created_on":"2025-06-20T18:57:48.000Z","edited_on":"2025-06-20T18:57:49.000Z","created_by":"272","issue_id":null,"customer_id":"5178","created":{"id":"272","first_name":"Ayo","last_name":"Jide"},"can_edit":true,"can_delete":true,"replies":[]},{"id":"392","comment":"hey favorite","created_on":"2025-06-18T18:50:16.000Z","edited_on":"2025-06-18T18:50:17.000Z","created_by":"272","issue_id":null,"customer_id":"5178","created":{"id":"272","first_name":"Ayo","last_name":"Jide"},"can_edit":true,"can_delete":true,"replies":[]},{"id":"390","comment":"hey favorite","created_on":"2025-06-15T20:11:00.000Z","edited_on":"2025-06-15T20:11:01.000Z","created_by":"272","issue_id":null,"customer_id":"5178","created":{"id":"272","first_name":"Ayo","last_name":"Jide"},"can_edit":true,"can_delete":true,"replies":[]},{"id":"388","comment":"hey favorite","created_on":"2025-06-13T17:13:47.000Z","edited_on":"2025-06-13T17:13:48.000Z","created_by":"272","issue_id":null,"customer_id":"5178","created":{"id":"272","first_name":"Ayo","last_name":"Jide"},"can_edit":true,"can_delete":true,"replies":[]},{"id":"386","comment":"hey favorite","created_on":"2025-06-08T23:08:41.000Z","edited_on":"2025-06-08T23:08:42.000Z","created_by":"272","issue_id":null,"customer_id":"5178","created":{"id":"272","first_name":"Ayo","last_name":"Jide"},"can_edit":true,"can_delete":true,"replies":[]}],"total":107,"page":1,"limit":10,"totalPages":11}}