{"status":true,"response":{"data":[{"id":"384","comment":"commenting on your account","created_on":"2025-06-08T23:07:31.000Z","edited_on":null,"created_by":"272","issue_id":null,"customer_id":"5178","created":{"id":"272","first_name":"Ayo","last_name":"Jide"},"can_edit":true,"can_delete":true,"replies":[]},{"id":"383","comment":"HEY","created_on":"2025-06-08T23:07:30.000Z","edited_on":null,"created_by":"272","issue_id":545,"customer_id":"5178","created":{"id":"272","first_name":"Ayo","last_name":"Jide"},"can_edit":true,"can_delete":true,"replies":[]},{"id":"382","comment":"hey favorite","created_on":"2025-06-08T23:02:13.000Z","edited_on":"2025-06-08T23:02:14.000Z","created_by":"272","issue_id":null,"customer_id":"5178","created":{"id":"272","first_name":"Ayo","last_name":"Jide"},"can_edit":true,"can_delete":true,"replies":[]},{"id":"380","comment":"hey favorite","created_on":"2025-06-08T22:53:25.000Z","edited_on":"2025-06-08T22:53:27.000Z","created_by":"272","issue_id":null,"customer_id":"5178","created":{"id":"272","first_name":"Ayo","last_name":"Jide"},"can_edit":true,"can_delete":true,"replies":[]},{"id":"378","comment":"hey favorite","created_on":"2025-06-08T22:38:43.000Z","edited_on":"2025-06-08T22:38:44.000Z","created_by":"272","issue_id":null,"customer_id":"5178","created":{"id":"272","first_name":"Ayo","last_name":"Jide"},"can_edit":true,"can_delete":true,"replies":[]},{"id":"376","comment":"hey favorite","created_on":"2025-06-08T22:38:00.000Z","edited_on":"2025-06-08T22:38:01.000Z","created_by":"272","issue_id":null,"customer_id":"5178","created":{"id":"272","first_name":"Ayo","last_name":"Jide"},"can_edit":true,"can_delete":true,"replies":[]},{"id":"374","comment":"hey favorite","created_on":"2025-06-08T22:34:23.000Z","edited_on":"2025-06-08T23:02:19.000Z","created_by":"272","issue_id":null,"customer_id":"5178","created":{"id":"272","first_name":"Ayo","last_name":"Jide"},"can_edit":true,"can_delete":true,"replies":[]},{"id":"373","comment":"commenting on your account","created_on":"2025-06-08T22:31:56.000Z","edited_on":null,"created_by":"272","issue_id":null,"customer_id":"5178","created":{"id":"272","first_name":"Ayo","last_name":"Jide"},"can_edit":true,"can_delete":true,"replies":[]},{"id":"371","comment":"commenting on your account","created_on":"2025-06-08T22:29:06.000Z","edited_on":null,"created_by":"272","issue_id":null,"customer_id":"5178","created":{"id":"272","first_name":"Ayo","last_name":"Jide"},"can_edit":true,"can_delete":true,"replies":[]},{"id":"369","comment":"hey favorite","created_on":"2025-06-08T22:27:27.000Z","edited_on":"2025-06-08T22:31:57.000Z","created_by":"272","issue_id":null,"customer_id":"5178","created":{"id":"272","first_name":"Ayo","last_name":"Jide"},"can_edit":true,"can_delete":true,"replies":[]}],"total":98,"page":1,"limit":10,"totalPages":10}}