{"status":true,"response":{"data":[{"customer_name":"SUNRISE PRODUCTS LIMITED","customer_start_date":"","email":"novabank@assurdly.com","first_name":"","gender":"","id":"4790","last_name":"","middle_name":"","phone":"2348024707794","type":"customers"},{"account_name":"SUNRISE PRODUCTS LIMITED TFA USD","account_number":"5020010123","currency_code":"USD","customer_id":"4790","customer_name":"SUNRISE PRODUCTS LIMITED","id":"NB5000814","ledger_balance":0,"product_name":"TRADE FINANCE ACCOUNTS","schema_code":"5020","type":"accounts"},{"account_name":"SUNRISE PRODUCTS LIMITED TFA IGF","account_number":"1005010274","currency_code":"USD","customer_id":"4790","customer_name":"SUNRISE PRODUCTS LIMITED","id":"NB5000038","ledger_balance":0,"product_name":"CURRENT ACCOUNT TRADE FINANCE","schema_code":"1005","type":"accounts"},{"account_name":"SUNRISE PRODUCTS LIMITED FX BIDDING ACCOUNT","account_number":"2002010610","currency_code":"NGN","customer_id":"4790","customer_name":"SUNRISE PRODUCTS LIMITED","id":"NB5002434","ledger_balance":0,"product_name":"CUSTOMER FX BIDDING ACCOUNT","schema_code":"2002","type":"accounts"},{"account_name":"SUNRISE PRODUCTS LIMITED CLEANLINE FUND ACC","account_number":"1010010197","currency_code":"NGN","customer_id":"4790","customer_name":"SUNRISE PRODUCTS LIMITED","id":"NB5000899","ledger_balance":100228708.2,"product_name":"CLEAN LINE FUNDING ACCOUNT","schema_code":"1010","type":"accounts"},{"account_name":"SUNRISE PRODUCTS LIMITED","account_number":"1600304712","currency_code":"USD","customer_id":"4790","customer_name":"SUNRISE PRODUCTS LIMITED","id":"NB5013523","ledger_balance":-48612.48,"product_name":"OFFSHORE REFINANCE","schema_code":"16003","type":"accounts"},{"account_name":"SUNRISE PRODUCTS LIMITED","account_number":"1600303522","currency_code":"USD","customer_id":"4790","customer_name":"SUNRISE PRODUCTS LIMITED","id":"NB5007846","ledger_balance":0,"product_name":"OFFSHORE REFINANCE","schema_code":"16003","type":"accounts"},{"account_name":"SUNRISE PRODUCTS LIMITED","account_number":"1600303553","currency_code":"USD","customer_id":"4790","customer_name":"SUNRISE PRODUCTS LIMITED","id":"NB5007852","ledger_balance":0,"product_name":"OFFSHORE REFINANCE","schema_code":"16003","type":"accounts"},{"account_name":"SUNRISE PRODUCTS LIMITED","account_number":"1600303494","currency_code":"USD","customer_id":"4790","customer_name":"SUNRISE PRODUCTS LIMITED","id":"NB5007843","ledger_balance":0,"product_name":"OFFSHORE REFINANCE","schema_code":"16003","type":"accounts"},{"account_name":"SUNRISE PRODUCTS LIMITED","account_number":"1600103339","currency_code":"NGN","customer_id":"4790","customer_name":"SUNRISE PRODUCTS LIMITED","id":"NB5013483","ledger_balance":-274447631.38,"product_name":"SHORT TERM LOAN","schema_code":"16001","type":"accounts"},{"account_name":"SUNRISE PRODUCTS LIMITED","account_number":"1600304684","currency_code":"USD","customer_id":"4790","customer_name":"SUNRISE PRODUCTS LIMITED","id":"NB5013510","ledger_balance":-109711.89,"product_name":"OFFSHORE REFINANCE","schema_code":"16003","type":"accounts"}],"total":58,"page":1,"limit":10,"totalPages":6}}