{"status":true,"response":{"total":53,"page":1,"limit":10,"totalPages":6,"data":[{"created_on":"2025-03-26T18:45:33.000Z","modified_on":"2025-03-26T18:45:33.000Z","id":"3213","slug":"issue-status","name":"Issue Status","description":"Issue Status","meta":null,"parent":{"slug":"root"},"creator":{"first_name":"Ayo","last_name":"Jide","email":"test_superadmin_staging_01@yopmail.com","status":"inactive","id":"272","display_name":null},"sub_definition_count":3},{"created_on":"2025-03-26T11:17:29.000Z","modified_on":"2025-03-26T11:17:29.000Z","id":"3212","slug":"issue-status","name":"Issue Status","description":"Issue Status","meta":null,"parent":{"slug":"root"},"creator":{"first_name":"Ayo","last_name":"Jide","email":"test_superadmin_staging_01@yopmail.com","status":"inactive","id":"272","display_name":null},"sub_definition_count":3},{"created_on":"2025-03-22T23:50:05.000Z","modified_on":"2025-03-25T06:40:26.000Z","id":"3211","slug":"issue-status","name":"Issue Status","description":"Issue Status","meta":null,"parent":{"slug":"root"},"creator":{"first_name":"Ayo","last_name":"Jide","email":"test_superadmin_staging_01@yopmail.com","status":"inactive","id":"272","display_name":null},"sub_definition_count":3},{"created_on":"2025-03-22T22:19:34.000Z","modified_on":"2025-03-22T22:19:34.000Z","id":"3210","slug":"issue-status","name":"Issue Status","description":"Issue Status","meta":null,"parent":{"slug":"root"},"creator":{"first_name":"Ayo","last_name":"Jide","email":"test_superadmin_staging_01@yopmail.com","status":"inactive","id":"272","display_name":null},"sub_definition_count":3},{"created_on":"2025-03-22T12:41:46.000Z","modified_on":"2025-03-22T12:41:46.000Z","id":"3209","slug":"issue-status","name":"Issue Status","description":"Issue Status","meta":null,"parent":{"slug":"root"},"creator":{"first_name":"Ayo","last_name":"Jide","email":"test_superadmin_staging_01@yopmail.com","status":"inactive","id":"272","display_name":null},"sub_definition_count":3},{"created_on":"2025-03-22T00:19:36.000Z","modified_on":"2025-03-22T00:19:36.000Z","id":"3208","slug":"example-def","name":"Example def","description":"example","meta":null,"parent":{"slug":"root"},"creator":{"first_name":"Christopher","last_name":"Esiv","email":"christopher@yopmail.com","status":"inactive","id":"290","display_name":null},"sub_definition_count":0},{"created_on":"2025-03-21T18:52:13.000Z","modified_on":"2025-03-21T23:32:04.000Z","id":"3207","slug":"issue-status","name":"Issue Status","description":"Issue Status","meta":null,"parent":{"slug":"root"},"creator":{"first_name":"Ayo","last_name":"Jide","email":"test_superadmin_staging_01@yopmail.com","status":"inactive","id":"272","display_name":null},"sub_definition_count":3},{"created_on":"2025-03-19T18:45:01.000Z","modified_on":"2025-03-21T06:13:16.000Z","id":"3206","slug":"issue-status","name":"Issue Status","description":"Issue Status","meta":null,"parent":{"slug":"root"},"creator":{"first_name":"Ayo","last_name":"Jide","email":"test_superadmin_staging_01@yopmail.com","status":"inactive","id":"272","display_name":null},"sub_definition_count":3},{"created_on":"2025-03-17T08:27:47.000Z","modified_on":"2025-03-19T13:42:52.000Z","id":"3202","slug":"issue-status","name":"Issue Status","description":"Issue Status","meta":null,"parent":{"slug":"root"},"creator":{"first_name":"Ayo","last_name":"Jide","email":"test_superadmin_staging_01@yopmail.com","status":"inactive","id":"272","display_name":null},"sub_definition_count":3},{"created_on":"2025-03-17T08:00:11.000Z","modified_on":"2025-03-17T08:00:11.000Z","id":"3201","slug":"issue-status","name":"Issue Status","description":"Issue Status","meta":null,"parent":{"slug":"root"},"creator":{"first_name":"Ayo","last_name":"Jide","email":"test_superadmin_staging_01@yopmail.com","status":"inactive","id":"272","display_name":null},"sub_definition_count":3}]}}