{"status":true,"response":{"total":32,"page":1,"limit":10,"totalPages":4,"data":[{"module":"General","created_on":"2025-04-02T17:23:19.524Z","created_by":null,"modified_on":"2025-04-02T17:23:19.524Z","modified_by":null,"deleted_on":null,"deleted_by":null,"id":32,"name":"BUDGET","description":"Budget permission","meta":null},{"module":"General","created_on":"2025-04-02T17:23:19.445Z","created_by":null,"modified_on":"2025-04-02T17:23:19.445Z","modified_by":null,"deleted_on":null,"deleted_by":null,"id":31,"name":"COMMENT","description":"Comment permission","meta":null},{"module":"Administration","created_on":"2025-04-02T17:23:19.420Z","created_by":null,"modified_on":"2025-04-02T17:23:19.420Z","modified_by":null,"deleted_on":null,"deleted_by":null,"id":30,"name":"BUDGETING","description":"Budgeting permission","meta":null},{"module":"Administration","created_on":"2025-04-02T17:23:19.341Z","created_by":null,"modified_on":"2025-04-02T17:23:19.341Z","modified_by":null,"deleted_on":null,"deleted_by":null,"id":29,"name":"WORKFLOW","description":"Workflow permission","meta":null},{"module":"General","created_on":"2025-03-20T20:20:26.988Z","created_by":null,"modified_on":"2025-03-20T20:20:26.988Z","modified_by":null,"deleted_on":null,"deleted_by":null,"id":28,"name":"CUSTOMER_COMMENTS","description":"Customer comments permission","meta":null},{"module":"General","created_on":"2025-03-20T20:20:26.964Z","created_by":null,"modified_on":"2025-03-20T20:20:26.964Z","modified_by":null,"deleted_on":null,"deleted_by":null,"id":27,"name":"CUSTOMER_INVESTMENTS","description":"Customer investments permission","meta":null},{"module":"General","created_on":"2025-03-20T20:20:26.878Z","created_by":null,"modified_on":"2025-03-20T20:20:26.878Z","modified_by":null,"deleted_on":null,"deleted_by":null,"id":26,"name":"CUSTOMER_LOANS","description":"Customer loans permission","meta":null},{"module":"General","created_on":"2025-03-20T20:20:26.800Z","created_by":null,"modified_on":"2025-03-20T20:20:26.800Z","modified_by":null,"deleted_on":null,"deleted_by":null,"id":25,"name":"CUSTOMER_COMMUNICATIONS","description":"Customer communications permission","meta":null},{"module":"General","created_on":"2025-03-20T20:20:26.777Z","created_by":null,"modified_on":"2025-03-20T20:20:26.777Z","modified_by":null,"deleted_on":null,"deleted_by":null,"id":24,"name":"CUSTOMER_CHANNELS","description":"Customer channels permission","meta":null},{"module":"General","created_on":"2025-03-20T20:20:26.689Z","created_by":null,"modified_on":"2025-03-20T20:20:26.689Z","modified_by":null,"deleted_on":null,"deleted_by":null,"id":23,"name":"CUSTOMER_TRANSACTIONS","description":"Customer transactions permission","meta":null}]}}