{"status":true,"response":{"total":226,"page":1,"limit":10,"totalPages":23,"data":[{"created_on":"2025-04-09T07:45:10.000Z","created_by":"170","modified_on":"2025-04-09T07:55:26.000Z","id":"306","staff_id":null,"manager_id":null,"first_name":"Opeyemi","last_name":"Dada","display_name":null,"description":null,"photo":null,"phone":null,"email":"opeyemi.dada@novabank.ng","status":"active","last_login_date":"2025-04-09T07:55:27.000Z"},{"created_on":"2025-04-07T20:32:04.000Z","created_by":"170","modified_on":"2025-04-07T22:34:27.000Z","id":"305","staff_id":null,"manager_id":null,"first_name":"kayode","last_name":"OSENI","display_name":null,"description":null,"photo":null,"phone":null,"email":"uthmanomokayode@gmail.com","status":"active","last_login_date":"2025-04-07T22:34:27.000Z"},{"created_on":"2025-04-04T14:09:18.000Z","created_by":"188","modified_on":"2025-04-04T14:09:18.000Z","id":"304","staff_id":null,"manager_id":null,"first_name":"","last_name":"","display_name":null,"description":null,"photo":null,"phone":null,"email":"QA_tester@yopmail.com","status":"pending","last_login_date":null},{"created_on":"2025-03-28T18:22:46.000Z","created_by":"188","modified_on":"2025-03-28T19:52:38.000Z","id":"303","staff_id":null,"manager_id":null,"first_name":"Morgan","last_name":"Zee","display_name":null,"description":null,"photo":null,"phone":null,"email":"Morgan@yopmail.com","status":"active","last_login_date":"2025-03-28T19:52:39.000Z"},{"created_on":"2025-03-28T09:45:19.000Z","created_by":"188","modified_on":"2025-04-08T19:14:51.000Z","id":"302","staff_id":null,"manager_id":null,"first_name":"Emmanuel","last_name":"Joe","display_name":null,"description":null,"photo":null,"phone":null,"email":"Emmanuel@yopmail.com","status":"active","last_login_date":"2025-04-08T19:14:51.000Z"},{"created_on":"2025-03-28T07:07:14.000Z","created_by":"188","modified_on":"2025-03-28T07:07:14.000Z","id":"301","staff_id":null,"manager_id":null,"first_name":"","last_name":"","display_name":null,"description":null,"photo":null,"phone":null,"email":"gray@yopmail.com","status":"pending","last_login_date":null},{"created_on":"2025-03-26T14:14:45.000Z","created_by":"188","modified_on":"2025-03-26T14:14:45.000Z","id":"300","staff_id":null,"manager_id":null,"first_name":"","last_name":"","display_name":null,"description":null,"photo":null,"phone":null,"email":"morgan@assurdly.com","status":"pending","last_login_date":null},{"created_on":"2025-03-25T16:05:51.000Z","created_by":"170","modified_on":"2025-04-07T09:18:05.000Z","id":"299","staff_id":null,"manager_id":null,"first_name":"Udeme","last_name":"Ben","display_name":null,"description":null,"photo":null,"phone":null,"email":"udeme+13@assurdly.com","status":"active","last_login_date":"2025-04-07T09:18:05.000Z"},{"created_on":"2025-03-25T06:20:16.000Z","created_by":"188","modified_on":"2025-03-25T06:49:18.000Z","id":"298","staff_id":null,"manager_id":null,"first_name":"Billy","last_name":"Roy","display_name":null,"description":null,"photo":null,"phone":null,"email":"Billy@yopmail.com","status":"active","last_login_date":"2025-03-25T06:49:18.000Z"},{"created_on":"2025-03-24T16:22:41.000Z","created_by":"172","modified_on":"2025-03-24T16:51:26.000Z","id":"297","staff_id":null,"manager_id":null,"first_name":"christo","last_name":"esiv","display_name":null,"description":null,"photo":null,"phone":null,"email":"christo@yopmail.com","status":"active","last_login_date":"2025-03-24T16:51:27.000Z"}]}}