{"status":true,"response":{"total":2992,"page":1,"limit":10,"totalPages":300,"data":[{"created_on":"2025-02-10T17:32:59.000Z","created_by":"1","modified_on":"2025-02-10T17:32:59.000Z","modified_by":null,"deleted_on":null,"deleted_by":null,"id":"2995","uuid":"0194f0eb-e569-76de-8ba6-b91e25cb09e1","slug":"system_settings_category","name":"System Settings","description":"System Settings","meta":null},{"created_on":"2025-02-10T15:49:31.000Z","created_by":"4","modified_on":"2025-02-10T15:49:31.000Z","modified_by":null,"deleted_on":null,"deleted_by":null,"id":"2994","uuid":"0194f08d-2c22-779d-bb1c-b8d68fa202b7","slug":"gha","name":"Ghana","description":"Another country","meta":{"iso-2-code":"gh"}},{"created_on":"2025-02-10T15:49:31.000Z","created_by":"4","modified_on":"2025-02-10T15:49:31.000Z","modified_by":null,"deleted_on":null,"deleted_by":null,"id":"2993","uuid":"0194f08d-2c22-779d-bb1c-b583b5100f07","slug":"nga","name":"Nigeria","description":"A country","meta":{"iso-2-code":"ng"}},{"created_on":"2025-02-09T21:05:44.000Z","created_by":"4","modified_on":"2025-02-09T21:05:44.000Z","modified_by":null,"deleted_on":null,"deleted_by":null,"id":"2992","uuid":"0194ec88-51ff-7118-8e7e-aa1d15cd91a6","slug":"","name":"","description":"","meta":null},{"created_on":"2025-02-09T21:03:24.000Z","created_by":"4","modified_on":"2025-02-09T21:03:24.000Z","modified_by":null,"deleted_on":null,"deleted_by":null,"id":"2991","uuid":"0194ec86-2d62-7394-afee-9efd55c9cb62","slug":"","name":"","description":"","meta":null},{"created_on":"2025-02-05T21:31:00.000Z","created_by":"1","modified_on":"2025-02-05T21:31:00.000Z","modified_by":null,"deleted_on":null,"deleted_by":null,"id":"2987","uuid":"0194d806-0407-7489-91a1-22129efac1cd","slug":"organization_types","name":"Organization Categories","description":"Organization Categories","meta":null},{"created_on":"2025-02-05T21:31:00.000Z","created_by":"1","modified_on":"2025-02-05T21:31:00.000Z","modified_by":null,"deleted_on":null,"deleted_by":null,"id":"2986","uuid":"0194d806-0406-77ac-9971-074576f3d723","slug":"organization_settings","name":"Organization Settings","description":"All settings related to organization","meta":null},{"created_on":"2025-02-05T21:31:00.000Z","created_by":"1","modified_on":"2025-02-05T21:31:00.000Z","modified_by":null,"deleted_on":null,"deleted_by":null,"id":"2988","uuid":"0194d806-0407-7489-91a1-2714c47bec2a","slug":"abia","name":"Abia","description":"Abia State","meta":null},{"created_on":"2025-02-05T21:31:00.000Z","created_by":"1","modified_on":"2025-02-05T21:31:00.000Z","modified_by":null,"deleted_on":null,"deleted_by":null,"id":"2989","uuid":"0194d806-0407-7489-91a1-2841bd38902d","slug":"bayelsa","name":"Bayelsa","description":"Bayelsa State","meta":null},{"created_on":"2025-02-05T21:31:00.000Z","created_by":"1","modified_on":"2025-02-05T21:31:00.000Z","modified_by":null,"deleted_on":null,"deleted_by":null,"id":"2990","uuid":"0194d806-0407-7489-91a1-2d2958807ac0","slug":"lagos","name":"Lagos","description":"Lagos State","meta":null}]}}