{"status":true,"response":{"total":170,"page":1,"limit":10,"totalPages":17,"data":[{"created_on":"2025-02-13T05:19:19.000Z","created_by":"170","modified_on":"2025-02-13T13:39:18.000Z","id":"172","staff_id":null,"manager_id":"4","first_name":"Chris","last_name":"Esiv","display_name":null,"description":null,"photo":null,"phone":"+2349057362451","email":"chris@yopmail.com","status":"active","last_login_date":"2025-02-13T13:39:19.000Z"},{"created_on":"2025-02-12T16:46:29.000Z","created_by":"4","modified_on":"2025-02-14T16:05:41.000Z","id":"171","staff_id":null,"manager_id":"4","first_name":"Favour","last_name":"Desent","display_name":null,"description":null,"photo":null,"phone":null,"email":"favouradministrator@yopmail.com","status":"active","last_login_date":"2025-02-14T16:05:41.000Z"},{"created_on":"2025-02-12T16:28:48.000Z","created_by":"4","modified_on":"2025-02-14T09:55:15.000Z","id":"170","staff_id":null,"manager_id":"4","first_name":"Udeme","last_name":"Ben","display_name":null,"description":null,"photo":null,"phone":"+2348171111110","email":"Udeme@yopmail.com","status":"active","last_login_date":"2025-02-14T09:55:16.000Z"},{"created_on":"2025-02-11T09:26:54.000Z","created_by":"4","modified_on":"2025-02-14T16:15:36.000Z","id":"169","staff_id":null,"manager_id":"4","first_name":"Favour","last_name":"Elijah","display_name":null,"description":null,"photo":null,"phone":null,"email":"favourr@yopmail.com","status":"active","last_login_date":"2025-02-14T17:15:36.000Z"},{"created_on":"2025-01-29T09:16:06.000Z","created_by":null,"modified_on":"2025-01-29T20:44:42.000Z","id":"5","staff_id":"360","manager_id":null,"first_name":"Chinwe","last_name":"Iloghalu","display_name":"Chinwe Iloghalu","description":"Ag. MD/CEO","photo":null,"phone":null,"email":"Chinwe.Iloghalu@novabank.ng","status":null,"last_login_date":null},{"created_on":"2025-01-29T09:16:06.000Z","created_by":null,"modified_on":"2025-01-29T20:44:47.000Z","id":"6","staff_id":"374","manager_id":null,"first_name":"David","last_name":"Isiavwe","display_name":"David Isiavwe","description":"Executive Director","photo":null,"phone":null,"email":"David.Isiavwe@novabank.ng","status":null,"last_login_date":null},{"created_on":"2025-01-29T09:16:06.000Z","created_by":null,"modified_on":"2025-02-06T19:22:27.000Z","id":"7","staff_id":"343","manager_id":"360","first_name":"Esther","last_name":"Adino","display_name":"Esther Adino","description":"Group Head","photo":null,"phone":null,"email":"Esther.Adino@novabank.ng","status":null,"last_login_date":null},{"created_on":"2025-01-29T09:16:06.000Z","created_by":null,"modified_on":"2025-01-29T20:44:51.000Z","id":"8","staff_id":"382","manager_id":null,"first_name":"Uyoyoukaro","last_name":"Ewhe","display_name":"Uyoyoukaro Ewhe","description":"Ag. Chief Compliance Officer","photo":null,"phone":null,"email":"Uyoyoukaro.Ewhe@novabank.ng","status":null,"last_login_date":null},{"created_on":"2025-01-29T09:16:06.000Z","created_by":null,"modified_on":"2025-02-06T19:22:27.000Z","id":"9","staff_id":"UGB","manager_id":"360","first_name":"Uche","last_name":"Ugboh","display_name":"Uche Ugboh","description":"Group Treasurer","photo":null,"phone":null,"email":"Uche.Ugboh@novabank.ng","status":null,"last_login_date":null},{"created_on":"2025-01-29T09:16:06.000Z","created_by":null,"modified_on":"2025-01-29T20:44:01.000Z","id":"10","staff_id":"264","manager_id":null,"first_name":"Kehinde","last_name":"Olugbemi","display_name":"Kehinde Olugbemi","description":"Chief Risk Officer","photo":null,"phone":null,"email":"Kehinde.Olugbemi@novabank.ng","status":null,"last_login_date":null}]}}