{"status":true,"response":{"status":true,"response":{"total":794,"page":1,"limit":10,"totalPages":80,"data":[{"created_on":"2025-02-06T23:41:50.000Z","created_by":"4","modified_on":"2025-02-06T23:41:50.000Z","modified_by":null,"deleted_on":null,"deleted_by":null,"id":"794","name":"READ_PROFILE","description":"Favour Elijah accessed PROFILE to READ","type":"READ_PROFILE"},{"created_on":"2025-02-06T21:31:21.000Z","created_by":"4","modified_on":"2025-02-06T21:31:21.000Z","modified_by":null,"deleted_on":null,"deleted_by":null,"id":"793","name":"READ_ROLES","description":"Favour Elijah accessed ROLES to READ","type":"READ_ROLES"},{"created_on":"2025-02-06T21:31:21.000Z","created_by":"4","modified_on":"2025-02-06T21:31:21.000Z","modified_by":null,"deleted_on":null,"deleted_by":null,"id":"792","name":"READ_ROLES","description":"Favour Elijah accessed ROLES to READ","type":"READ_ROLES"},{"created_on":"2025-02-06T21:30:25.000Z","created_by":"4","modified_on":"2025-02-06T21:30:25.000Z","modified_by":null,"deleted_on":null,"deleted_by":null,"id":"791","name":"READ_ROLES","description":"Favour Elijah accessed ROLES to READ","type":"READ_ROLES"},{"created_on":"2025-02-06T21:30:12.000Z","created_by":"4","modified_on":"2025-02-06T21:30:12.000Z","modified_by":null,"deleted_on":null,"deleted_by":null,"id":"790","name":"READ_PROFILE","description":"Favour Elijah accessed PROFILE to READ","type":"READ_PROFILE"},{"created_on":"2025-02-06T21:29:58.000Z","created_by":"4","modified_on":"2025-02-06T21:29:58.000Z","modified_by":null,"deleted_on":null,"deleted_by":null,"id":"789","name":"READ_PROFILE","description":"Favour Elijah accessed PROFILE to READ","type":"READ_PROFILE"},{"created_on":"2025-02-06T21:28:57.000Z","created_by":"4","modified_on":"2025-02-06T21:28:57.000Z","modified_by":null,"deleted_on":null,"deleted_by":null,"id":"788","name":"READ_PROFILE","description":"Favour Elijah accessed PROFILE to READ","type":"READ_PROFILE"},{"created_on":"2025-02-06T21:28:56.000Z","created_by":"4","modified_on":"2025-02-06T21:28:56.000Z","modified_by":null,"deleted_on":null,"deleted_by":null,"id":"787","name":"READ_PROFILE","description":"Favour Elijah accessed PROFILE to READ","type":"READ_PROFILE"},{"created_on":"2025-02-06T17:53:51.000Z","created_by":"4","modified_on":"2025-02-06T17:53:51.000Z","modified_by":null,"deleted_on":null,"deleted_by":null,"id":"786","name":"READ_PROFILE","description":"Favour Elijah accessed PROFILE to READ","type":"READ_PROFILE"},{"created_on":"2025-02-06T17:53:34.000Z","created_by":"4","modified_on":"2025-02-06T17:53:34.000Z","modified_by":null,"deleted_on":null,"deleted_by":null,"id":"785","name":"READ_PROFILE","description":"Favour Elijah accessed PROFILE to READ","type":"READ_PROFILE"}]}}}