{"status":true,"response":{"total":1054,"page":1,"limit":10,"totalPages":106,"data":[{"created_on":"2025-02-08T23:54:08.000Z","created_by":"4","modified_on":"2025-02-08T23:54:08.000Z","modified_by":null,"deleted_on":null,"deleted_by":null,"id":"1054","event_id":"1666","entity_type":"PERMISSION","entity_id":null,"description":"Favour Elijah listed PERMISSION with IDs 14, 13, 12, 11, 10, 9, 8, 7, 6, 5, 4, 3, 2, 1","ip_address":"102.89.34.180","location":"Lagos","meta":null},{"created_on":"2025-02-08T23:54:02.000Z","created_by":"4","modified_on":"2025-02-08T23:54:02.000Z","modified_by":null,"deleted_on":null,"deleted_by":null,"id":"1053","event_id":"1665","entity_type":"ROLES","entity_id":"10","description":"Favour Elijah read ROLES with ID 10","ip_address":"102.89.34.180","location":"Lagos","meta":null},{"created_on":"2025-02-08T23:54:00.000Z","created_by":"4","modified_on":"2025-02-08T23:54:00.000Z","modified_by":null,"deleted_on":null,"deleted_by":null,"id":"1052","event_id":"1664","entity_type":"PROFILE","entity_id":null,"description":"Favour Elijah read PROFILE with ID 4","ip_address":"102.89.34.180","location":"Lagos","meta":null},{"created_on":"2025-02-08T23:53:59.000Z","created_by":"4","modified_on":"2025-02-08T23:53:59.000Z","modified_by":null,"deleted_on":null,"deleted_by":null,"id":"1051","event_id":"1663","entity_type":"PROFILE","entity_id":null,"description":"Favour Elijah read PROFILE with ID 4","ip_address":"102.89.34.180","location":"Lagos","meta":null},{"created_on":"2025-02-08T23:53:56.000Z","created_by":"4","modified_on":"2025-02-08T23:53:56.000Z","modified_by":null,"deleted_on":null,"deleted_by":null,"id":"1050","event_id":"1662","entity_type":"ROLES","entity_id":"10","description":"Favour Elijah read ROLES with ID 10","ip_address":"102.89.34.180","location":"Lagos","meta":null},{"created_on":"2025-02-08T23:53:50.000Z","created_by":"4","modified_on":"2025-02-08T23:53:50.000Z","modified_by":null,"deleted_on":null,"deleted_by":null,"id":"1049","event_id":"1661","entity_type":"PERMISSION","entity_id":null,"description":"Favour Elijah listed PERMISSION with IDs 14, 13, 12, 11, 10, 9, 8, 7, 6, 5, 4, 3, 2, 1","ip_address":"102.89.34.180","location":"Lagos","meta":null},{"created_on":"2025-02-08T23:53:10.000Z","created_by":"4","modified_on":"2025-02-08T23:53:10.000Z","modified_by":null,"deleted_on":null,"deleted_by":null,"id":"1048","event_id":"1660","entity_type":"PERMISSION","entity_id":null,"description":"Favour Elijah listed PERMISSION with IDs 14, 13, 12, 11, 10, 9, 8, 7, 6, 5, 4, 3, 2, 1","ip_address":"102.89.34.180","location":"Lagos","meta":null},{"created_on":"2025-02-08T23:53:04.000Z","created_by":"4","modified_on":"2025-02-08T23:53:04.000Z","modified_by":null,"deleted_on":null,"deleted_by":null,"id":"1047","event_id":"1659","entity_type":"ROLES","entity_id":"10","description":"Favour Elijah read ROLES with ID 10","ip_address":"102.89.34.180","location":"Lagos","meta":null},{"created_on":"2025-02-08T23:52:39.000Z","created_by":"4","modified_on":"2025-02-08T23:52:39.000Z","modified_by":null,"deleted_on":null,"deleted_by":null,"id":"1046","event_id":"1658","entity_type":"PROFILE","entity_id":null,"description":"Favour Elijah read PROFILE with ID 4","ip_address":"102.89.34.180","location":"Lagos","meta":null},{"created_on":"2025-02-08T23:52:14.000Z","created_by":"4","modified_on":"2025-02-08T23:52:14.000Z","modified_by":null,"deleted_on":null,"deleted_by":null,"id":"1045","event_id":"1657","entity_type":"PROFILE","entity_id":null,"description":"Favour Elijah read PROFILE with ID 4","ip_address":"102.89.34.180","location":"Lagos","meta":null}]}}