{"status":true,"response":{"total":179,"page":1,"limit":10,"totalPages":18,"data":[{"created_on":"2025-02-15T22:02:06.000Z","created_by":"170","modified_on":"2025-02-16T22:37:38.000Z","id":"181","staff_id":null,"manager_id":null,"first_name":"Destiny","last_name":"caesar","display_name":null,"description":null,"photo":null,"phone":null,"email":"destinyerhabor6+dev@gmail.com","status":"active","last_login_date":"2025-02-16T22:37:38.000Z"},{"created_on":"2025-02-15T21:59:15.000Z","created_by":"170","modified_on":"2025-02-15T21:59:15.000Z","id":"180","staff_id":null,"manager_id":null,"first_name":"","last_name":"","display_name":null,"description":null,"photo":null,"phone":null,"email":"jolie@yopmail.com","status":"pending","last_login_date":null},{"created_on":"2025-02-15T21:04:51.000Z","created_by":"170","modified_on":"2025-02-15T21:04:51.000Z","id":"179","staff_id":null,"manager_id":null,"first_name":"","last_name":"","display_name":null,"description":null,"photo":null,"phone":null,"email":"destinyerhabor6+inf1@gmail.com","status":"pending","last_login_date":null},{"created_on":"2025-02-15T21:04:18.000Z","created_by":"170","modified_on":"2025-02-15T21:04:18.000Z","id":"178","staff_id":null,"manager_id":null,"first_name":"","last_name":"","display_name":null,"description":null,"photo":null,"phone":null,"email":"destinyerhabor6+infopool@gmail.com","status":"pending","last_login_date":null},{"created_on":"2025-02-15T21:03:04.000Z","created_by":"170","modified_on":"2025-02-15T21:03:04.000Z","id":"177","staff_id":null,"manager_id":null,"first_name":"","last_name":"","display_name":null,"description":null,"photo":null,"phone":null,"email":"destiny+12@gmail.com","status":"pending","last_login_date":null},{"created_on":"2025-02-15T20:46:14.000Z","created_by":"170","modified_on":"2025-02-15T20:46:14.000Z","id":"176","staff_id":null,"manager_id":null,"first_name":"","last_name":"","display_name":null,"description":null,"photo":null,"phone":null,"email":"jabari@yopmail.com","status":"pending","last_login_date":null},{"created_on":"2025-02-15T11:57:59.000Z","created_by":"170","modified_on":"2025-02-15T11:57:59.000Z","id":"175","staff_id":null,"manager_id":null,"first_name":"","last_name":"","display_name":null,"description":null,"photo":null,"phone":null,"email":"destiny+2@yopmail.com","status":"pending","last_login_date":null},{"created_on":"2025-02-15T11:14:03.000Z","created_by":"170","modified_on":"2025-02-15T11:14:03.000Z","id":"174","staff_id":null,"manager_id":null,"first_name":"","last_name":"","display_name":null,"description":null,"photo":null,"phone":null,"email":"destinyerhabor6@gmail.com","status":"pending","last_login_date":null},{"created_on":"2025-02-15T07:52:19.000Z","created_by":"170","modified_on":"2025-02-15T07:52:19.000Z","id":"173","staff_id":null,"manager_id":null,"first_name":"","last_name":"","display_name":null,"description":null,"photo":null,"phone":null,"email":"destiny+1@yopmail.com","status":"pending","last_login_date":null},{"created_on":"2025-02-13T05:19:19.000Z","created_by":"170","modified_on":"2025-02-17T07:09:27.000Z","id":"172","staff_id":null,"manager_id":"4","first_name":"Chris","last_name":"Esiv","display_name":null,"description":null,"photo":null,"phone":"+2349057362451","email":"chris@yopmail.com","status":"active","last_login_date":"2025-02-17T07:09:28.000Z"}]}}