{"status":true,"response":{"total":28,"page":1,"limit":10,"totalPages":3,"data":[{"created_on":"2025-02-10T17:33:15.000Z","created_by":null,"modified_on":"2025-02-10T17:33:15.000Z","modified_by":null,"deleted_on":null,"deleted_by":null,"id":"29","slug":"login_session_expiry","uuid":"0194f0eb-eb57-74fc-82fd-bb8cd3694fdf","category_id":"2995","name":"Login Session Expiry","description":"Login Session Expiry Period in minutes","value_type":"integer","default_value":"15","minimum_value":null,"maximum_value":null,"custom_validation":null,"meta":null,"category":{"created_on":"2025-02-10T17:32:59.000Z","created_by":"1","modified_on":"2025-02-10T17:32:59.000Z","modified_by":null,"deleted_on":null,"deleted_by":null,"id":"2995","uuid":"0194f0eb-e569-76de-8ba6-b91e25cb09e1","slug":"system_settings_category","name":"System Settings","description":"System Settings","meta":null},"value":null},{"created_on":"2025-02-10T17:33:14.000Z","created_by":null,"modified_on":"2025-02-11T19:48:04.000Z","modified_by":"4","deleted_on":null,"deleted_by":null,"id":"27","slug":"password_complexity","uuid":"0194f0eb-eb57-74fc-82fd-b28753badd1c","category_id":"2995","name":"Password complexity","description":"Password complexity Settings","value_type":"json","default_value":"{\"minLength\":8,\"minLowercase\":1,\"minUppercase\":1,\"minNumbers\":1,\"minSymbols\":1}","minimum_value":null,"maximum_value":null,"custom_validation":null,"meta":null,"category":{"created_on":"2025-02-10T17:32:59.000Z","created_by":"1","modified_on":"2025-02-10T17:32:59.000Z","modified_by":null,"deleted_on":null,"deleted_by":null,"id":"2995","uuid":"0194f0eb-e569-76de-8ba6-b91e25cb09e1","slug":"system_settings_category","name":"System Settings","description":"System Settings","meta":null},"value":null},{"created_on":"2025-02-10T17:33:14.000Z","created_by":null,"modified_on":"2025-02-10T17:33:14.000Z","modified_by":null,"deleted_on":null,"deleted_by":null,"id":"28","slug":"otp_expiry","uuid":"0194f0eb-eb57-74fc-82fd-b4373c38dc74","category_id":"2995","name":"OTP Expiry","description":"OTP Expiry Period in minutes","value_type":"integer","default_value":"10","minimum_value":null,"maximum_value":null,"custom_validation":null,"meta":null,"category":{"created_on":"2025-02-10T17:32:59.000Z","created_by":"1","modified_on":"2025-02-10T17:32:59.000Z","modified_by":null,"deleted_on":null,"deleted_by":null,"id":"2995","uuid":"0194f0eb-e569-76de-8ba6-b91e25cb09e1","slug":"system_settings_category","name":"System Settings","description":"System Settings","meta":null},"value":null},{"created_on":"2025-02-10T17:33:13.000Z","created_by":null,"modified_on":"2025-02-10T17:33:13.000Z","modified_by":null,"deleted_on":null,"deleted_by":null,"id":"25","slug":"authentication_provider","uuid":"0194f0eb-eb57-74fc-82fd-abdbd0317330","category_id":"2995","name":"Authentication Provider","description":"Authentication Provider","value_type":"text","default_value":null,"minimum_value":null,"maximum_value":null,"custom_validation":null,"meta":null,"category":{"created_on":"2025-02-10T17:32:59.000Z","created_by":"1","modified_on":"2025-02-10T17:32:59.000Z","modified_by":null,"deleted_on":null,"deleted_by":null,"id":"2995","uuid":"0194f0eb-e569-76de-8ba6-b91e25cb09e1","slug":"system_settings_category","name":"System Settings","description":"System Settings","meta":null},"value":null},{"created_on":"2025-02-10T17:33:13.000Z","created_by":null,"modified_on":"2025-02-10T17:33:13.000Z","modified_by":null,"deleted_on":null,"deleted_by":null,"id":"26","slug":"enable_password_login","uuid":"0194f0eb-eb57-74fc-82fd-afba91bebfd0","category_id":"2995","name":"Enable Password Login","description":"Authentication Provider","value_type":"boolean","default_value":"true","minimum_value":null,"maximum_value":null,"custom_validation":null,"meta":null,"category":{"created_on":"2025-02-10T17:32:59.000Z","created_by":"1","modified_on":"2025-02-10T17:32:59.000Z","modified_by":null,"deleted_on":null,"deleted_by":null,"id":"2995","uuid":"0194f0eb-e569-76de-8ba6-b91e25cb09e1","slug":"system_settings_category","name":"System Settings","description":"System Settings","meta":null},"value":null},{"created_on":"2025-02-10T17:33:12.000Z","created_by":null,"modified_on":"2025-02-10T17:33:12.000Z","modified_by":null,"deleted_on":null,"deleted_by":null,"id":"23","slug":"email_provider","uuid":"0194f0eb-eb57-74fc-82fd-a15aead264e4","category_id":"2995","name":"Email Provider","description":"Email Provider","value_type":"list","default_value":"NOVA","minimum_value":null,"maximum_value":null,"custom_validation":"NOVA","meta":null,"category":{"created_on":"2025-02-10T17:32:59.000Z","created_by":"1","modified_on":"2025-02-10T17:32:59.000Z","modified_by":null,"deleted_on":null,"deleted_by":null,"id":"2995","uuid":"0194f0eb-e569-76de-8ba6-b91e25cb09e1","slug":"system_settings_category","name":"System Settings","description":"System Settings","meta":null},"value":null},{"created_on":"2025-02-10T17:33:12.000Z","created_by":null,"modified_on":"2025-02-10T17:33:12.000Z","modified_by":null,"deleted_on":null,"deleted_by":null,"id":"24","slug":"admin_email","uuid":"0194f0eb-eb57-74fc-82fd-a474e425a12b","category_id":"2995","name":"Admin Email","description":"Admin Email","value_type":"text","default_value":null,"minimum_value":null,"maximum_value":null,"custom_validation":null,"meta":null,"category":{"created_on":"2025-02-10T17:32:59.000Z","created_by":"1","modified_on":"2025-02-10T17:32:59.000Z","modified_by":null,"deleted_on":null,"deleted_by":null,"id":"2995","uuid":"0194f0eb-e569-76de-8ba6-b91e25cb09e1","slug":"system_settings_category","name":"System Settings","description":"System Settings","meta":null},"value":null},{"created_on":"2025-02-10T17:33:11.000Z","created_by":null,"modified_on":"2025-02-10T17:33:11.000Z","modified_by":null,"deleted_on":null,"deleted_by":null,"id":"21","slug":"core-banking-database-connection","uuid":"0194f0eb-eb57-74fc-82fd-986777aa1ef9","category_id":"2995","name":"Core Banking Database connection","description":"Core Banking Database connection","value_type":"text","default_value":"https://www.example.com","minimum_value":null,"maximum_value":null,"custom_validation":null,"meta":null,"category":{"created_on":"2025-02-10T17:32:59.000Z","created_by":"1","modified_on":"2025-02-10T17:32:59.000Z","modified_by":null,"deleted_on":null,"deleted_by":null,"id":"2995","uuid":"0194f0eb-e569-76de-8ba6-b91e25cb09e1","slug":"system_settings_category","name":"System Settings","description":"System Settings","meta":null},"value":null},{"created_on":"2025-02-10T17:33:11.000Z","created_by":null,"modified_on":"2025-02-10T17:33:11.000Z","modified_by":null,"deleted_on":null,"deleted_by":null,"id":"22","slug":"sms_provider","uuid":"0194f0eb-eb57-74fc-82fd-9c31b4a6a582","category_id":"2995","name":"SMS Provider","description":"SMS Provider","value_type":"list","default_value":"NOVA","minimum_value":null,"maximum_value":null,"custom_validation":"NOVA","meta":null,"category":{"created_on":"2025-02-10T17:32:59.000Z","created_by":"1","modified_on":"2025-02-10T17:32:59.000Z","modified_by":null,"deleted_on":null,"deleted_by":null,"id":"2995","uuid":"0194f0eb-e569-76de-8ba6-b91e25cb09e1","slug":"system_settings_category","name":"System Settings","description":"System Settings","meta":null},"value":null},{"created_on":"2025-02-10T17:33:10.000Z","created_by":null,"modified_on":"2025-02-10T17:33:10.000Z","modified_by":null,"deleted_on":null,"deleted_by":null,"id":"19","slug":"primary_colour","uuid":"0194f0eb-eb57-74fc-82fd-90124be6dc87","category_id":"2986","name":"Primary Color","description":"Main theme colour","value_type":"text","default_value":"black","minimum_value":null,"maximum_value":null,"custom_validation":null,"meta":null,"category":{"created_on":"2025-02-05T21:31:00.000Z","created_by":"1","modified_on":"2025-02-05T21:31:00.000Z","modified_by":null,"deleted_on":null,"deleted_by":null,"id":"2986","uuid":"0194d806-0406-77ac-9971-074576f3d723","slug":"organization_settings","name":"Organization Settings","description":"All settings related to organization","meta":null},"value":null}]}}