{"status":true,"response":{"total":22,"page":1,"limit":10,"totalPages":3,"data":[{"created_on":"2025-02-25T15:24:40.000Z","created_by":"4","modified_on":"2025-02-25T15:24:40.000Z","modified_by":null,"deleted_on":null,"deleted_by":null,"id":"11538","event_id":"13188","entity_type":"ROLES","entity_id":"17","description":"Favour Elijah modified ROLES","ip_address":"10.0.0.2","location":"Lagos","meta":{"keys":["name","description","permissions"],"before":{"name":"Manager","description":"This are managers"},"after":{"name":"Manager","description":"This are managers","permissions":[{"permission_id":20,"abilities":{"can_create":true,"can_read":true,"can_update":true,"can_delete":true}},{"permission_id":19,"abilities":{"can_create":false,"can_read":false,"can_update":false,"can_delete":false}},{"permission_id":18,"abilities":{"can_create":true,"can_read":true,"can_update":true,"can_delete":true}},{"permission_id":17,"abilities":{"can_create":false,"can_read":false,"can_update":false,"can_delete":false}},{"permission_id":16,"abilities":{"can_create":false,"can_read":false,"can_update":false,"can_delete":false}},{"permission_id":15,"abilities":{"can_create":false,"can_read":false,"can_update":false,"can_delete":false}},{"permission_id":14,"abilities":{"can_create":false,"can_read":false,"can_update":false,"can_delete":false}},{"permission_id":13,"abilities":{"can_create":false,"can_read":false,"can_update":false,"can_delete":false}},{"permission_id":12,"abilities":{"can_create":false,"can_read":false,"can_update":false,"can_delete":false}},{"permission_id":11,"abilities":{"can_create":true,"can_read":true,"can_update":true,"can_delete":true}},{"permission_id":10,"abilities":{"can_create":true,"can_read":true,"can_update":false,"can_delete":false}},{"permission_id":9,"abilities":{"can_create":false,"can_read":false,"can_update":false,"can_delete":false}},{"permission_id":8,"abilities":{"can_create":false,"can_read":true,"can_update":false,"can_delete":false}},{"permission_id":7,"abilities":{"can_create":false,"can_read":false,"can_update":false,"can_delete":false}},{"permission_id":6,"abilities":{"can_create":false,"can_read":false,"can_update":false,"can_delete":false}},{"permission_id":5,"abilities":{"can_create":false,"can_read":true,"can_update":false,"can_delete":false}},{"permission_id":4,"abilities":{"can_create":false,"can_read":false,"can_update":false,"can_delete":false}},{"permission_id":3,"abilities":{"can_create":false,"can_read":false,"can_update":false,"can_delete":false}},{"permission_id":2,"abilities":{"can_create":false,"can_read":false,"can_update":false,"can_delete":false}},{"permission_id":1,"abilities":{"can_create":false,"can_read":false,"can_update":false,"can_delete":false}}]}},"event":{"created_on":"2025-02-25T15:24:40.000Z","created_by":"4","modified_on":"2025-02-25T15:24:40.000Z","modified_by":null,"deleted_on":null,"deleted_by":null,"id":"13188","name":"update_ROLES","description":"Favour Elijah accessed ROLES to update","type":"update_ROLES"}},{"created_on":"2025-02-25T15:23:43.000Z","created_by":"4","modified_on":"2025-02-25T15:23:43.000Z","modified_by":null,"deleted_on":null,"deleted_by":null,"id":"11537","event_id":"13187","entity_type":"PERMISSIONS","entity_id":null,"description":"Favour Elijah read PERMISSIONS","ip_address":"10.0.0.2","location":"Lagos","meta":null,"event":{"created_on":"2025-02-25T15:23:43.000Z","created_by":"4","modified_on":"2025-02-25T15:23:43.000Z","modified_by":null,"deleted_on":null,"deleted_by":null,"id":"13187","name":"READ_PERMISSIONS","description":"Favour Elijah accessed PERMISSIONS to READ","type":"READ_PERMISSIONS"}},{"created_on":"2025-02-25T15:23:29.000Z","created_by":"4","modified_on":"2025-02-25T15:23:29.000Z","modified_by":null,"deleted_on":null,"deleted_by":null,"id":"11536","event_id":"13186","entity_type":"PERMISSIONS","entity_id":null,"description":"Favour Elijah read PERMISSIONS","ip_address":"10.0.0.2","location":"Lagos","meta":null,"event":{"created_on":"2025-02-25T15:23:29.000Z","created_by":"4","modified_on":"2025-02-25T15:23:29.000Z","modified_by":null,"deleted_on":null,"deleted_by":null,"id":"13186","name":"READ_PERMISSIONS","description":"Favour Elijah accessed PERMISSIONS to READ","type":"READ_PERMISSIONS"}},{"created_on":"2025-02-25T14:45:54.000Z","created_by":"4","modified_on":"2025-02-25T14:45:54.000Z","modified_by":null,"deleted_on":null,"deleted_by":null,"id":"11509","event_id":"13123","entity_type":"ORGANIZATIONS","entity_id":null,"description":"Favour Elijah created ORGANIZATIONS","ip_address":"10.0.0.2","location":"Lagos","meta":null,"event":{"created_on":"2025-02-25T14:45:54.000Z","created_by":"4","modified_on":"2025-02-25T14:45:54.000Z","modified_by":null,"deleted_on":null,"deleted_by":null,"id":"13123","name":"CREATE_ORGANIZATIONS","description":"Favour Elijah accessed ORGANIZATIONS to CREATE","type":"CREATE_ORGANIZATIONS"}},{"created_on":"2025-02-25T10:53:30.000Z","created_by":"4","modified_on":"2025-02-25T10:53:30.000Z","modified_by":null,"deleted_on":null,"deleted_by":null,"id":"11483","event_id":"13083","entity_type":"PERMISSIONS","entity_id":null,"description":"Favour Elijah read PERMISSIONS","ip_address":"10.0.0.2","location":"Lagos","meta":null,"event":{"created_on":"2025-02-25T10:53:30.000Z","created_by":"4","modified_on":"2025-02-25T10:53:30.000Z","modified_by":null,"deleted_on":null,"deleted_by":null,"id":"13083","name":"READ_PERMISSIONS","description":"Favour Elijah accessed PERMISSIONS to READ","type":"READ_PERMISSIONS"}},{"created_on":"2025-02-25T10:52:53.000Z","created_by":"4","modified_on":"2025-02-25T10:52:53.000Z","modified_by":null,"deleted_on":null,"deleted_by":null,"id":"11482","event_id":"13082","entity_type":"PERMISSIONS","entity_id":null,"description":"Favour Elijah read PERMISSIONS","ip_address":"10.0.0.2","location":"Lagos","meta":null,"event":{"created_on":"2025-02-25T10:52:53.000Z","created_by":"4","modified_on":"2025-02-25T10:52:53.000Z","modified_by":null,"deleted_on":null,"deleted_by":null,"id":"13082","name":"READ_PERMISSIONS","description":"Favour Elijah accessed PERMISSIONS to READ","type":"READ_PERMISSIONS"}},{"created_on":"2025-02-25T10:51:59.000Z","created_by":"4","modified_on":"2025-02-25T10:51:59.000Z","modified_by":null,"deleted_on":null,"deleted_by":null,"id":"11481","event_id":"13081","entity_type":"DEFINITIONS","entity_id":null,"description":"Favour Elijah created DEFINITIONS","ip_address":"10.0.0.2","location":"Lagos","meta":null,"event":{"created_on":"2025-02-25T10:51:59.000Z","created_by":"4","modified_on":"2025-02-25T10:51:59.000Z","modified_by":null,"deleted_on":null,"deleted_by":null,"id":"13081","name":"CREATE_DEFINITIONS","description":"Favour Elijah accessed DEFINITIONS to CREATE","type":"CREATE_DEFINITIONS"}},{"created_on":"2025-02-25T04:29:20.000Z","created_by":"4","modified_on":"2025-02-25T04:29:20.000Z","modified_by":null,"deleted_on":null,"deleted_by":null,"id":"11448","event_id":"12996","entity_type":"DEFINITIONS","entity_id":null,"description":"Favour Elijah created DEFINITIONS","ip_address":"10.0.0.2","location":"Lagos","meta":null,"event":{"created_on":"2025-02-25T04:29:20.000Z","created_by":"4","modified_on":"2025-02-25T04:29:20.000Z","modified_by":null,"deleted_on":null,"deleted_by":null,"id":"12996","name":"CREATE_DEFINITIONS","description":"Favour Elijah accessed DEFINITIONS to CREATE","type":"CREATE_DEFINITIONS"}},{"created_on":"2025-02-25T04:28:06.000Z","created_by":"4","modified_on":"2025-02-25T04:28:06.000Z","modified_by":null,"deleted_on":null,"deleted_by":null,"id":"11447","event_id":"12995","entity_type":"DEFINITIONS","entity_id":null,"description":"Favour Elijah created DEFINITIONS","ip_address":"10.0.0.2","location":"Lagos","meta":null,"event":{"created_on":"2025-02-25T04:28:06.000Z","created_by":"4","modified_on":"2025-02-25T04:28:06.000Z","modified_by":null,"deleted_on":null,"deleted_by":null,"id":"12995","name":"CREATE_DEFINITIONS","description":"Favour Elijah accessed DEFINITIONS to CREATE","type":"CREATE_DEFINITIONS"}},{"created_on":"2025-02-25T03:48:45.000Z","created_by":"4","modified_on":"2025-02-25T03:48:45.000Z","modified_by":null,"deleted_on":null,"deleted_by":null,"id":"11446","event_id":"12989","entity_type":"DEFINITIONS","entity_id":null,"description":"Favour Elijah read DEFINITIONS","ip_address":"10.0.0.2","location":"Lagos","meta":null,"event":{"created_on":"2025-02-25T03:48:45.000Z","created_by":"4","modified_on":"2025-02-25T03:48:45.000Z","modified_by":null,"deleted_on":null,"deleted_by":null,"id":"12989","name":"Check upload status_DEFINITIONS","description":"Favour Elijah accessed DEFINITIONS to Check upload status","type":"READ_DEFINITIONS"}}]}}