{"status":true,"response":{"total":11,"page":2,"limit":10,"totalPages":2,"data":[{"created_on":"2025-02-09T12:03:44.000Z","created_by":"4","modified_on":"2025-02-09T12:03:44.000Z","modified_by":null,"deleted_on":null,"deleted_by":null,"id":"8","user_id":"4","organization_id":"17","user":{"created_on":"2025-01-29T06:23:37.000Z","id":"4","staff_id":null,"first_name":"Favour","last_name":"Elijah","display_name":null,"description":null,"phone":"+2349033362914","email":"QA@yopmail.com","status":"active","last_login_date":"2025-04-04T14:04:37.000Z","roles":[{"name":"Super Admin","description":"Super Admin role"}]}}]}}