{"status":true,"response":{"total":243,"page":1,"limit":10,"totalPages":25,"data":[{"created_on":"2025-06-11T21:36:23.000Z","created_by":"272","modified_on":"2025-06-11T21:36:23.000Z","id":"323","staff_id":"3400","manager_id":null,"first_name":"","last_name":"","display_name":null,"description":null,"photo":null,"phone":null,"email":"testing+1749677781334@novabank.ng","status":"pending","last_login_date":null},{"created_on":"2025-06-11T21:30:28.000Z","created_by":"272","modified_on":"2025-06-11T21:30:28.000Z","id":"322","staff_id":"3400","manager_id":null,"first_name":"","last_name":"","display_name":null,"description":null,"photo":null,"phone":null,"email":"testing+12@novabank.ng","status":"pending","last_login_date":null},{"created_on":"2025-06-11T21:17:21.000Z","created_by":"272","modified_on":"2025-06-11T21:17:21.000Z","id":"321","staff_id":"3400","manager_id":null,"first_name":"","last_name":"","display_name":null,"description":null,"photo":null,"phone":null,"email":"testing+10@novabank.ng","status":"pending","last_login_date":null},{"created_on":"2025-06-03T15:11:01.000Z","created_by":"272","modified_on":"2025-06-03T15:11:01.000Z","id":"320","staff_id":"5678","manager_id":null,"first_name":"","last_name":"","display_name":null,"description":null,"photo":null,"phone":null,"email":"abimbola+15@novabank.ng","status":"pending","last_login_date":null},{"created_on":"2025-06-03T15:08:55.000Z","created_by":"272","modified_on":"2025-06-03T15:08:55.000Z","id":"319","staff_id":"345","manager_id":null,"first_name":"","last_name":"","display_name":null,"description":null,"photo":null,"phone":null,"email":"abimbola+12@novabank.ng","status":"pending","last_login_date":null},{"created_on":"2025-06-01T15:39:17.000Z","created_by":"272","modified_on":"2025-06-02T17:56:06.000Z","id":"318","staff_id":null,"manager_id":null,"first_name":"","last_name":"","display_name":null,"description":null,"photo":null,"phone":null,"email":"test+1@example.com","status":"pending","last_login_date":null},{"created_on":"2025-05-26T08:22:20.000Z","created_by":"272","modified_on":"2025-06-03T15:03:39.000Z","id":"317","staff_id":null,"manager_id":null,"first_name":"","last_name":"","display_name":null,"description":null,"photo":null,"phone":null,"email":"abimbola+10@novabank.ng","status":"pending","last_login_date":null},{"created_on":"2025-05-21T18:20:34.000Z","created_by":"299","modified_on":"2025-05-24T18:19:34.000Z","id":"316","staff_id":null,"manager_id":null,"first_name":"","last_name":"","display_name":null,"description":null,"photo":null,"phone":null,"email":"udeme+15@assurdly.com","status":"pending","last_login_date":null},{"created_on":"2025-05-20T21:12:59.000Z","created_by":"181","modified_on":"2025-06-02T17:55:47.000Z","id":"315","staff_id":"12223","manager_id":null,"first_name":"","last_name":"","display_name":null,"description":null,"photo":null,"phone":null,"email":"destinyerhabor+test@gmail.com","status":"pending","last_login_date":null},{"created_on":"2025-05-18T20:49:04.000Z","created_by":"253","modified_on":"2025-05-18T20:49:04.000Z","id":"314","staff_id":null,"manager_id":null,"first_name":"","last_name":"","display_name":null,"description":null,"photo":null,"phone":null,"email":"adedeji@olowe.com","status":"pending","last_login_date":null}]}}