{"status":true,"response":{"data":[{"id":"357","comment":"commenting on your account","created_on":"2025-06-08T21:59:35.000Z","edited_on":null,"created_by":"272","issue_id":null,"customer_id":"5178","created":{"id":"272","first_name":"Ayo","last_name":"Jide"},"can_edit":true,"can_delete":true,"replies":[]},{"id":"356","comment":"HEY","created_on":"2025-06-08T21:59:34.000Z","edited_on":null,"created_by":"272","issue_id":505,"customer_id":"5178","created":{"id":"272","first_name":"Ayo","last_name":"Jide"},"can_edit":true,"can_delete":true,"replies":[]},{"id":"355","comment":"commenting on your account","created_on":"2025-06-08T21:58:46.000Z","edited_on":null,"created_by":"272","issue_id":null,"customer_id":"5178","created":{"id":"272","first_name":"Ayo","last_name":"Jide"},"can_edit":true,"can_delete":true,"replies":[]},{"id":"354","comment":"hey favorite","created_on":"2025-06-08T21:58:45.000Z","edited_on":"2025-06-08T21:58:48.000Z","created_by":"272","issue_id":503,"customer_id":"5178","created":{"id":"272","first_name":"Ayo","last_name":"Jide"},"can_edit":true,"can_delete":true,"replies":[]},{"id":"353","comment":"commenting on your account","created_on":"2025-06-08T21:55:54.000Z","edited_on":null,"created_by":"272","issue_id":null,"customer_id":"5178","created":{"id":"272","first_name":"Ayo","last_name":"Jide"},"can_edit":true,"can_delete":true,"replies":[]},{"id":"351","comment":"commenting on your account","created_on":"2025-06-08T21:49:21.000Z","edited_on":null,"created_by":"272","issue_id":null,"customer_id":"5178","created":{"id":"272","first_name":"Ayo","last_name":"Jide"},"can_edit":true,"can_delete":true,"replies":[]},{"id":"349","comment":"commenting on your account","created_on":"2025-06-08T21:43:14.000Z","edited_on":null,"created_by":"272","issue_id":null,"customer_id":"5178","created":{"id":"272","first_name":"Ayo","last_name":"Jide"},"can_edit":true,"can_delete":true,"replies":[]},{"id":"347","comment":"commenting on your account","created_on":"2025-06-08T21:40:13.000Z","edited_on":null,"created_by":"272","issue_id":null,"customer_id":"5178","created":{"id":"272","first_name":"Ayo","last_name":"Jide"},"can_edit":true,"can_delete":true,"replies":[]},{"id":"345","comment":"commenting on your account","created_on":"2025-06-08T21:37:10.000Z","edited_on":null,"created_by":"272","issue_id":null,"customer_id":"5178","created":{"id":"272","first_name":"Ayo","last_name":"Jide"},"can_edit":true,"can_delete":true,"replies":[]},{"id":"343","comment":"commenting on your account","created_on":"2025-06-08T21:36:19.000Z","edited_on":null,"created_by":"272","issue_id":null,"customer_id":"5178","created":{"id":"272","first_name":"Ayo","last_name":"Jide"},"can_edit":true,"can_delete":true,"replies":[]}],"total":83,"page":1,"limit":10,"totalPages":9}}