{"status":true,"response":{"total":76,"page":1,"limit":10,"totalPages":8,"data":[{"created_on":"2025-06-30T10:45:11.000Z","created_by":"170","modified_on":"2025-07-01T15:18:28.000Z","modified_by":"172","deleted_on":null,"deleted_by":null,"id":"159","uuid":"0197c070-dbcd-7667-a0ac-a892df9d5b9a","parent_id":"17","hierarchy_id":"1","mis_code":"CODEED","name":"Test Org","description":"Testing ","street":"ojo","city":"Lagos","state":"291","country":"2993","organization_type":"1760","meta":null,"organizationTypeInfo":{"name":"Division"},"countryInfo":{"name":"Nigeria"},"stateInfo":{"name":"Lagos"},"businessManager":{"first_name":"Favour","last_name":"tester","email":"favourdesent@yopmail.com","status":"active","created_on":"2025-02-23T19:08:25.000Z","id":"198","staff_id":null,"display_name":null,"description":null,"phone":null,"last_login_date":"2025-03-07T18:52:06.000Z"},"operationsManager":{"first_name":"Sarah","last_name":"Yaro","email":"Sarah.Yaro@novabank.ng","status":"pending","created_on":"2025-01-29T09:16:06.000Z","id":"141","staff_id":"318","display_name":"Sarah Yaro","description":"Legal Officer","phone":null,"last_login_date":null}},{"created_on":"2025-06-18T14:03:56.000Z","created_by":"172","modified_on":"2025-06-18T14:03:56.000Z","modified_by":null,"deleted_on":null,"deleted_by":null,"id":"152","uuid":"0197835a-81ff-735e-8ebf-af75156d3bb8","parent_id":"17","hierarchy_id":"1","mis_code":"","name":"Glober Organization","description":"Example org","street":"street","city":"Lagos","state":"296","country":"2994","organization_type":"1767","meta":null,"organizationTypeInfo":{"name":"Unit"},"countryInfo":{"name":"Ghana"},"stateInfo":{"name":"Osun"},"businessManager":null,"operationsManager":null},{"created_on":"2025-06-18T11:21:05.000Z","created_by":"272","modified_on":"2025-06-18T11:21:05.000Z","modified_by":null,"deleted_on":null,"deleted_by":null,"id":"151","uuid":"019782c5-6ad1-778f-8eb5-3b0471ac46c6","parent_id":"17","hierarchy_id":"1","mis_code":"","name":"London-branch","description":"testing","street":"IKEJA","city":"LAGOS","state":"296","country":"1964","organization_type":"1759","meta":null,"organizationTypeInfo":{"name":"Bank"},"countryInfo":{"name":"Ghana"},"stateInfo":{"name":"Osun"},"businessManager":null,"operationsManager":null},{"created_on":"2025-06-18T11:19:33.000Z","created_by":"272","modified_on":"2025-06-18T11:19:33.000Z","modified_by":null,"deleted_on":null,"deleted_by":null,"id":"150","uuid":"019782c4-04dc-76dd-b062-6b50d3032e66","parent_id":"17","hierarchy_id":"1","mis_code":"","name":"Branch Londons","description":"testing","street":"IKEJA","city":"LAGOS","state":"291","country":"2994","organization_type":"1759","meta":null,"organizationTypeInfo":{"name":"Bank"},"countryInfo":{"name":"Ghana"},"stateInfo":{"name":"Lagos"},"businessManager":null,"operationsManager":null},{"created_on":"2025-06-18T11:18:27.000Z","created_by":"272","modified_on":"2025-06-18T11:18:27.000Z","modified_by":null,"deleted_on":null,"deleted_by":null,"id":"149","uuid":"019782c3-01db-72aa-add4-f633fa5096ad","parent_id":"17","hierarchy_id":"1","mis_code":"","name":"Branch Londoner","description":"test","street":"IKEJA","city":"LAGOS","state":"288","country":"2994","organization_type":"1759","meta":null,"organizationTypeInfo":{"name":"Bank"},"countryInfo":{"name":"Ghana"},"stateInfo":{"name":"Kebbi"},"businessManager":null,"operationsManager":null},{"created_on":"2025-06-18T10:32:13.000Z","created_by":"272","modified_on":"2025-06-18T10:32:13.000Z","modified_by":null,"deleted_on":null,"deleted_by":null,"id":"148","uuid":"01978298-acd0-7313-aa48-fd7d367e536b","parent_id":"17","hierarchy_id":"1","mis_code":"","name":"June Directorate","description":"testing","street":"IKEJA","city":"LAGOS","state":"296","country":"2993","organization_type":"1758","meta":null,"organizationTypeInfo":{"name":"Directorate"},"countryInfo":{"name":"Nigeria"},"stateInfo":{"name":"Osun"},"businessManager":null,"operationsManager":null},{"created_on":"2025-06-18T10:29:07.000Z","created_by":"272","modified_on":"2025-06-18T10:29:07.000Z","modified_by":null,"deleted_on":null,"deleted_by":null,"id":"147","uuid":"01978295-d8e9-726c-b846-7569aa5f3eb1","parent_id":"17","hierarchy_id":"1","mis_code":"","name":"testUnit Directorate","description":"testing","street":"IKEJA","city":"LAGOS","state":"288","country":"2994","organization_type":"1758","meta":null,"organizationTypeInfo":{"name":"Directorate"},"countryInfo":{"name":"Ghana"},"stateInfo":{"name":"Kebbi"},"businessManager":null,"operationsManager":null},{"created_on":"2025-06-18T10:27:36.000Z","created_by":"272","modified_on":"2025-06-18T10:27:36.000Z","modified_by":null,"deleted_on":null,"deleted_by":null,"id":"146","uuid":"01978294-73ba-73da-9d66-c79f19ea61c8","parent_id":"17","hierarchy_id":"1","mis_code":"","name":"testUnit","description":"testing","street":"IKEJA","city":"LAGOS","state":"296","country":"2993","organization_type":"1759","meta":null,"organizationTypeInfo":{"name":"Bank"},"countryInfo":{"name":"Nigeria"},"stateInfo":{"name":"Osun"},"businessManager":null,"operationsManager":null},{"created_on":"2025-06-18T10:00:23.000Z","created_by":"272","modified_on":"2025-06-18T10:00:23.000Z","modified_by":null,"deleted_on":null,"deleted_by":null,"id":"145","uuid":"0197827b-88a2-7155-9b44-7f3fa04d07ac","parent_id":"17","hierarchy_id":"1","mis_code":"QA","name":"Automated API Test Organization 1750240823288","description":"This is for testing only","street":"IKEJA","city":"LAGOS","state":"284","country":"1964","organization_type":"1758","meta":null,"organizationTypeInfo":{"name":"Directorate"},"countryInfo":{"name":"Ghana"},"stateInfo":{"name":"Jigawa"},"businessManager":null,"operationsManager":null},{"created_on":"2025-06-18T09:53:17.000Z","created_by":"272","modified_on":"2025-06-18T09:53:17.000Z","modified_by":null,"deleted_on":null,"deleted_by":null,"id":"144","uuid":"01978275-08ad-755e-bc9c-d68269e6faa8","parent_id":"17","hierarchy_id":"1","mis_code":"","name":"Bug detective","description":"Testing department","street":"IKEJA","city":"LAGOS","state":"288","country":"2993","organization_type":"1767","meta":null,"organizationTypeInfo":{"name":"Unit"},"countryInfo":{"name":"Nigeria"},"stateInfo":{"name":"Kebbi"},"businessManager":null,"operationsManager":null}]}}