{"status":true,"response":{"total":35,"page":1,"limit":10,"totalPages":4,"data":[{"module":"Mpr","created_on":"2025-05-22T03:34:47.475Z","created_by":null,"modified_on":"2025-05-22T03:34:47.475Z","modified_by":null,"deleted_on":null,"deleted_by":null,"id":42,"name":"MPR","description":"Mpr permission","meta":null},{"module":"Budgeting","created_on":"2025-05-21T03:28:09.700Z","created_by":null,"modified_on":"2025-05-21T03:28:09.700Z","modified_by":null,"deleted_on":null,"deleted_by":null,"id":41,"name":"WORKFLOW_APPROVALS","description":"Workflow approvals permission","meta":null},{"module":"Budgeting","created_on":"2025-05-21T03:28:09.678Z","created_by":null,"modified_on":"2025-05-21T03:28:09.678Z","modified_by":null,"deleted_on":null,"deleted_by":null,"id":40,"name":"BUDGETS","description":"Budgets permission","meta":null},{"module":"Budgeting","created_on":"2025-05-21T03:28:09.659Z","created_by":null,"modified_on":"2025-05-21T03:28:09.659Z","modified_by":null,"deleted_on":null,"deleted_by":null,"id":39,"name":"BUDGET_ITEMS","description":"Budget items permission","meta":null},{"module":"Budgeting","created_on":"2025-05-21T03:28:09.645Z","created_by":null,"modified_on":"2025-05-21T03:28:09.645Z","modified_by":null,"deleted_on":null,"deleted_by":null,"id":38,"name":"BUDGET_PERIODS","description":"Budget periods permission","meta":null},{"module":"Administration","created_on":"2025-05-21T03:28:09.621Z","created_by":null,"modified_on":"2025-05-21T03:28:09.621Z","modified_by":null,"deleted_on":null,"deleted_by":null,"id":37,"name":"WORKFLOW_ITEMS","description":"Workflow items permission","meta":null},{"module":"Administration","created_on":"2025-05-21T03:28:09.599Z","created_by":null,"modified_on":"2025-05-21T03:28:09.599Z","modified_by":null,"deleted_on":null,"deleted_by":null,"id":36,"name":"WORKFLOWS","description":"Workflows permission","meta":null},{"module":"Mpr","created_on":"2025-05-20T03:50:36.381Z","created_by":null,"modified_on":"2025-05-20T03:50:36.381Z","modified_by":null,"deleted_on":null,"deleted_by":null,"id":35,"name":"MPR_CORPORATE_ADJUSTMENTS","description":"Mpr corporate adjustments permission","meta":null},{"module":"Reports","created_on":"2025-05-20T03:50:36.372Z","created_by":null,"modified_on":"2025-05-20T03:50:36.372Z","modified_by":null,"deleted_on":null,"deleted_by":null,"id":34,"name":"REPORT_SECTION_OBJECTS","description":"Report section objects permission","meta":null},{"module":"Reports","created_on":"2025-05-20T03:50:36.364Z","created_by":null,"modified_on":"2025-05-20T03:50:36.364Z","modified_by":null,"deleted_on":null,"deleted_by":null,"id":33,"name":"REPORT_SECTIONS","description":"Report sections permission","meta":null}]}}