{"status":true,"response":{"data":[{"id":"334","comment":"commenting on your account","created_on":"2025-06-08T21:25:14.000Z","edited_on":null,"created_by":"272","issue_id":null,"customer_id":"5178","created":{"id":"272","first_name":"Ayo","last_name":"Jide"},"can_edit":true,"can_delete":true,"replies":[]},{"id":"333","comment":"HEY","created_on":"2025-06-08T21:25:09.000Z","edited_on":null,"created_by":"272","issue_id":485,"customer_id":"5178","created":{"id":"272","first_name":"Ayo","last_name":"Jide"},"can_edit":true,"can_delete":true,"replies":[]},{"id":"332","comment":"commenting on your account","created_on":"2025-06-08T21:22:06.000Z","edited_on":null,"created_by":"272","issue_id":null,"customer_id":"5178","created":{"id":"272","first_name":"Ayo","last_name":"Jide"},"can_edit":true,"can_delete":true,"replies":[]},{"id":"329","comment":"HEY","created_on":"2025-06-08T21:18:53.000Z","edited_on":null,"created_by":"272","issue_id":481,"customer_id":"5178","created":{"id":"272","first_name":"Ayo","last_name":"Jide"},"can_edit":true,"can_delete":true,"replies":[]},{"id":"330","comment":"commenting on your account","created_on":"2025-06-08T21:18:53.000Z","edited_on":null,"created_by":"272","issue_id":null,"customer_id":"5178","created":{"id":"272","first_name":"Ayo","last_name":"Jide"},"can_edit":true,"can_delete":true,"replies":[]},{"id":"328","comment":"commenting on your account","created_on":"2025-06-08T21:15:55.000Z","edited_on":null,"created_by":"272","issue_id":null,"customer_id":"5178","created":{"id":"272","first_name":"Ayo","last_name":"Jide"},"can_edit":true,"can_delete":true,"replies":[]},{"id":"327","comment":"HEY","created_on":"2025-06-08T21:15:54.000Z","edited_on":null,"created_by":"272","issue_id":479,"customer_id":"5178","created":{"id":"272","first_name":"Ayo","last_name":"Jide"},"can_edit":true,"can_delete":true,"replies":[]},{"id":"326","comment":"commenting on your account","created_on":"2025-06-08T21:12:48.000Z","edited_on":null,"created_by":"272","issue_id":null,"customer_id":"5178","created":{"id":"272","first_name":"Ayo","last_name":"Jide"},"can_edit":true,"can_delete":true,"replies":[]},{"id":"325","comment":"HEY","created_on":"2025-06-08T21:12:33.000Z","edited_on":null,"created_by":"272","issue_id":465,"customer_id":"5178","created":{"id":"272","first_name":"Ayo","last_name":"Jide"},"can_edit":true,"can_delete":true,"replies":[]},{"id":"324","comment":"commenting on your account","created_on":"2025-06-08T21:09:44.000Z","edited_on":null,"created_by":"272","issue_id":null,"customer_id":"5178","created":{"id":"272","first_name":"Ayo","last_name":"Jide"},"can_edit":true,"can_delete":true,"replies":[]}],"total":68,"page":1,"limit":10,"totalPages":7}}