{"status":true,"response":{"data":[{"created_on":"2025-06-08T21:20:25.000Z","created_by":null,"modified_on":"2025-06-08T21:20:25.000Z","modified_by":null,"deleted_on":null,"deleted_by":null,"id":"112","home_branch_code":null,"foracid":null,"acct_name":"test8388","gl_sub_head_code":null,"bacid":null,"tran_date":null,"tran_id":null,"part_tran_srl_num":null,"tran_type":null,"tran_sub_type":null,"part_tran_type":null,"acid":null,"value_date":"2025-06-14","tran_amt":null,"tran_particular":null,"sol_id":null,"ref_num":null,"tran_crncy_code":null,"rpt_code":null,"acct_pattern":null,"adjustment_type":"other","mpr_id":42},{"created_on":"2025-06-08T21:17:26.000Z","created_by":null,"modified_on":"2025-06-08T21:17:26.000Z","modified_by":null,"deleted_on":null,"deleted_by":null,"id":"110","home_branch_code":null,"foracid":null,"acct_name":"test9898","gl_sub_head_code":null,"bacid":null,"tran_date":null,"tran_id":null,"part_tran_srl_num":null,"tran_type":null,"tran_sub_type":null,"part_tran_type":null,"acid":null,"value_date":"2025-06-14","tran_amt":null,"tran_particular":null,"sol_id":null,"ref_num":null,"tran_crncy_code":null,"rpt_code":null,"acct_pattern":null,"adjustment_type":"other","mpr_id":42},{"created_on":"2025-06-08T21:11:05.000Z","created_by":null,"modified_on":"2025-06-08T21:11:05.000Z","modified_by":null,"deleted_on":null,"deleted_by":null,"id":"108","home_branch_code":null,"foracid":null,"acct_name":"test7974","gl_sub_head_code":null,"bacid":null,"tran_date":null,"tran_id":null,"part_tran_srl_num":null,"tran_type":null,"tran_sub_type":null,"part_tran_type":null,"acid":null,"value_date":"2025-06-14","tran_amt":null,"tran_particular":null,"sol_id":null,"ref_num":null,"tran_crncy_code":null,"rpt_code":null,"acct_pattern":null,"adjustment_type":"other","mpr_id":42},{"created_on":"2025-06-08T21:05:46.000Z","created_by":null,"modified_on":"2025-06-08T21:05:46.000Z","modified_by":null,"deleted_on":null,"deleted_by":null,"id":"106","home_branch_code":null,"foracid":null,"acct_name":"test7455","gl_sub_head_code":null,"bacid":null,"tran_date":null,"tran_id":null,"part_tran_srl_num":null,"tran_type":null,"tran_sub_type":null,"part_tran_type":null,"acid":null,"value_date":"2025-06-14","tran_amt":null,"tran_particular":null,"sol_id":null,"ref_num":null,"tran_crncy_code":null,"rpt_code":null,"acct_pattern":null,"adjustment_type":"other","mpr_id":42},{"created_on":"2025-06-08T20:56:03.000Z","created_by":null,"modified_on":"2025-06-08T20:56:03.000Z","modified_by":null,"deleted_on":null,"deleted_by":null,"id":"104","home_branch_code":null,"foracid":null,"acct_name":"test2283","gl_sub_head_code":null,"bacid":null,"tran_date":null,"tran_id":null,"part_tran_srl_num":null,"tran_type":null,"tran_sub_type":null,"part_tran_type":null,"acid":null,"value_date":"2025-06-14","tran_amt":null,"tran_particular":null,"sol_id":null,"ref_num":null,"tran_crncy_code":null,"rpt_code":null,"acct_pattern":null,"adjustment_type":"other","mpr_id":42},{"created_on":"2025-06-08T20:41:00.000Z","created_by":null,"modified_on":"2025-06-08T20:41:00.000Z","modified_by":null,"deleted_on":null,"deleted_by":null,"id":"102","home_branch_code":null,"foracid":null,"acct_name":"test1441","gl_sub_head_code":null,"bacid":null,"tran_date":null,"tran_id":null,"part_tran_srl_num":null,"tran_type":null,"tran_sub_type":null,"part_tran_type":null,"acid":null,"value_date":"2025-06-14","tran_amt":null,"tran_particular":null,"sol_id":null,"ref_num":null,"tran_crncy_code":null,"rpt_code":null,"acct_pattern":null,"adjustment_type":"other","mpr_id":42},{"created_on":"2025-06-07T23:15:57.000Z","created_by":null,"modified_on":"2025-06-07T23:15:57.000Z","modified_by":null,"deleted_on":null,"deleted_by":null,"id":"100","home_branch_code":null,"foracid":null,"acct_name":"test3036","gl_sub_head_code":null,"bacid":null,"tran_date":null,"tran_id":null,"part_tran_srl_num":null,"tran_type":null,"tran_sub_type":null,"part_tran_type":null,"acid":null,"value_date":"2025-06-13","tran_amt":null,"tran_particular":null,"sol_id":null,"ref_num":null,"tran_crncy_code":null,"rpt_code":null,"acct_pattern":null,"adjustment_type":"other","mpr_id":42},{"created_on":"2025-06-07T22:36:18.000Z","created_by":null,"modified_on":"2025-06-07T22:36:18.000Z","modified_by":null,"deleted_on":null,"deleted_by":null,"id":"98","home_branch_code":null,"foracid":null,"acct_name":"test6414","gl_sub_head_code":null,"bacid":null,"tran_date":null,"tran_id":null,"part_tran_srl_num":null,"tran_type":null,"tran_sub_type":null,"part_tran_type":null,"acid":null,"value_date":"2025-06-13","tran_amt":null,"tran_particular":null,"sol_id":null,"ref_num":null,"tran_crncy_code":null,"rpt_code":null,"acct_pattern":null,"adjustment_type":"other","mpr_id":42},{"created_on":"2025-06-07T11:59:02.000Z","created_by":null,"modified_on":"2025-06-07T11:59:02.000Z","modified_by":null,"deleted_on":null,"deleted_by":null,"id":"96","home_branch_code":null,"foracid":null,"acct_name":"test2434","gl_sub_head_code":null,"bacid":null,"tran_date":null,"tran_id":null,"part_tran_srl_num":null,"tran_type":null,"tran_sub_type":null,"part_tran_type":null,"acid":null,"value_date":"2025-06-13","tran_amt":null,"tran_particular":null,"sol_id":null,"ref_num":null,"tran_crncy_code":null,"rpt_code":null,"acct_pattern":null,"adjustment_type":"other","mpr_id":42},{"created_on":"2025-06-07T11:46:37.000Z","created_by":null,"modified_on":"2025-06-07T11:46:37.000Z","modified_by":null,"deleted_on":null,"deleted_by":null,"id":"94","home_branch_code":null,"foracid":null,"acct_name":"test7217","gl_sub_head_code":null,"bacid":null,"tran_date":null,"tran_id":null,"part_tran_srl_num":null,"tran_type":null,"tran_sub_type":null,"part_tran_type":null,"acid":null,"value_date":"2025-06-13","tran_amt":null,"tran_particular":null,"sol_id":null,"ref_num":null,"tran_crncy_code":null,"rpt_code":null,"acct_pattern":null,"adjustment_type":"other","mpr_id":42}],"total":37,"page":"1","limit":"10","totalPages":4}}