{"status":true,"response":{"data":[{"created_on":"2025-06-03T08:37:55.000Z","created_by":"272","modified_on":"2025-06-03T08:37:55.000Z","modified_by":null,"deleted_on":null,"deleted_by":null,"id":"83","uuid":"019734f0-a4f3-723e-b9a8-5e76d93d7e28","name":"test102b","description":"no description","query":null,"path":null,"select_columns":null,"sort_columns":null,"filter_columns":null,"cache_ttl":null,"default_filter_columns":null,"meta":null,"category_id":"3205","status":"draft","deletion_reason":null,"period":"06-2025","category":{"created_on":"2025-03-19T07:15:18.000Z","created_by":"188","modified_on":"2025-03-19T07:15:18.000Z","modified_by":null,"deleted_on":null,"deleted_by":null,"id":"3205","uuid":"0195ad41-b087-706d-9af9-f0524a19371e","slug":"mpr","name":"MPR","description":"MPR","meta":null},"report_roles":[{"created_on":"2025-06-03T08:37:55.000Z","created_by":"272","modified_on":"2025-06-03T08:37:55.000Z","modified_by":null,"deleted_on":null,"deleted_by":null,"id":"53","uuid":"019734f0-a4f9-7589-b4cc-eca9b053b5a7","report_id":"83","role_id":"14","meta":null}]},{"created_on":"2025-06-02T17:10:42.000Z","created_by":"272","modified_on":"2025-06-03T08:39:10.000Z","modified_by":"272","deleted_on":null,"deleted_by":null,"id":"82","uuid":"0197319f-bf1c-76d3-bf7e-3e674d424cd2","name":"test101","description":"testing","query":null,"path":null,"select_columns":null,"sort_columns":null,"filter_columns":null,"cache_ttl":null,"default_filter_columns":null,"meta":null,"category_id":"3205","status":"published","deletion_reason":null,"period":"06-2025","category":{"created_on":"2025-03-19T07:15:18.000Z","created_by":"188","modified_on":"2025-03-19T07:15:18.000Z","modified_by":null,"deleted_on":null,"deleted_by":null,"id":"3205","uuid":"0195ad41-b087-706d-9af9-f0524a19371e","slug":"mpr","name":"MPR","description":"MPR","meta":null},"report_roles":[{"created_on":"2025-06-02T17:10:42.000Z","created_by":"272","modified_on":"2025-06-02T17:10:42.000Z","modified_by":null,"deleted_on":null,"deleted_by":null,"id":"52","uuid":"0197319f-bf22-778a-afe6-898bd18f20e3","report_id":"82","role_id":"14","meta":null}]},{"created_on":"2025-06-02T17:09:04.000Z","created_by":"181","modified_on":"2025-06-02T17:09:04.000Z","modified_by":null,"deleted_on":null,"deleted_by":null,"id":"81","uuid":"0197319e-4101-7141-930d-e4b82239424d","name":"report","description":"johnn","query":null,"path":null,"select_columns":null,"sort_columns":null,"filter_columns":null,"cache_ttl":null,"default_filter_columns":null,"meta":null,"category_id":"3205","status":"draft","deletion_reason":null,"period":"06-2025","category":{"created_on":"2025-03-19T07:15:18.000Z","created_by":"188","modified_on":"2025-03-19T07:15:18.000Z","modified_by":null,"deleted_on":null,"deleted_by":null,"id":"3205","uuid":"0195ad41-b087-706d-9af9-f0524a19371e","slug":"mpr","name":"MPR","description":"MPR","meta":null},"report_roles":[{"created_on":"2025-06-02T17:09:04.000Z","created_by":"181","modified_on":"2025-06-02T17:09:04.000Z","modified_by":null,"deleted_on":null,"deleted_by":null,"id":"50","uuid":"0197319e-4108-72ba-bf72-e5adb971dbba","report_id":"81","role_id":"2","meta":null},{"created_on":"2025-06-02T17:09:04.000Z","created_by":"181","modified_on":"2025-06-02T17:09:04.000Z","modified_by":null,"deleted_on":null,"deleted_by":null,"id":"51","uuid":"0197319e-4108-72ba-bf72-ebe5a0f9c851","report_id":"81","role_id":"14","meta":null}]},{"created_on":"2025-06-01T18:49:34.000Z","created_by":"272","modified_on":"2025-06-01T18:49:34.000Z","modified_by":null,"deleted_on":null,"deleted_by":null,"id":"80","uuid":"01972cd3-e981-76fe-b357-22444e4c2080","name":"feb","description":"testing","query":null,"path":null,"select_columns":null,"sort_columns":null,"filter_columns":null,"cache_ttl":null,"default_filter_columns":null,"meta":null,"category_id":"3205","status":"draft","deletion_reason":null,"period":"02-2025","category":{"created_on":"2025-03-19T07:15:18.000Z","created_by":"188","modified_on":"2025-03-19T07:15:18.000Z","modified_by":null,"deleted_on":null,"deleted_by":null,"id":"3205","uuid":"0195ad41-b087-706d-9af9-f0524a19371e","slug":"mpr","name":"MPR","description":"MPR","meta":null},"report_roles":[{"created_on":"2025-06-01T18:49:34.000Z","created_by":"272","modified_on":"2025-06-01T18:49:34.000Z","modified_by":null,"deleted_on":null,"deleted_by":null,"id":"49","uuid":"01972cd3-e988-77d8-91d7-d9f724804440","report_id":"80","role_id":"14","meta":null}]},{"created_on":"2025-05-31T17:34:53.000Z","created_by":"272","modified_on":"2025-05-31T17:34:53.000Z","modified_by":null,"deleted_on":null,"deleted_by":null,"id":"79","uuid":"01972769-2cb0-719f-a390-c68ad56c0d48","name":"Nova1","description":"testing report","query":null,"path":null,"select_columns":null,"sort_columns":null,"filter_columns":null,"cache_ttl":null,"default_filter_columns":null,"meta":null,"category_id":"3204","status":"draft","deletion_reason":null,"period":null,"category":{"created_on":"2025-03-19T07:15:05.000Z","created_by":"188","modified_on":"2025-03-19T07:15:05.000Z","modified_by":null,"deleted_on":null,"deleted_by":null,"id":"3204","uuid":"0195ad41-7d33-7294-baea-7746b18f6d79","slug":"report","name":"Report","description":"Report","meta":null},"report_roles":[{"created_on":"2025-05-31T17:34:53.000Z","created_by":"272","modified_on":"2025-05-31T17:34:53.000Z","modified_by":null,"deleted_on":null,"deleted_by":null,"id":"48","uuid":"01972769-2cb5-737f-b455-baf5b3ae618b","report_id":"79","role_id":"14","meta":null}]},{"created_on":"2025-05-31T17:33:13.000Z","created_by":"272","modified_on":"2025-05-31T17:33:13.000Z","modified_by":null,"deleted_on":null,"deleted_by":null,"id":"78","uuid":"01972767-a482-723c-a2f0-065c848027c7","name":"Sample Report","description":"A sample report for demonstration","query":null,"path":null,"select_columns":null,"sort_columns":null,"filter_columns":null,"cache_ttl":null,"default_filter_columns":null,"meta":null,"category_id":"3204","status":"draft","deletion_reason":null,"period":null,"category":{"created_on":"2025-03-19T07:15:05.000Z","created_by":"188","modified_on":"2025-03-19T07:15:05.000Z","modified_by":null,"deleted_on":null,"deleted_by":null,"id":"3204","uuid":"0195ad41-7d33-7294-baea-7746b18f6d79","slug":"report","name":"Report","description":"Report","meta":null},"report_roles":[]},{"created_on":"2025-05-31T17:25:44.000Z","created_by":"272","modified_on":"2025-05-31T17:30:33.000Z","modified_by":"272","deleted_on":null,"deleted_by":null,"id":"77","uuid":"01972760-cac4-7719-927f-71698c60f5c0","name":"Updated Report Name","description":"Updated description","query":null,"path":null,"select_columns":null,"sort_columns":null,"filter_columns":null,"cache_ttl":null,"default_filter_columns":null,"meta":null,"category_id":"3204","status":"archived","deletion_reason":null,"period":null,"category":{"created_on":"2025-03-19T07:15:05.000Z","created_by":"188","modified_on":"2025-03-19T07:15:05.000Z","modified_by":null,"deleted_on":null,"deleted_by":null,"id":"3204","uuid":"0195ad41-7d33-7294-baea-7746b18f6d79","slug":"report","name":"Report","description":"Report","meta":null},"report_roles":[{"created_on":"2025-05-31T17:29:52.000Z","created_by":"272","modified_on":"2025-05-31T17:29:52.000Z","modified_by":null,"deleted_on":null,"deleted_by":null,"id":"47","uuid":"01972764-93af-71aa-bda6-da67c9b2f1b9","report_id":"77","role_id":"32","meta":null}]},{"created_on":"2025-05-29T08:34:53.000Z","created_by":"272","modified_on":"2025-05-29T08:36:50.000Z","modified_by":"272","deleted_on":null,"deleted_by":null,"id":"76","uuid":"01971b2e-11e1-76fa-93a6-f8c4178ba192","name":"second assessment","description":"checking notification","query":null,"path":null,"select_columns":null,"sort_columns":null,"filter_columns":null,"cache_ttl":null,"default_filter_columns":null,"meta":{"sections":[{"name":"sub-module second assessment","reports":[{"name":"2025 FY Targets","type":"report","description":"Details for 2025 FY Targets","metabase_report_id":"2","metabase_report_type":"dashboard"},{"name":"2025 FY Targets","type":"report","description":"Details for 2025 FY Targets","metabase_report_id":"2","metabase_report_type":"dashboard"}],"description":"no description"}]},"category_id":"3205","status":"published","deletion_reason":null,"period":"05-2025","category":{"created_on":"2025-03-19T07:15:18.000Z","created_by":"188","modified_on":"2025-03-19T07:15:18.000Z","modified_by":null,"deleted_on":null,"deleted_by":null,"id":"3205","uuid":"0195ad41-b087-706d-9af9-f0524a19371e","slug":"mpr","name":"MPR","description":"MPR","meta":null},"report_roles":[{"created_on":"2025-05-29T08:34:53.000Z","created_by":"272","modified_on":"2025-05-29T08:34:53.000Z","modified_by":null,"deleted_on":null,"deleted_by":null,"id":"46","uuid":"01971b2e-11e6-709d-83f7-f73e10524e7b","report_id":"76","role_id":"14","meta":null}]},{"created_on":"2025-05-27T08:12:59.000Z","created_by":"272","modified_on":"2025-05-27T08:12:59.000Z","modified_by":null,"deleted_on":null,"deleted_by":null,"id":"75","uuid":"019710cd-4d1a-7468-9e1b-802985c8bad3","name":"report official","description":"official report","query":null,"path":null,"select_columns":null,"sort_columns":null,"filter_columns":null,"cache_ttl":null,"default_filter_columns":null,"meta":null,"category_id":"3205","status":"draft","deletion_reason":null,"period":"06-2025","category":{"created_on":"2025-03-19T07:15:18.000Z","created_by":"188","modified_on":"2025-03-19T07:15:18.000Z","modified_by":null,"deleted_on":null,"deleted_by":null,"id":"3205","uuid":"0195ad41-b087-706d-9af9-f0524a19371e","slug":"mpr","name":"MPR","description":"MPR","meta":null},"report_roles":[{"created_on":"2025-05-27T08:12:59.000Z","created_by":"272","modified_on":"2025-05-27T08:12:59.000Z","modified_by":null,"deleted_on":null,"deleted_by":null,"id":"32","uuid":"019710cd-4d25-75ef-bcee-84ee91a477f4","report_id":"75","role_id":"23","meta":null},{"created_on":"2025-05-27T08:12:59.000Z","created_by":"272","modified_on":"2025-05-27T08:12:59.000Z","modified_by":null,"deleted_on":null,"deleted_by":null,"id":"31","uuid":"019710cd-4d25-75ef-bcee-80a6fc10070f","report_id":"75","role_id":"24","meta":null},{"created_on":"2025-05-27T08:12:59.000Z","created_by":"272","modified_on":"2025-05-27T08:12:59.000Z","modified_by":null,"deleted_on":null,"deleted_by":null,"id":"30","uuid":"019710cd-4d25-75ef-bcee-7d428530144f","report_id":"75","role_id":"26","meta":null}]},{"created_on":"2025-05-24T17:27:01.000Z","created_by":"214","modified_on":"2025-05-24T17:29:09.000Z","modified_by":"214","deleted_on":null,"deleted_by":null,"id":"74","uuid":"01970355-7347-76df-b2da-66456b0afc21","name":"Testin Report Creation","description":"Testin Report Creation","query":null,"path":null,"select_columns":null,"sort_columns":null,"filter_columns":null,"cache_ttl":null,"default_filter_columns":null,"meta":{"sections":[{"name":"Testing sections","reports":[{"name":"2025 FY Target By Region/Division","type":"report","description":"This displays the balance sheet and income statement target, MoM and the FY Cumulative","metabase_report_id":"38","metabase_report_type":"question"},{"name":"Sales Dashboard","type":"report","description":"Details for Sales Dashboard","metabase_report_id":"3","metabase_report_type":"dashboard"}],"description":"Testing sections"}]},"category_id":"3204","status":"draft","deletion_reason":null,"period":null,"category":{"created_on":"2025-03-19T07:15:05.000Z","created_by":"188","modified_on":"2025-03-19T07:15:05.000Z","modified_by":null,"deleted_on":null,"deleted_by":null,"id":"3204","uuid":"0195ad41-7d33-7294-baea-7746b18f6d79","slug":"report","name":"Report","description":"Report","meta":null},"report_roles":[{"created_on":"2025-05-24T17:27:01.000Z","created_by":"214","modified_on":"2025-05-24T17:27:01.000Z","modified_by":null,"deleted_on":null,"deleted_by":null,"id":"27","uuid":"01970355-7355-716d-aae0-47de2fb61bdb","report_id":"74","role_id":"2","meta":null},{"created_on":"2025-05-24T17:27:01.000Z","created_by":"214","modified_on":"2025-05-24T17:27:01.000Z","modified_by":null,"deleted_on":null,"deleted_by":null,"id":"28","uuid":"01970355-7355-716d-aae0-48acd01a09e3","report_id":"74","role_id":"26","meta":null},{"created_on":"2025-05-24T17:27:01.000Z","created_by":"214","modified_on":"2025-05-24T17:27:01.000Z","modified_by":null,"deleted_on":null,"deleted_by":null,"id":"29","uuid":"01970355-7355-716d-aae0-4f81f6ede9a2","report_id":"74","role_id":"27","meta":null}]}],"meta":{"page":1,"limit":10,"total":37,"pages":4}}}