{"status":true,"response":{"total":11268,"page":1,"limit":10,"totalPages":1127,"data":[{"created_on":"2025-02-24T18:59:17.000Z","created_by":"198","modified_on":"2025-02-24T18:59:17.000Z","modified_by":null,"deleted_on":null,"deleted_by":null,"id":"11265","event_id":"12727","entity_type":"AUDIT_TRAILS","entity_id":null,"description":"Favour tester read AUDIT_TRAILS","ip_address":"10.0.0.2","location":"Lagos","meta":null,"event":{"created_on":"2025-02-24T18:59:17.000Z","created_by":"198","modified_on":"2025-02-24T18:59:17.000Z","modified_by":null,"deleted_on":null,"deleted_by":null,"id":"12727","name":"READ_AUDIT_TRAILS","description":"Favour tester accessed AUDIT_TRAILS to READ","type":"READ_AUDIT_TRAILS"}},{"created_on":"2025-02-24T18:59:17.000Z","created_by":"198","modified_on":"2025-02-24T18:59:17.000Z","modified_by":null,"deleted_on":null,"deleted_by":null,"id":"11266","event_id":"12728","entity_type":"AUDIT_TRAILS","entity_id":null,"description":"Favour tester read AUDIT_TRAILS","ip_address":"10.0.0.2","location":"Lagos","meta":null,"event":{"created_on":"2025-02-24T18:59:17.000Z","created_by":"198","modified_on":"2025-02-24T18:59:17.000Z","modified_by":null,"deleted_on":null,"deleted_by":null,"id":"12728","name":"READ_AUDIT_TRAILS","description":"Favour tester accessed AUDIT_TRAILS to READ","type":"READ_AUDIT_TRAILS"}},{"created_on":"2025-02-24T18:59:17.000Z","created_by":"198","modified_on":"2025-02-24T18:59:17.000Z","modified_by":null,"deleted_on":null,"deleted_by":null,"id":"11267","event_id":"12729","entity_type":"AUDIT_TRAILS","entity_id":null,"description":"Favour tester read AUDIT_TRAILS","ip_address":"10.0.0.2","location":"Lagos","meta":null,"event":{"created_on":"2025-02-24T18:59:17.000Z","created_by":"198","modified_on":"2025-02-24T18:59:17.000Z","modified_by":null,"deleted_on":null,"deleted_by":null,"id":"12729","name":"READ_AUDIT_TRAILS","description":"Favour tester accessed AUDIT_TRAILS to READ","type":"READ_AUDIT_TRAILS"}},{"created_on":"2025-02-24T18:59:17.000Z","created_by":"198","modified_on":"2025-02-24T18:59:17.000Z","modified_by":null,"deleted_on":null,"deleted_by":null,"id":"11268","event_id":"12730","entity_type":"AUDIT_TRAILS","entity_id":null,"description":"Favour tester read AUDIT_TRAILS","ip_address":"10.0.0.2","location":"Lagos","meta":null,"event":{"created_on":"2025-02-24T18:59:17.000Z","created_by":"198","modified_on":"2025-02-24T18:59:17.000Z","modified_by":null,"deleted_on":null,"deleted_by":null,"id":"12730","name":"READ_AUDIT_TRAILS","description":"Favour tester accessed AUDIT_TRAILS to READ","type":"READ_AUDIT_TRAILS"}},{"created_on":"2025-02-24T18:41:00.000Z","created_by":"4","modified_on":"2025-02-24T18:41:00.000Z","modified_by":null,"deleted_on":null,"deleted_by":null,"id":"11264","event_id":"12716","entity_type":"PERMISSIONS","entity_id":null,"description":"Favour Elijah read PERMISSIONS","ip_address":"10.0.0.2","location":"Lagos","meta":null,"event":{"created_on":"2025-02-24T18:41:00.000Z","created_by":"4","modified_on":"2025-02-24T18:41:00.000Z","modified_by":null,"deleted_on":null,"deleted_by":null,"id":"12716","name":"READ_PERMISSIONS","description":"Favour Elijah accessed PERMISSIONS to READ","type":"READ_PERMISSIONS"}},{"created_on":"2025-02-24T18:35:46.000Z","created_by":"4","modified_on":"2025-02-24T18:35:46.000Z","modified_by":null,"deleted_on":null,"deleted_by":null,"id":"11262","event_id":"12714","entity_type":"INVITES","entity_id":null,"description":"Favour Elijah resent invitation notification to INVITES","ip_address":"10.0.0.2","location":"Lagos","meta":null,"event":{"created_on":"2025-02-24T18:35:46.000Z","created_by":"4","modified_on":"2025-02-24T18:35:46.000Z","modified_by":null,"deleted_on":null,"deleted_by":null,"id":"12714","name":"resent invitation notification to_INVITES","description":"Favour Elijah accessed INVITES to resent invitation notification to","type":"CREATE_INVITES"}},{"created_on":"2025-02-24T18:35:46.000Z","created_by":"4","modified_on":"2025-02-24T18:35:46.000Z","modified_by":null,"deleted_on":null,"deleted_by":null,"id":"11263","event_id":"12715","entity_type":"INVITES","entity_id":null,"description":"Favour Elijah resent invitation notification to INVITES","ip_address":"10.0.0.2","location":"Lagos","meta":null,"event":{"created_on":"2025-02-24T18:35:46.000Z","created_by":"4","modified_on":"2025-02-24T18:35:46.000Z","modified_by":null,"deleted_on":null,"deleted_by":null,"id":"12715","name":"resent invitation notification to_INVITES","description":"Favour Elijah accessed INVITES to resent invitation notification to","type":"CREATE_INVITES"}},{"created_on":"2025-02-24T18:35:43.000Z","created_by":"4","modified_on":"2025-02-24T18:35:43.000Z","modified_by":null,"deleted_on":null,"deleted_by":null,"id":"11261","event_id":"12713","entity_type":"INVITES","entity_id":null,"description":"Favour Elijah resent invitation notification to INVITES","ip_address":"10.0.0.2","location":"Lagos","meta":null,"event":{"created_on":"2025-02-24T18:35:43.000Z","created_by":"4","modified_on":"2025-02-24T18:35:43.000Z","modified_by":null,"deleted_on":null,"deleted_by":null,"id":"12713","name":"resent invitation notification to_INVITES","description":"Favour Elijah accessed INVITES to resent invitation notification to","type":"CREATE_INVITES"}},{"created_on":"2025-02-24T18:16:50.000Z","created_by":"188","modified_on":"2025-02-24T18:16:50.000Z","modified_by":null,"deleted_on":null,"deleted_by":null,"id":"11260","event_id":"12712","entity_type":"DEFINITIONS","entity_id":null,"description":"favour Assurdly read DEFINITIONS","ip_address":"10.0.0.2","location":"Lagos","meta":null,"event":{"created_on":"2025-02-24T18:16:50.000Z","created_by":"188","modified_on":"2025-02-24T18:16:50.000Z","modified_by":null,"deleted_on":null,"deleted_by":null,"id":"12712","name":"Check upload status_DEFINITIONS","description":"favour Assurdly accessed DEFINITIONS to Check upload status","type":"READ_DEFINITIONS"}},{"created_on":"2025-02-24T18:13:01.000Z","created_by":"188","modified_on":"2025-02-24T18:13:01.000Z","modified_by":null,"deleted_on":null,"deleted_by":null,"id":"11259","event_id":"12711","entity_type":"SETTINGS","entity_id":"29","description":"favour Assurdly created SETTINGS","ip_address":"10.0.0.2","location":"Lagos","meta":null,"event":{"created_on":"2025-02-24T18:13:01.000Z","created_by":"188","modified_on":"2025-02-24T18:13:01.000Z","modified_by":null,"deleted_on":null,"deleted_by":null,"id":"12711","name":"CREATE_SETTINGS","description":"favour Assurdly accessed SETTINGS to CREATE","type":"CREATE_SETTINGS"}}]}}